^C:\USERS\CAMERON\DOCUMENTS\UNI\REASSESMENTS\HIGH LEVEL ARCHITECTURE\PROJECT\FRAMEWORK\SRC\APPLICATION.CPP|C:\USERS\CAMERON\DOCUMENTS\UNI\REASSESMENTS\HIGH LEVEL ARCHITECTURE\PROJECT\FRAMEWORK\SRC\ERROR.CPP|C:\USERS\CAMERON\DOCUMENTS\UNI\REASSESMENTS\HIGH LEVEL ARCHITECTURE\PROJECT\FRAMEWORK\SRC\GIZMOS.CPP|C:\USERS\CAMERON\DOCUMENTS\UNI\REASSESMENTS\HIGH LEVEL ARCHITECTURE\PROJECT\FRAMEWORK\SRC\UTILITIES.CPP
C:\USERS\CAMERON\DOCUMENTS\UNI\REASSESMENTS\HIGH LEVEL ARCHITECTURE\PROJECT\FRAMEWORK\OBJ\FRAMEWORK.PDB
C:\USERS\CAMERON\DOCUMENTS\UNI\REASSESMENTS\HIGH LEVEL ARCHITECTURE\PROJECT\FRAMEWORK\OBJ\UTILITIES.OBJ
C:\USERS\CAMERON\DOCUMENTS\UNI\REASSESMENTS\HIGH LEVEL ARCHITECTURE\PROJECT\FRAMEWORK\OBJ\GIZMOS.OBJ
C:\USERS\CAMERON\DOCUMENTS\UNI\REASSESMENTS\HIGH LEVEL ARCHITECTURE\PROJECT\FRAMEWORK\OBJ\ERROR.OBJ
C:\USERS\CAMERON\DOCUMENTS\UNI\REASSESMENTS\HIGH LEVEL ARCHITECTURE\PROJECT\FRAMEWORK\OBJ\APPLICATION.OBJ
C:\USERS\CAMERON\DOCUMENTS\UNI\REASSESMENTS\HIGH LEVEL ARCHITECTURE\PROJECT\FRAMEWORK\OBJ\FRAMEWORK.IDB
^C:\USERS\CAMERON\DOCUMENTS\UNI\REASSESMENTS\HIGH LEVEL ARCHITECTURE\PROJECT\FRAMEWORK\SRC\APPLICATION.CPP
C:\USERS\CAMERON\DOCUMENTS\UNI\REASSESMENTS\HIGH LEVEL ARCHITECTURE\PROJECT\FRAMEWORK\OBJ\FRAMEWORK.PDB
^C:\USERS\CAMERON\DOCUMENTS\UNI\REASSESMENTS\HIGH LEVEL ARCHITECTURE\PROJECT\FRAMEWORK\SRC\ERROR.CPP
C:\USERS\CAMERON\DOCUMENTS\UNI\REASSESMENTS\HIGH LEVEL ARCHITECTURE\PROJECT\FRAMEWORK\OBJ\FRAMEWORK.PDB
^C:\USERS\CAMERON\DOCUMENTS\UNI\REASSESMENTS\HIGH LEVEL ARCHITECTURE\PROJECT\FRAMEWORK\SRC\GIZMOS.CPP
C:\USERS\CAMERON\DOCUMENTS\UNI\REASSESMENTS\HIGH LEVEL ARCHITECTURE\PROJECT\FRAMEWORK\OBJ\FRAMEWORK.PDB
^C:\USERS\CAMERON\DOCUMENTS\UNI\REASSESMENTS\HIGH LEVEL ARCHITECTURE\PROJECT\FRAMEWORK\SRC\UTILITIES.CPP
C:\USERS\CAMERON\DOCUMENTS\UNI\REASSESMENTS\HIGH LEVEL ARCHITECTURE\PROJECT\FRAMEWORK\OBJ\FRAMEWORK.PDB
