^C:\ONEDRIVE\ONEDRIVE - UNIVERSITY OF GLOUCESTERSHIRE\PROJECTS - VS\EXAMPLE_BT1\EXAMPLE\SRC\AIACTOR.CPP
/c /I"C:\ONEDRIVE\ONEDRIVE - UNIVERSITY OF GLOUCESTERSHIRE\PROJECTS - VS\EXAMPLE_BT1\EXAMPLE\INCLUDE" /I"C:\ONEDRIVE\ONEDRIVE - UNIVERSITY OF GLOUCESTERSHIRE\PROJECTS - VS\EXAMPLE_BT1\FRAMEWORK/INCLUDE" /I"C:\ONEDRIVE\ONEDRIVE - UNIVERSITY OF GLOUCESTERSHIRE\PROJECTS - VS\EXAMPLE_BT1\DEPS/TINYXML" /I"C:\ONEDRIVE\ONEDRIVE - UNIVERSITY OF GLOUCESTERSHIRE\PROJECTS - VS\EXAMPLE_BT1\DEPS/GLFW/INCLUDE" /I"C:\ONEDRIVE\ONEDRIVE - UNIVERSITY OF GLOUCESTERSHIRE\PROJECTS - VS\EXAMPLE_BT1\DEPS/GLEW-2.0.0/INCLUDE" /I"C:\ONEDRIVE\ONEDRIVE - UNIVERSITY OF GLOUCESTERSHIRE\PROJECTS - VS\EXAMPLE_BT1\DEPS/GLM" /ZI /nologo /W4 /WX- /sdl /Od /D _CRT_SECURE_NO_WARNINGS /D GLM_FORCE_SWIZZLE /D GLM_FORCE_RADIANS /D GLM_FORCE_PURE /D GLM_ENABLE_EXPERIMENTAL /D GLEW_STATIC /D _MBCS /D _MBCS /Gm /EHsc /RTC1 /MDd /GS /fp:precise /Zc:wchar_t /Zc:forScope /Zc:inline /Fo"C:\ONEDRIVE\ONEDRIVE - UNIVERSITY OF GLOUCESTERSHIRE\PROJECTS - VS\EXAMPLE_BT1\EXAMPLE\/OBJ\\" /Fd"C:\ONEDRIVE\ONEDRIVE - UNIVERSITY OF GLOUCESTERSHIRE\PROJECTS - VS\EXAMPLE_BT1\EXAMPLE\/OBJ\VC140.PDB" /Gd /TP /wd4201 /wd4310 /wd4099 C:\ONEDRIVE\ONEDRIVE - UNIVERSITY OF GLOUCESTERSHIRE\PROJECTS - VS\EXAMPLE_BT1\EXAMPLE\SRC\AIACTOR.CPP
^C:\ONEDRIVE\ONEDRIVE - UNIVERSITY OF GLOUCESTERSHIRE\PROJECTS - VS\EXAMPLE_BT1\EXAMPLE\SRC\AIBRAIN.CPP
/c /I"C:\ONEDRIVE\ONEDRIVE - UNIVERSITY OF GLOUCESTERSHIRE\PROJECTS - VS\EXAMPLE_BT1\EXAMPLE\INCLUDE" /I"C:\ONEDRIVE\ONEDRIVE - UNIVERSITY OF GLOUCESTERSHIRE\PROJECTS - VS\EXAMPLE_BT1\FRAMEWORK/INCLUDE" /I"C:\ONEDRIVE\ONEDRIVE - UNIVERSITY OF GLOUCESTERSHIRE\PROJECTS - VS\EXAMPLE_BT1\DEPS/TINYXML" /I"C:\ONEDRIVE\ONEDRIVE - UNIVERSITY OF GLOUCESTERSHIRE\PROJECTS - VS\EXAMPLE_BT1\DEPS/GLFW/INCLUDE" /I"C:\ONEDRIVE\ONEDRIVE - UNIVERSITY OF GLOUCESTERSHIRE\PROJECTS - VS\EXAMPLE_BT1\DEPS/GLEW-2.0.0/INCLUDE" /I"C:\ONEDRIVE\ONEDRIVE - UNIVERSITY OF GLOUCESTERSHIRE\PROJECTS - VS\EXAMPLE_BT1\DEPS/GLM" /ZI /nologo /W4 /WX- /sdl /Od /D _CRT_SECURE_NO_WARNINGS /D GLM_FORCE_SWIZZLE /D GLM_FORCE_RADIANS /D GLM_FORCE_PURE /D GLM_ENABLE_EXPERIMENTAL /D GLEW_STATIC /D _MBCS /D _MBCS /Gm /EHsc /RTC1 /MDd /GS /fp:precise /Zc:wchar_t /Zc:forScope /Zc:inline /Fo"C:\ONEDRIVE\ONEDRIVE - UNIVERSITY OF GLOUCESTERSHIRE\PROJECTS - VS\EXAMPLE_BT1\EXAMPLE\/OBJ\\" /Fd"C:\ONEDRIVE\ONEDRIVE - UNIVERSITY OF GLOUCESTERSHIRE\PROJECTS - VS\EXAMPLE_BT1\EXAMPLE\/OBJ\VC140.PDB" /Gd /TP /wd4201 /wd4310 /wd4099 C:\ONEDRIVE\ONEDRIVE - UNIVERSITY OF GLOUCESTERSHIRE\PROJECTS - VS\EXAMPLE_BT1\EXAMPLE\SRC\AIBRAIN.CPP
^C:\ONEDRIVE\ONEDRIVE - UNIVERSITY OF GLOUCESTERSHIRE\PROJECTS - VS\EXAMPLE_BT1\EXAMPLE\SRC\CHARGEAREA.CPP
/c /I"C:\ONEDRIVE\ONEDRIVE - UNIVERSITY OF GLOUCESTERSHIRE\PROJECTS - VS\EXAMPLE_BT1\EXAMPLE\INCLUDE" /I"C:\ONEDRIVE\ONEDRIVE - UNIVERSITY OF GLOUCESTERSHIRE\PROJECTS - VS\EXAMPLE_BT1\FRAMEWORK/INCLUDE" /I"C:\ONEDRIVE\ONEDRIVE - UNIVERSITY OF GLOUCESTERSHIRE\PROJECTS - VS\EXAMPLE_BT1\DEPS/TINYXML" /I"C:\ONEDRIVE\ONEDRIVE - UNIVERSITY OF GLOUCESTERSHIRE\PROJECTS - VS\EXAMPLE_BT1\DEPS/GLFW/INCLUDE" /I"C:\ONEDRIVE\ONEDRIVE - UNIVERSITY OF GLOUCESTERSHIRE\PROJECTS - VS\EXAMPLE_BT1\DEPS/GLEW-2.0.0/INCLUDE" /I"C:\ONEDRIVE\ONEDRIVE - UNIVERSITY OF GLOUCESTERSHIRE\PROJECTS - VS\EXAMPLE_BT1\DEPS/GLM" /ZI /nologo /W4 /WX- /sdl /Od /D _CRT_SECURE_NO_WARNINGS /D GLM_FORCE_SWIZZLE /D GLM_FORCE_RADIANS /D GLM_FORCE_PURE /D GLM_ENABLE_EXPERIMENTAL /D GLEW_STATIC /D _MBCS /D _MBCS /Gm /EHsc /RTC1 /MDd /GS /fp:precise /Zc:wchar_t /Zc:forScope /Zc:inline /Fo"C:\ONEDRIVE\ONEDRIVE - UNIVERSITY OF GLOUCESTERSHIRE\PROJECTS - VS\EXAMPLE_BT1\EXAMPLE\/OBJ\\" /Fd"C:\ONEDRIVE\ONEDRIVE - UNIVERSITY OF GLOUCESTERSHIRE\PROJECTS - VS\EXAMPLE_BT1\EXAMPLE\/OBJ\VC140.PDB" /Gd /TP /wd4201 /wd4310 /wd4099 C:\ONEDRIVE\ONEDRIVE - UNIVERSITY OF GLOUCESTERSHIRE\PROJECTS - VS\EXAMPLE_BT1\EXAMPLE\SRC\CHARGEAREA.CPP
^C:\ONEDRIVE\ONEDRIVE - UNIVERSITY OF GLOUCESTERSHIRE\PROJECTS - VS\EXAMPLE_BT1\EXAMPLE\SRC\INVERTER.CPP
/c /I"C:\ONEDRIVE\ONEDRIVE - UNIVERSITY OF GLOUCESTERSHIRE\PROJECTS - VS\EXAMPLE_BT1\EXAMPLE\INCLUDE" /I"C:\ONEDRIVE\ONEDRIVE - UNIVERSITY OF GLOUCESTERSHIRE\PROJECTS - VS\EXAMPLE_BT1\FRAMEWORK/INCLUDE" /I"C:\ONEDRIVE\ONEDRIVE - UNIVERSITY OF GLOUCESTERSHIRE\PROJECTS - VS\EXAMPLE_BT1\DEPS/TINYXML" /I"C:\ONEDRIVE\ONEDRIVE - UNIVERSITY OF GLOUCESTERSHIRE\PROJECTS - VS\EXAMPLE_BT1\DEPS/GLFW/INCLUDE" /I"C:\ONEDRIVE\ONEDRIVE - UNIVERSITY OF GLOUCESTERSHIRE\PROJECTS - VS\EXAMPLE_BT1\DEPS/GLEW-2.0.0/INCLUDE" /I"C:\ONEDRIVE\ONEDRIVE - UNIVERSITY OF GLOUCESTERSHIRE\PROJECTS - VS\EXAMPLE_BT1\DEPS/GLM" /ZI /nologo /W4 /WX- /sdl /Od /D _CRT_SECURE_NO_WARNINGS /D GLM_FORCE_SWIZZLE /D GLM_FORCE_RADIANS /D GLM_FORCE_PURE /D GLM_ENABLE_EXPERIMENTAL /D GLEW_STATIC /D _MBCS /D _MBCS /Gm /EHsc /RTC1 /MDd /GS /fp:precise /Zc:wchar_t /Zc:forScope /Zc:inline /Fo"C:\ONEDRIVE\ONEDRIVE - UNIVERSITY OF GLOUCESTERSHIRE\PROJECTS - VS\EXAMPLE_BT1\EXAMPLE\/OBJ\\" /Fd"C:\ONEDRIVE\ONEDRIVE - UNIVERSITY OF GLOUCESTERSHIRE\PROJECTS - VS\EXAMPLE_BT1\EXAMPLE\/OBJ\VC140.PDB" /Gd /TP /wd4201 /wd4310 /wd4099 C:\ONEDRIVE\ONEDRIVE - UNIVERSITY OF GLOUCESTERSHIRE\PROJECTS - VS\EXAMPLE_BT1\EXAMPLE\SRC\INVERTER.CPP
^C:\ONEDRIVE\ONEDRIVE - UNIVERSITY OF GLOUCESTERSHIRE\PROJECTS - VS\EXAMPLE_BT1\EXAMPLE\SRC\ISCHARGELOW.CPP
/c /I"C:\ONEDRIVE\ONEDRIVE - UNIVERSITY OF GLOUCESTERSHIRE\PROJECTS - VS\EXAMPLE_BT1\EXAMPLE\INCLUDE" /I"C:\ONEDRIVE\ONEDRIVE - UNIVERSITY OF GLOUCESTERSHIRE\PROJECTS - VS\EXAMPLE_BT1\FRAMEWORK/INCLUDE" /I"C:\ONEDRIVE\ONEDRIVE - UNIVERSITY OF GLOUCESTERSHIRE\PROJECTS - VS\EXAMPLE_BT1\DEPS/TINYXML" /I"C:\ONEDRIVE\ONEDRIVE - UNIVERSITY OF GLOUCESTERSHIRE\PROJECTS - VS\EXAMPLE_BT1\DEPS/GLFW/INCLUDE" /I"C:\ONEDRIVE\ONEDRIVE - UNIVERSITY OF GLOUCESTERSHIRE\PROJECTS - VS\EXAMPLE_BT1\DEPS/GLEW-2.0.0/INCLUDE" /I"C:\ONEDRIVE\ONEDRIVE - UNIVERSITY OF GLOUCESTERSHIRE\PROJECTS - VS\EXAMPLE_BT1\DEPS/GLM" /ZI /nologo /W4 /WX- /sdl /Od /D _CRT_SECURE_NO_WARNINGS /D GLM_FORCE_SWIZZLE /D GLM_FORCE_RADIANS /D GLM_FORCE_PURE /D GLM_ENABLE_EXPERIMENTAL /D GLEW_STATIC /D _MBCS /D _MBCS /Gm /EHsc /RTC1 /MDd /GS /fp:precise /Zc:wchar_t /Zc:forScope /Zc:inline /Fo"C:\ONEDRIVE\ONEDRIVE - UNIVERSITY OF GLOUCESTERSHIRE\PROJECTS - VS\EXAMPLE_BT1\EXAMPLE\/OBJ\\" /Fd"C:\ONEDRIVE\ONEDRIVE - UNIVERSITY OF GLOUCESTERSHIRE\PROJECTS - VS\EXAMPLE_BT1\EXAMPLE\/OBJ\VC140.PDB" /Gd /TP /wd4201 /wd4310 /wd4099 C:\ONEDRIVE\ONEDRIVE - UNIVERSITY OF GLOUCESTERSHIRE\PROJECTS - VS\EXAMPLE_BT1\EXAMPLE\SRC\ISCHARGELOW.CPP
^C:\ONEDRIVE\ONEDRIVE - UNIVERSITY OF GLOUCESTERSHIRE\PROJECTS - VS\EXAMPLE_BT1\EXAMPLE\SRC\MAIN.CPP
/c /I"C:\ONEDRIVE\ONEDRIVE - UNIVERSITY OF GLOUCESTERSHIRE\PROJECTS - VS\EXAMPLE_BT1\EXAMPLE\INCLUDE" /I"C:\ONEDRIVE\ONEDRIVE - UNIVERSITY OF GLOUCESTERSHIRE\PROJECTS - VS\EXAMPLE_BT1\FRAMEWORK/INCLUDE" /I"C:\ONEDRIVE\ONEDRIVE - UNIVERSITY OF GLOUCESTERSHIRE\PROJECTS - VS\EXAMPLE_BT1\DEPS/TINYXML" /I"C:\ONEDRIVE\ONEDRIVE - UNIVERSITY OF GLOUCESTERSHIRE\PROJECTS - VS\EXAMPLE_BT1\DEPS/GLFW/INCLUDE" /I"C:\ONEDRIVE\ONEDRIVE - UNIVERSITY OF GLOUCESTERSHIRE\PROJECTS - VS\EXAMPLE_BT1\DEPS/GLEW-2.0.0/INCLUDE" /I"C:\ONEDRIVE\ONEDRIVE - UNIVERSITY OF GLOUCESTERSHIRE\PROJECTS - VS\EXAMPLE_BT1\DEPS/GLM" /ZI /nologo /W4 /WX- /sdl /Od /D _CRT_SECURE_NO_WARNINGS /D GLM_FORCE_SWIZZLE /D GLM_FORCE_RADIANS /D GLM_FORCE_PURE /D GLM_ENABLE_EXPERIMENTAL /D GLEW_STATIC /D _MBCS /D _MBCS /Gm /EHsc /RTC1 /MDd /GS /fp:precise /Zc:wchar_t /Zc:forScope /Zc:inline /Fo"C:\ONEDRIVE\ONEDRIVE - UNIVERSITY OF GLOUCESTERSHIRE\PROJECTS - VS\EXAMPLE_BT1\EXAMPLE\/OBJ\\" /Fd"C:\ONEDRIVE\ONEDRIVE - UNIVERSITY OF GLOUCESTERSHIRE\PROJECTS - VS\EXAMPLE_BT1\EXAMPLE\/OBJ\VC140.PDB" /Gd /TP /wd4201 /wd4310 /wd4099 C:\ONEDRIVE\ONEDRIVE - UNIVERSITY OF GLOUCESTERSHIRE\PROJECTS - VS\EXAMPLE_BT1\EXAMPLE\SRC\MAIN.CPP
^C:\ONEDRIVE\ONEDRIVE - UNIVERSITY OF GLOUCESTERSHIRE\PROJECTS - VS\EXAMPLE_BT1\EXAMPLE\SRC\PATROL.CPP
/c /I"C:\ONEDRIVE\ONEDRIVE - UNIVERSITY OF GLOUCESTERSHIRE\PROJECTS - VS\EXAMPLE_BT1\EXAMPLE\INCLUDE" /I"C:\ONEDRIVE\ONEDRIVE - UNIVERSITY OF GLOUCESTERSHIRE\PROJECTS - VS\EXAMPLE_BT1\FRAMEWORK/INCLUDE" /I"C:\ONEDRIVE\ONEDRIVE - UNIVERSITY OF GLOUCESTERSHIRE\PROJECTS - VS\EXAMPLE_BT1\DEPS/TINYXML" /I"C:\ONEDRIVE\ONEDRIVE - UNIVERSITY OF GLOUCESTERSHIRE\PROJECTS - VS\EXAMPLE_BT1\DEPS/GLFW/INCLUDE" /I"C:\ONEDRIVE\ONEDRIVE - UNIVERSITY OF GLOUCESTERSHIRE\PROJECTS - VS\EXAMPLE_BT1\DEPS/GLEW-2.0.0/INCLUDE" /I"C:\ONEDRIVE\ONEDRIVE - UNIVERSITY OF GLOUCESTERSHIRE\PROJECTS - VS\EXAMPLE_BT1\DEPS/GLM" /ZI /nologo /W4 /WX- /sdl /Od /D _CRT_SECURE_NO_WARNINGS /D GLM_FORCE_SWIZZLE /D GLM_FORCE_RADIANS /D GLM_FORCE_PURE /D GLM_ENABLE_EXPERIMENTAL /D GLEW_STATIC /D _MBCS /D _MBCS /Gm /EHsc /RTC1 /MDd /GS /fp:precise /Zc:wchar_t /Zc:forScope /Zc:inline /Fo"C:\ONEDRIVE\ONEDRIVE - UNIVERSITY OF GLOUCESTERSHIRE\PROJECTS - VS\EXAMPLE_BT1\EXAMPLE\/OBJ\\" /Fd"C:\ONEDRIVE\ONEDRIVE - UNIVERSITY OF GLOUCESTERSHIRE\PROJECTS - VS\EXAMPLE_BT1\EXAMPLE\/OBJ\VC140.PDB" /Gd /TP /wd4201 /wd4310 /wd4099 C:\ONEDRIVE\ONEDRIVE - UNIVERSITY OF GLOUCESTERSHIRE\PROJECTS - VS\EXAMPLE_BT1\EXAMPLE\SRC\PATROL.CPP
^C:\ONEDRIVE\ONEDRIVE - UNIVERSITY OF GLOUCESTERSHIRE\PROJECTS - VS\EXAMPLE_BT1\EXAMPLE\SRC\MYAPPLICATION.CPP
/c /I"C:\ONEDRIVE\ONEDRIVE - UNIVERSITY OF GLOUCESTERSHIRE\PROJECTS - VS\EXAMPLE_BT1\EXAMPLE\INCLUDE" /I"C:\ONEDRIVE\ONEDRIVE - UNIVERSITY OF GLOUCESTERSHIRE\PROJECTS - VS\EXAMPLE_BT1\FRAMEWORK/INCLUDE" /I"C:\ONEDRIVE\ONEDRIVE - UNIVERSITY OF GLOUCESTERSHIRE\PROJECTS - VS\EXAMPLE_BT1\DEPS/TINYXML" /I"C:\ONEDRIVE\ONEDRIVE - UNIVERSITY OF GLOUCESTERSHIRE\PROJECTS - VS\EXAMPLE_BT1\DEPS/GLFW/INCLUDE" /I"C:\ONEDRIVE\ONEDRIVE - UNIVERSITY OF GLOUCESTERSHIRE\PROJECTS - VS\EXAMPLE_BT1\DEPS/GLEW-2.0.0/INCLUDE" /I"C:\ONEDRIVE\ONEDRIVE - UNIVERSITY OF GLOUCESTERSHIRE\PROJECTS - VS\EXAMPLE_BT1\DEPS/GLM" /ZI /nologo /W4 /WX- /sdl /Od /D _CRT_SECURE_NO_WARNINGS /D GLM_FORCE_SWIZZLE /D GLM_FORCE_RADIANS /D GLM_FORCE_PURE /D GLM_ENABLE_EXPERIMENTAL /D GLEW_STATIC /D _MBCS /D _MBCS /Gm /EHsc /RTC1 /MDd /GS /fp:precise /Zc:wchar_t /Zc:forScope /Zc:inline /Fo"C:\ONEDRIVE\ONEDRIVE - UNIVERSITY OF GLOUCESTERSHIRE\PROJECTS - VS\EXAMPLE_BT1\EXAMPLE\/OBJ\\" /Fd"C:\ONEDRIVE\ONEDRIVE - UNIVERSITY OF GLOUCESTERSHIRE\PROJECTS - VS\EXAMPLE_BT1\EXAMPLE\/OBJ\VC140.PDB" /Gd /TP /wd4201 /wd4310 /wd4099 C:\ONEDRIVE\ONEDRIVE - UNIVERSITY OF GLOUCESTERSHIRE\PROJECTS - VS\EXAMPLE_BT1\EXAMPLE\SRC\MYAPPLICATION.CPP
^C:\ONEDRIVE\ONEDRIVE - UNIVERSITY OF GLOUCESTERSHIRE\PROJECTS - VS\EXAMPLE_BT1\EXAMPLE\SRC\PATROLANDCHARGEBT.CPP
/c /I"C:\ONEDRIVE\ONEDRIVE - UNIVERSITY OF GLOUCESTERSHIRE\PROJECTS - VS\EXAMPLE_BT1\EXAMPLE\INCLUDE" /I"C:\ONEDRIVE\ONEDRIVE - UNIVERSITY OF GLOUCESTERSHIRE\PROJECTS - VS\EXAMPLE_BT1\FRAMEWORK/INCLUDE" /I"C:\ONEDRIVE\ONEDRIVE - UNIVERSITY OF GLOUCESTERSHIRE\PROJECTS - VS\EXAMPLE_BT1\DEPS/TINYXML" /I"C:\ONEDRIVE\ONEDRIVE - UNIVERSITY OF GLOUCESTERSHIRE\PROJECTS - VS\EXAMPLE_BT1\DEPS/GLFW/INCLUDE" /I"C:\ONEDRIVE\ONEDRIVE - UNIVERSITY OF GLOUCESTERSHIRE\PROJECTS - VS\EXAMPLE_BT1\DEPS/GLEW-2.0.0/INCLUDE" /I"C:\ONEDRIVE\ONEDRIVE - UNIVERSITY OF GLOUCESTERSHIRE\PROJECTS - VS\EXAMPLE_BT1\DEPS/GLM" /ZI /nologo /W4 /WX- /sdl /Od /D _CRT_SECURE_NO_WARNINGS /D GLM_FORCE_SWIZZLE /D GLM_FORCE_RADIANS /D GLM_FORCE_PURE /D GLM_ENABLE_EXPERIMENTAL /D GLEW_STATIC /D _MBCS /D _MBCS /Gm /EHsc /RTC1 /MDd /GS /fp:precise /Zc:wchar_t /Zc:forScope /Zc:inline /Fo"C:\ONEDRIVE\ONEDRIVE - UNIVERSITY OF GLOUCESTERSHIRE\PROJECTS - VS\EXAMPLE_BT1\EXAMPLE\/OBJ\\" /Fd"C:\ONEDRIVE\ONEDRIVE - UNIVERSITY OF GLOUCESTERSHIRE\PROJECTS - VS\EXAMPLE_BT1\EXAMPLE\/OBJ\VC140.PDB" /Gd /TP /wd4201 /wd4310 /wd4099 C:\ONEDRIVE\ONEDRIVE - UNIVERSITY OF GLOUCESTERSHIRE\PROJECTS - VS\EXAMPLE_BT1\EXAMPLE\SRC\PATROLANDCHARGEBT.CPP
^C:\ONEDRIVE\ONEDRIVE - UNIVERSITY OF GLOUCESTERSHIRE\PROJECTS - VS\EXAMPLE_BT1\EXAMPLE\SRC\RECHARGE.CPP
/c /I"C:\ONEDRIVE\ONEDRIVE - UNIVERSITY OF GLOUCESTERSHIRE\PROJECTS - VS\EXAMPLE_BT1\EXAMPLE\INCLUDE" /I"C:\ONEDRIVE\ONEDRIVE - UNIVERSITY OF GLOUCESTERSHIRE\PROJECTS - VS\EXAMPLE_BT1\FRAMEWORK/INCLUDE" /I"C:\ONEDRIVE\ONEDRIVE - UNIVERSITY OF GLOUCESTERSHIRE\PROJECTS - VS\EXAMPLE_BT1\DEPS/TINYXML" /I"C:\ONEDRIVE\ONEDRIVE - UNIVERSITY OF GLOUCESTERSHIRE\PROJECTS - VS\EXAMPLE_BT1\DEPS/GLFW/INCLUDE" /I"C:\ONEDRIVE\ONEDRIVE - UNIVERSITY OF GLOUCESTERSHIRE\PROJECTS - VS\EXAMPLE_BT1\DEPS/GLEW-2.0.0/INCLUDE" /I"C:\ONEDRIVE\ONEDRIVE - UNIVERSITY OF GLOUCESTERSHIRE\PROJECTS - VS\EXAMPLE_BT1\DEPS/GLM" /ZI /nologo /W4 /WX- /sdl /Od /D _CRT_SECURE_NO_WARNINGS /D GLM_FORCE_SWIZZLE /D GLM_FORCE_RADIANS /D GLM_FORCE_PURE /D GLM_ENABLE_EXPERIMENTAL /D GLEW_STATIC /D _MBCS /D _MBCS /Gm /EHsc /RTC1 /MDd /GS /fp:precise /Zc:wchar_t /Zc:forScope /Zc:inline /Fo"C:\ONEDRIVE\ONEDRIVE - UNIVERSITY OF GLOUCESTERSHIRE\PROJECTS - VS\EXAMPLE_BT1\EXAMPLE\/OBJ\\" /Fd"C:\ONEDRIVE\ONEDRIVE - UNIVERSITY OF GLOUCESTERSHIRE\PROJECTS - VS\EXAMPLE_BT1\EXAMPLE\/OBJ\VC140.PDB" /Gd /TP /wd4201 /wd4310 /wd4099 C:\ONEDRIVE\ONEDRIVE - UNIVERSITY OF GLOUCESTERSHIRE\PROJECTS - VS\EXAMPLE_BT1\EXAMPLE\SRC\RECHARGE.CPP
^C:\ONEDRIVE\ONEDRIVE - UNIVERSITY OF GLOUCESTERSHIRE\PROJECTS - VS\EXAMPLE_BT1\EXAMPLE\SRC\SELECTOR.CPP
/c /I"C:\ONEDRIVE\ONEDRIVE - UNIVERSITY OF GLOUCESTERSHIRE\PROJECTS - VS\EXAMPLE_BT1\EXAMPLE\INCLUDE" /I"C:\ONEDRIVE\ONEDRIVE - UNIVERSITY OF GLOUCESTERSHIRE\PROJECTS - VS\EXAMPLE_BT1\FRAMEWORK/INCLUDE" /I"C:\ONEDRIVE\ONEDRIVE - UNIVERSITY OF GLOUCESTERSHIRE\PROJECTS - VS\EXAMPLE_BT1\DEPS/TINYXML" /I"C:\ONEDRIVE\ONEDRIVE - UNIVERSITY OF GLOUCESTERSHIRE\PROJECTS - VS\EXAMPLE_BT1\DEPS/GLFW/INCLUDE" /I"C:\ONEDRIVE\ONEDRIVE - UNIVERSITY OF GLOUCESTERSHIRE\PROJECTS - VS\EXAMPLE_BT1\DEPS/GLEW-2.0.0/INCLUDE" /I"C:\ONEDRIVE\ONEDRIVE - UNIVERSITY OF GLOUCESTERSHIRE\PROJECTS - VS\EXAMPLE_BT1\DEPS/GLM" /ZI /nologo /W4 /WX- /sdl /Od /D _CRT_SECURE_NO_WARNINGS /D GLM_FORCE_SWIZZLE /D GLM_FORCE_RADIANS /D GLM_FORCE_PURE /D GLM_ENABLE_EXPERIMENTAL /D GLEW_STATIC /D _MBCS /D _MBCS /Gm /EHsc /RTC1 /MDd /GS /fp:precise /Zc:wchar_t /Zc:forScope /Zc:inline /Fo"C:\ONEDRIVE\ONEDRIVE - UNIVERSITY OF GLOUCESTERSHIRE\PROJECTS - VS\EXAMPLE_BT1\EXAMPLE\/OBJ\\" /Fd"C:\ONEDRIVE\ONEDRIVE - UNIVERSITY OF GLOUCESTERSHIRE\PROJECTS - VS\EXAMPLE_BT1\EXAMPLE\/OBJ\VC140.PDB" /Gd /TP /wd4201 /wd4310 /wd4099 C:\ONEDRIVE\ONEDRIVE - UNIVERSITY OF GLOUCESTERSHIRE\PROJECTS - VS\EXAMPLE_BT1\EXAMPLE\SRC\SELECTOR.CPP
^C:\ONEDRIVE\ONEDRIVE - UNIVERSITY OF GLOUCESTERSHIRE\PROJECTS - VS\EXAMPLE_BT1\EXAMPLE\SRC\SEQUENCE.CPP
/c /I"C:\ONEDRIVE\ONEDRIVE - UNIVERSITY OF GLOUCESTERSHIRE\PROJECTS - VS\EXAMPLE_BT1\EXAMPLE\INCLUDE" /I"C:\ONEDRIVE\ONEDRIVE - UNIVERSITY OF GLOUCESTERSHIRE\PROJECTS - VS\EXAMPLE_BT1\FRAMEWORK/INCLUDE" /I"C:\ONEDRIVE\ONEDRIVE - UNIVERSITY OF GLOUCESTERSHIRE\PROJECTS - VS\EXAMPLE_BT1\DEPS/TINYXML" /I"C:\ONEDRIVE\ONEDRIVE - UNIVERSITY OF GLOUCESTERSHIRE\PROJECTS - VS\EXAMPLE_BT1\DEPS/GLFW/INCLUDE" /I"C:\ONEDRIVE\ONEDRIVE - UNIVERSITY OF GLOUCESTERSHIRE\PROJECTS - VS\EXAMPLE_BT1\DEPS/GLEW-2.0.0/INCLUDE" /I"C:\ONEDRIVE\ONEDRIVE - UNIVERSITY OF GLOUCESTERSHIRE\PROJECTS - VS\EXAMPLE_BT1\DEPS/GLM" /ZI /nologo /W4 /WX- /sdl /Od /D _CRT_SECURE_NO_WARNINGS /D GLM_FORCE_SWIZZLE /D GLM_FORCE_RADIANS /D GLM_FORCE_PURE /D GLM_ENABLE_EXPERIMENTAL /D GLEW_STATIC /D _MBCS /D _MBCS /Gm /EHsc /RTC1 /MDd /GS /fp:precise /Zc:wchar_t /Zc:forScope /Zc:inline /Fo"C:\ONEDRIVE\ONEDRIVE - UNIVERSITY OF GLOUCESTERSHIRE\PROJECTS - VS\EXAMPLE_BT1\EXAMPLE\/OBJ\\" /Fd"C:\ONEDRIVE\ONEDRIVE - UNIVERSITY OF GLOUCESTERSHIRE\PROJECTS - VS\EXAMPLE_BT1\EXAMPLE\/OBJ\VC140.PDB" /Gd /TP /wd4201 /wd4310 /wd4099 C:\ONEDRIVE\ONEDRIVE - UNIVERSITY OF GLOUCESTERSHIRE\PROJECTS - VS\EXAMPLE_BT1\EXAMPLE\SRC\SEQUENCE.CPP
^C:\USERS\CAMERON\DOCUMENTS\UNI\REASSESMENTS\HIGH LEVEL ARCHITECTURE\PROJECT\EXAMPLE\SRC\DECORATOR.CPP
/c /I"C:\USERS\CAMERON\DOCUMENTS\UNI\REASSESMENTS\HIGH LEVEL ARCHITECTURE\PROJECT\EXAMPLE\INCLUDE" /I"C:\USERS\CAMERON\DOCUMENTS\UNI\REASSESMENTS\HIGH LEVEL ARCHITECTURE\PROJECT\FRAMEWORK/INCLUDE" /I"C:\USERS\CAMERON\DOCUMENTS\UNI\REASSESMENTS\HIGH LEVEL ARCHITECTURE\PROJECT\DEPS/TINYXML" /I"C:\USERS\CAMERON\DOCUMENTS\UNI\REASSESMENTS\HIGH LEVEL ARCHITECTURE\PROJECT\DEPS/GLFW/INCLUDE" /I"C:\USERS\CAMERON\DOCUMENTS\UNI\REASSESMENTS\HIGH LEVEL ARCHITECTURE\PROJECT\DEPS/GLEW-2.0.0/INCLUDE" /I"C:\USERS\CAMERON\DOCUMENTS\UNI\REASSESMENTS\HIGH LEVEL ARCHITECTURE\PROJECT\DEPS/GLM" /ZI /nologo /W4 /WX- /sdl /Od /D _CRT_SECURE_NO_WARNINGS /D GLM_FORCE_SWIZZLE /D GLM_FORCE_RADIANS /D GLM_FORCE_PURE /D GLM_ENABLE_EXPERIMENTAL /D GLEW_STATIC /D _MBCS /D _MBCS /Gm /EHsc /RTC1 /MDd /GS /fp:precise /Zc:wchar_t /Zc:forScope /Zc:inline /Fo"C:\USERS\CAMERON\DOCUMENTS\UNI\REASSESMENTS\HIGH LEVEL ARCHITECTURE\PROJECT\EXAMPLE\/OBJ\\" /Fd"C:\USERS\CAMERON\DOCUMENTS\UNI\REASSESMENTS\HIGH LEVEL ARCHITECTURE\PROJECT\EXAMPLE\/OBJ\VC140.PDB" /Gd /TP /wd4201 /wd4310 /wd4099 C:\USERS\CAMERON\DOCUMENTS\UNI\REASSESMENTS\HIGH LEVEL ARCHITECTURE\PROJECT\EXAMPLE\SRC\DECORATOR.CPP
^C:\USERS\CAMERON\DOCUMENTS\UNI\REASSESMENTS\HIGH LEVEL ARCHITECTURE\PROJECT\EXAMPLE\SOURCE\NAVMESH.CPP
/c /I"C:\USERS\CAMERON\DOCUMENTS\UNI\REASSESMENTS\HIGH LEVEL ARCHITECTURE\PROJECT\EXAMPLE\INCLUDE" /I"C:\USERS\CAMERON\DOCUMENTS\UNI\REASSESMENTS\HIGH LEVEL ARCHITECTURE\PROJECT\FRAMEWORK/INCLUDE" /I"C:\USERS\CAMERON\DOCUMENTS\UNI\REASSESMENTS\HIGH LEVEL ARCHITECTURE\PROJECT\DEPS/TINYXML" /I"C:\USERS\CAMERON\DOCUMENTS\UNI\REASSESMENTS\HIGH LEVEL ARCHITECTURE\PROJECT\DEPS/GLFW/INCLUDE" /I"C:\USERS\CAMERON\DOCUMENTS\UNI\REASSESMENTS\HIGH LEVEL ARCHITECTURE\PROJECT\DEPS/GLEW-2.0.0/INCLUDE" /I"C:\USERS\CAMERON\DOCUMENTS\UNI\REASSESMENTS\HIGH LEVEL ARCHITECTURE\PROJECT\DEPS/GLM" /ZI /nologo /W4 /WX- /sdl /Od /D _CRT_SECURE_NO_WARNINGS /D GLM_FORCE_SWIZZLE /D GLM_FORCE_RADIANS /D GLM_FORCE_PURE /D GLM_ENABLE_EXPERIMENTAL /D GLEW_STATIC /D _MBCS /D _MBCS /Gm /EHsc /RTC1 /MDd /GS /fp:precise /Zc:wchar_t /Zc:forScope /Zc:inline /Fo"C:\USERS\CAMERON\DOCUMENTS\UNI\REASSESMENTS\HIGH LEVEL ARCHITECTURE\PROJECT\EXAMPLE\/OBJ\\" /Fd"C:\USERS\CAMERON\DOCUMENTS\UNI\REASSESMENTS\HIGH LEVEL ARCHITECTURE\PROJECT\EXAMPLE\/OBJ\VC140.PDB" /Gd /TP /wd4201 /wd4310 /wd4099 C:\USERS\CAMERON\DOCUMENTS\UNI\REASSESMENTS\HIGH LEVEL ARCHITECTURE\PROJECT\EXAMPLE\SOURCE\NAVMESH.CPP
^C:\USERS\CAMERON\DOCUMENTS\UNI\REASSESMENTS\HIGH LEVEL ARCHITECTURE\PROJECT\EXAMPLE\SRC\AIACTOR.CPP
/c /I"C:\USERS\CAMERON\DOCUMENTS\UNI\REASSESMENTS\HIGH LEVEL ARCHITECTURE\PROJECT\EXAMPLE\INCLUDE" /I"C:\USERS\CAMERON\DOCUMENTS\UNI\REASSESMENTS\HIGH LEVEL ARCHITECTURE\PROJECT\FRAMEWORK/INCLUDE" /I"C:\USERS\CAMERON\DOCUMENTS\UNI\REASSESMENTS\HIGH LEVEL ARCHITECTURE\PROJECT\DEPS/TINYXML" /I"C:\USERS\CAMERON\DOCUMENTS\UNI\REASSESMENTS\HIGH LEVEL ARCHITECTURE\PROJECT\DEPS/GLFW/INCLUDE" /I"C:\USERS\CAMERON\DOCUMENTS\UNI\REASSESMENTS\HIGH LEVEL ARCHITECTURE\PROJECT\DEPS/GLEW-2.0.0/INCLUDE" /I"C:\USERS\CAMERON\DOCUMENTS\UNI\REASSESMENTS\HIGH LEVEL ARCHITECTURE\PROJECT\DEPS/GLM" /ZI /nologo /W4 /WX- /sdl /Od /D _CRT_SECURE_NO_WARNINGS /D GLM_FORCE_SWIZZLE /D GLM_FORCE_RADIANS /D GLM_FORCE_PURE /D GLM_ENABLE_EXPERIMENTAL /D GLEW_STATIC /D _MBCS /D _MBCS /Gm /EHsc /RTC1 /MDd /GS /fp:precise /Zc:wchar_t /Zc:forScope /Zc:inline /Fo"C:\USERS\CAMERON\DOCUMENTS\UNI\REASSESMENTS\HIGH LEVEL ARCHITECTURE\PROJECT\EXAMPLE\/OBJ\\" /Fd"C:\USERS\CAMERON\DOCUMENTS\UNI\REASSESMENTS\HIGH LEVEL ARCHITECTURE\PROJECT\EXAMPLE\/OBJ\VC140.PDB" /Gd /TP /wd4201 /wd4310 /wd4099 C:\USERS\CAMERON\DOCUMENTS\UNI\REASSESMENTS\HIGH LEVEL ARCHITECTURE\PROJECT\EXAMPLE\SRC\AIACTOR.CPP
^C:\USERS\CAMERON\DOCUMENTS\UNI\REASSESMENTS\HIGH LEVEL ARCHITECTURE\PROJECT\EXAMPLE\SRC\AIBRAIN.CPP
/c /I"C:\USERS\CAMERON\DOCUMENTS\UNI\REASSESMENTS\HIGH LEVEL ARCHITECTURE\PROJECT\EXAMPLE\INCLUDE" /I"C:\USERS\CAMERON\DOCUMENTS\UNI\REASSESMENTS\HIGH LEVEL ARCHITECTURE\PROJECT\FRAMEWORK/INCLUDE" /I"C:\USERS\CAMERON\DOCUMENTS\UNI\REASSESMENTS\HIGH LEVEL ARCHITECTURE\PROJECT\DEPS/TINYXML" /I"C:\USERS\CAMERON\DOCUMENTS\UNI\REASSESMENTS\HIGH LEVEL ARCHITECTURE\PROJECT\DEPS/GLFW/INCLUDE" /I"C:\USERS\CAMERON\DOCUMENTS\UNI\REASSESMENTS\HIGH LEVEL ARCHITECTURE\PROJECT\DEPS/GLEW-2.0.0/INCLUDE" /I"C:\USERS\CAMERON\DOCUMENTS\UNI\REASSESMENTS\HIGH LEVEL ARCHITECTURE\PROJECT\DEPS/GLM" /ZI /nologo /W4 /WX- /sdl /Od /D _CRT_SECURE_NO_WARNINGS /D GLM_FORCE_SWIZZLE /D GLM_FORCE_RADIANS /D GLM_FORCE_PURE /D GLM_ENABLE_EXPERIMENTAL /D GLEW_STATIC /D _MBCS /D _MBCS /Gm /EHsc /RTC1 /MDd /GS /fp:precise /Zc:wchar_t /Zc:forScope /Zc:inline /Fo"C:\USERS\CAMERON\DOCUMENTS\UNI\REASSESMENTS\HIGH LEVEL ARCHITECTURE\PROJECT\EXAMPLE\/OBJ\\" /Fd"C:\USERS\CAMERON\DOCUMENTS\UNI\REASSESMENTS\HIGH LEVEL ARCHITECTURE\PROJECT\EXAMPLE\/OBJ\VC140.PDB" /Gd /TP /wd4201 /wd4310 /wd4099 C:\USERS\CAMERON\DOCUMENTS\UNI\REASSESMENTS\HIGH LEVEL ARCHITECTURE\PROJECT\EXAMPLE\SRC\AIBRAIN.CPP
^C:\USERS\CAMERON\DOCUMENTS\UNI\REASSESMENTS\HIGH LEVEL ARCHITECTURE\PROJECT\EXAMPLE\SRC\CHARGEAREA.CPP
/c /I"C:\USERS\CAMERON\DOCUMENTS\UNI\REASSESMENTS\HIGH LEVEL ARCHITECTURE\PROJECT\EXAMPLE\INCLUDE" /I"C:\USERS\CAMERON\DOCUMENTS\UNI\REASSESMENTS\HIGH LEVEL ARCHITECTURE\PROJECT\FRAMEWORK/INCLUDE" /I"C:\USERS\CAMERON\DOCUMENTS\UNI\REASSESMENTS\HIGH LEVEL ARCHITECTURE\PROJECT\DEPS/TINYXML" /I"C:\USERS\CAMERON\DOCUMENTS\UNI\REASSESMENTS\HIGH LEVEL ARCHITECTURE\PROJECT\DEPS/GLFW/INCLUDE" /I"C:\USERS\CAMERON\DOCUMENTS\UNI\REASSESMENTS\HIGH LEVEL ARCHITECTURE\PROJECT\DEPS/GLEW-2.0.0/INCLUDE" /I"C:\USERS\CAMERON\DOCUMENTS\UNI\REASSESMENTS\HIGH LEVEL ARCHITECTURE\PROJECT\DEPS/GLM" /ZI /nologo /W4 /WX- /sdl /Od /D _CRT_SECURE_NO_WARNINGS /D GLM_FORCE_SWIZZLE /D GLM_FORCE_RADIANS /D GLM_FORCE_PURE /D GLM_ENABLE_EXPERIMENTAL /D GLEW_STATIC /D _MBCS /D _MBCS /Gm /EHsc /RTC1 /MDd /GS /fp:precise /Zc:wchar_t /Zc:forScope /Zc:inline /Fo"C:\USERS\CAMERON\DOCUMENTS\UNI\REASSESMENTS\HIGH LEVEL ARCHITECTURE\PROJECT\EXAMPLE\/OBJ\\" /Fd"C:\USERS\CAMERON\DOCUMENTS\UNI\REASSESMENTS\HIGH LEVEL ARCHITECTURE\PROJECT\EXAMPLE\/OBJ\VC140.PDB" /Gd /TP /wd4201 /wd4310 /wd4099 C:\USERS\CAMERON\DOCUMENTS\UNI\REASSESMENTS\HIGH LEVEL ARCHITECTURE\PROJECT\EXAMPLE\SRC\CHARGEAREA.CPP
^C:\USERS\CAMERON\DOCUMENTS\UNI\REASSESMENTS\HIGH LEVEL ARCHITECTURE\PROJECT\EXAMPLE\SRC\CHASE.CPP
/c /I"C:\USERS\CAMERON\DOCUMENTS\UNI\REASSESMENTS\HIGH LEVEL ARCHITECTURE\PROJECT\EXAMPLE\INCLUDE" /I"C:\USERS\CAMERON\DOCUMENTS\UNI\REASSESMENTS\HIGH LEVEL ARCHITECTURE\PROJECT\FRAMEWORK/INCLUDE" /I"C:\USERS\CAMERON\DOCUMENTS\UNI\REASSESMENTS\HIGH LEVEL ARCHITECTURE\PROJECT\DEPS/TINYXML" /I"C:\USERS\CAMERON\DOCUMENTS\UNI\REASSESMENTS\HIGH LEVEL ARCHITECTURE\PROJECT\DEPS/GLFW/INCLUDE" /I"C:\USERS\CAMERON\DOCUMENTS\UNI\REASSESMENTS\HIGH LEVEL ARCHITECTURE\PROJECT\DEPS/GLEW-2.0.0/INCLUDE" /I"C:\USERS\CAMERON\DOCUMENTS\UNI\REASSESMENTS\HIGH LEVEL ARCHITECTURE\PROJECT\DEPS/GLM" /ZI /nologo /W4 /WX- /sdl /Od /D _CRT_SECURE_NO_WARNINGS /D GLM_FORCE_SWIZZLE /D GLM_FORCE_RADIANS /D GLM_FORCE_PURE /D GLM_ENABLE_EXPERIMENTAL /D GLEW_STATIC /D _MBCS /D _MBCS /Gm /EHsc /RTC1 /MDd /GS /fp:precise /Zc:wchar_t /Zc:forScope /Zc:inline /Fo"C:\USERS\CAMERON\DOCUMENTS\UNI\REASSESMENTS\HIGH LEVEL ARCHITECTURE\PROJECT\EXAMPLE\/OBJ\\" /Fd"C:\USERS\CAMERON\DOCUMENTS\UNI\REASSESMENTS\HIGH LEVEL ARCHITECTURE\PROJECT\EXAMPLE\/OBJ\VC140.PDB" /Gd /TP /wd4201 /wd4310 /wd4099 C:\USERS\CAMERON\DOCUMENTS\UNI\REASSESMENTS\HIGH LEVEL ARCHITECTURE\PROJECT\EXAMPLE\SRC\CHASE.CPP
^C:\USERS\CAMERON\DOCUMENTS\UNI\REASSESMENTS\HIGH LEVEL ARCHITECTURE\PROJECT\EXAMPLE\SRC\FLEE.CPP
/c /I"C:\USERS\CAMERON\DOCUMENTS\UNI\REASSESMENTS\HIGH LEVEL ARCHITECTURE\PROJECT\EXAMPLE\INCLUDE" /I"C:\USERS\CAMERON\DOCUMENTS\UNI\REASSESMENTS\HIGH LEVEL ARCHITECTURE\PROJECT\FRAMEWORK/INCLUDE" /I"C:\USERS\CAMERON\DOCUMENTS\UNI\REASSESMENTS\HIGH LEVEL ARCHITECTURE\PROJECT\DEPS/TINYXML" /I"C:\USERS\CAMERON\DOCUMENTS\UNI\REASSESMENTS\HIGH LEVEL ARCHITECTURE\PROJECT\DEPS/GLFW/INCLUDE" /I"C:\USERS\CAMERON\DOCUMENTS\UNI\REASSESMENTS\HIGH LEVEL ARCHITECTURE\PROJECT\DEPS/GLEW-2.0.0/INCLUDE" /I"C:\USERS\CAMERON\DOCUMENTS\UNI\REASSESMENTS\HIGH LEVEL ARCHITECTURE\PROJECT\DEPS/GLM" /ZI /nologo /W4 /WX- /sdl /Od /D _CRT_SECURE_NO_WARNINGS /D GLM_FORCE_SWIZZLE /D GLM_FORCE_RADIANS /D GLM_FORCE_PURE /D GLM_ENABLE_EXPERIMENTAL /D GLEW_STATIC /D _MBCS /D _MBCS /Gm /EHsc /RTC1 /MDd /GS /fp:precise /Zc:wchar_t /Zc:forScope /Zc:inline /Fo"C:\USERS\CAMERON\DOCUMENTS\UNI\REASSESMENTS\HIGH LEVEL ARCHITECTURE\PROJECT\EXAMPLE\/OBJ\\" /Fd"C:\USERS\CAMERON\DOCUMENTS\UNI\REASSESMENTS\HIGH LEVEL ARCHITECTURE\PROJECT\EXAMPLE\/OBJ\VC140.PDB" /Gd /TP /wd4201 /wd4310 /wd4099 C:\USERS\CAMERON\DOCUMENTS\UNI\REASSESMENTS\HIGH LEVEL ARCHITECTURE\PROJECT\EXAMPLE\SRC\FLEE.CPP
^C:\USERS\CAMERON\DOCUMENTS\UNI\REASSESMENTS\HIGH LEVEL ARCHITECTURE\PROJECT\EXAMPLE\SRC\INVERTER.CPP
/c /I"C:\USERS\CAMERON\DOCUMENTS\UNI\REASSESMENTS\HIGH LEVEL ARCHITECTURE\PROJECT\EXAMPLE\INCLUDE" /I"C:\USERS\CAMERON\DOCUMENTS\UNI\REASSESMENTS\HIGH LEVEL ARCHITECTURE\PROJECT\FRAMEWORK/INCLUDE" /I"C:\USERS\CAMERON\DOCUMENTS\UNI\REASSESMENTS\HIGH LEVEL ARCHITECTURE\PROJECT\DEPS/TINYXML" /I"C:\USERS\CAMERON\DOCUMENTS\UNI\REASSESMENTS\HIGH LEVEL ARCHITECTURE\PROJECT\DEPS/GLFW/INCLUDE" /I"C:\USERS\CAMERON\DOCUMENTS\UNI\REASSESMENTS\HIGH LEVEL ARCHITECTURE\PROJECT\DEPS/GLEW-2.0.0/INCLUDE" /I"C:\USERS\CAMERON\DOCUMENTS\UNI\REASSESMENTS\HIGH LEVEL ARCHITECTURE\PROJECT\DEPS/GLM" /ZI /nologo /W4 /WX- /sdl /Od /D _CRT_SECURE_NO_WARNINGS /D GLM_FORCE_SWIZZLE /D GLM_FORCE_RADIANS /D GLM_FORCE_PURE /D GLM_ENABLE_EXPERIMENTAL /D GLEW_STATIC /D _MBCS /D _MBCS /Gm /EHsc /RTC1 /MDd /GS /fp:precise /Zc:wchar_t /Zc:forScope /Zc:inline /Fo"C:\USERS\CAMERON\DOCUMENTS\UNI\REASSESMENTS\HIGH LEVEL ARCHITECTURE\PROJECT\EXAMPLE\/OBJ\\" /Fd"C:\USERS\CAMERON\DOCUMENTS\UNI\REASSESMENTS\HIGH LEVEL ARCHITECTURE\PROJECT\EXAMPLE\/OBJ\VC140.PDB" /Gd /TP /wd4201 /wd4310 /wd4099 C:\USERS\CAMERON\DOCUMENTS\UNI\REASSESMENTS\HIGH LEVEL ARCHITECTURE\PROJECT\EXAMPLE\SRC\INVERTER.CPP
^C:\USERS\CAMERON\DOCUMENTS\UNI\REASSESMENTS\HIGH LEVEL ARCHITECTURE\PROJECT\EXAMPLE\SRC\ISCHARGELOW.CPP
/c /I"C:\USERS\CAMERON\DOCUMENTS\UNI\REASSESMENTS\HIGH LEVEL ARCHITECTURE\PROJECT\EXAMPLE\INCLUDE" /I"C:\USERS\CAMERON\DOCUMENTS\UNI\REASSESMENTS\HIGH LEVEL ARCHITECTURE\PROJECT\FRAMEWORK/INCLUDE" /I"C:\USERS\CAMERON\DOCUMENTS\UNI\REASSESMENTS\HIGH LEVEL ARCHITECTURE\PROJECT\DEPS/TINYXML" /I"C:\USERS\CAMERON\DOCUMENTS\UNI\REASSESMENTS\HIGH LEVEL ARCHITECTURE\PROJECT\DEPS/GLFW/INCLUDE" /I"C:\USERS\CAMERON\DOCUMENTS\UNI\REASSESMENTS\HIGH LEVEL ARCHITECTURE\PROJECT\DEPS/GLEW-2.0.0/INCLUDE" /I"C:\USERS\CAMERON\DOCUMENTS\UNI\REASSESMENTS\HIGH LEVEL ARCHITECTURE\PROJECT\DEPS/GLM" /ZI /nologo /W4 /WX- /sdl /Od /D _CRT_SECURE_NO_WARNINGS /D GLM_FORCE_SWIZZLE /D GLM_FORCE_RADIANS /D GLM_FORCE_PURE /D GLM_ENABLE_EXPERIMENTAL /D GLEW_STATIC /D _MBCS /D _MBCS /Gm /EHsc /RTC1 /MDd /GS /fp:precise /Zc:wchar_t /Zc:forScope /Zc:inline /Fo"C:\USERS\CAMERON\DOCUMENTS\UNI\REASSESMENTS\HIGH LEVEL ARCHITECTURE\PROJECT\EXAMPLE\/OBJ\\" /Fd"C:\USERS\CAMERON\DOCUMENTS\UNI\REASSESMENTS\HIGH LEVEL ARCHITECTURE\PROJECT\EXAMPLE\/OBJ\VC140.PDB" /Gd /TP /wd4201 /wd4310 /wd4099 C:\USERS\CAMERON\DOCUMENTS\UNI\REASSESMENTS\HIGH LEVEL ARCHITECTURE\PROJECT\EXAMPLE\SRC\ISCHARGELOW.CPP
^C:\USERS\CAMERON\DOCUMENTS\UNI\REASSESMENTS\HIGH LEVEL ARCHITECTURE\PROJECT\EXAMPLE\SRC\ISENEMYINSIGHT.CPP
/c /I"C:\USERS\CAMERON\DOCUMENTS\UNI\REASSESMENTS\HIGH LEVEL ARCHITECTURE\PROJECT\EXAMPLE\INCLUDE" /I"C:\USERS\CAMERON\DOCUMENTS\UNI\REASSESMENTS\HIGH LEVEL ARCHITECTURE\PROJECT\FRAMEWORK/INCLUDE" /I"C:\USERS\CAMERON\DOCUMENTS\UNI\REASSESMENTS\HIGH LEVEL ARCHITECTURE\PROJECT\DEPS/TINYXML" /I"C:\USERS\CAMERON\DOCUMENTS\UNI\REASSESMENTS\HIGH LEVEL ARCHITECTURE\PROJECT\DEPS/GLFW/INCLUDE" /I"C:\USERS\CAMERON\DOCUMENTS\UNI\REASSESMENTS\HIGH LEVEL ARCHITECTURE\PROJECT\DEPS/GLEW-2.0.0/INCLUDE" /I"C:\USERS\CAMERON\DOCUMENTS\UNI\REASSESMENTS\HIGH LEVEL ARCHITECTURE\PROJECT\DEPS/GLM" /ZI /nologo /W4 /WX- /sdl /Od /D _CRT_SECURE_NO_WARNINGS /D GLM_FORCE_SWIZZLE /D GLM_FORCE_RADIANS /D GLM_FORCE_PURE /D GLM_ENABLE_EXPERIMENTAL /D GLEW_STATIC /D _MBCS /D _MBCS /Gm /EHsc /RTC1 /MDd /GS /fp:precise /Zc:wchar_t /Zc:forScope /Zc:inline /Fo"C:\USERS\CAMERON\DOCUMENTS\UNI\REASSESMENTS\HIGH LEVEL ARCHITECTURE\PROJECT\EXAMPLE\/OBJ\\" /Fd"C:\USERS\CAMERON\DOCUMENTS\UNI\REASSESMENTS\HIGH LEVEL ARCHITECTURE\PROJECT\EXAMPLE\/OBJ\VC140.PDB" /Gd /TP /wd4201 /wd4310 /wd4099 C:\USERS\CAMERON\DOCUMENTS\UNI\REASSESMENTS\HIGH LEVEL ARCHITECTURE\PROJECT\EXAMPLE\SRC\ISENEMYINSIGHT.CPP
^C:\USERS\CAMERON\DOCUMENTS\UNI\REASSESMENTS\HIGH LEVEL ARCHITECTURE\PROJECT\EXAMPLE\SRC\ISRIGHTSTATUS.CPP
/c /I"C:\USERS\CAMERON\DOCUMENTS\UNI\REASSESMENTS\HIGH LEVEL ARCHITECTURE\PROJECT\EXAMPLE\INCLUDE" /I"C:\USERS\CAMERON\DOCUMENTS\UNI\REASSESMENTS\HIGH LEVEL ARCHITECTURE\PROJECT\FRAMEWORK/INCLUDE" /I"C:\USERS\CAMERON\DOCUMENTS\UNI\REASSESMENTS\HIGH LEVEL ARCHITECTURE\PROJECT\DEPS/TINYXML" /I"C:\USERS\CAMERON\DOCUMENTS\UNI\REASSESMENTS\HIGH LEVEL ARCHITECTURE\PROJECT\DEPS/GLFW/INCLUDE" /I"C:\USERS\CAMERON\DOCUMENTS\UNI\REASSESMENTS\HIGH LEVEL ARCHITECTURE\PROJECT\DEPS/GLEW-2.0.0/INCLUDE" /I"C:\USERS\CAMERON\DOCUMENTS\UNI\REASSESMENTS\HIGH LEVEL ARCHITECTURE\PROJECT\DEPS/GLM" /ZI /nologo /W4 /WX- /sdl /Od /D _CRT_SECURE_NO_WARNINGS /D GLM_FORCE_SWIZZLE /D GLM_FORCE_RADIANS /D GLM_FORCE_PURE /D GLM_ENABLE_EXPERIMENTAL /D GLEW_STATIC /D _MBCS /D _MBCS /Gm /EHsc /RTC1 /MDd /GS /fp:precise /Zc:wchar_t /Zc:forScope /Zc:inline /Fo"C:\USERS\CAMERON\DOCUMENTS\UNI\REASSESMENTS\HIGH LEVEL ARCHITECTURE\PROJECT\EXAMPLE\/OBJ\\" /Fd"C:\USERS\CAMERON\DOCUMENTS\UNI\REASSESMENTS\HIGH LEVEL ARCHITECTURE\PROJECT\EXAMPLE\/OBJ\VC140.PDB" /Gd /TP /wd4201 /wd4310 /wd4099 C:\USERS\CAMERON\DOCUMENTS\UNI\REASSESMENTS\HIGH LEVEL ARCHITECTURE\PROJECT\EXAMPLE\SRC\ISRIGHTSTATUS.CPP
^C:\USERS\CAMERON\DOCUMENTS\UNI\REASSESMENTS\HIGH LEVEL ARCHITECTURE\PROJECT\EXAMPLE\SRC\LOOPUNTILFAILURE.CPP
/c /I"C:\USERS\CAMERON\DOCUMENTS\UNI\REASSESMENTS\HIGH LEVEL ARCHITECTURE\PROJECT\EXAMPLE\INCLUDE" /I"C:\USERS\CAMERON\DOCUMENTS\UNI\REASSESMENTS\HIGH LEVEL ARCHITECTURE\PROJECT\FRAMEWORK/INCLUDE" /I"C:\USERS\CAMERON\DOCUMENTS\UNI\REASSESMENTS\HIGH LEVEL ARCHITECTURE\PROJECT\DEPS/TINYXML" /I"C:\USERS\CAMERON\DOCUMENTS\UNI\REASSESMENTS\HIGH LEVEL ARCHITECTURE\PROJECT\DEPS/GLFW/INCLUDE" /I"C:\USERS\CAMERON\DOCUMENTS\UNI\REASSESMENTS\HIGH LEVEL ARCHITECTURE\PROJECT\DEPS/GLEW-2.0.0/INCLUDE" /I"C:\USERS\CAMERON\DOCUMENTS\UNI\REASSESMENTS\HIGH LEVEL ARCHITECTURE\PROJECT\DEPS/GLM" /ZI /nologo /W4 /WX- /sdl /Od /D _CRT_SECURE_NO_WARNINGS /D GLM_FORCE_SWIZZLE /D GLM_FORCE_RADIANS /D GLM_FORCE_PURE /D GLM_ENABLE_EXPERIMENTAL /D GLEW_STATIC /D _MBCS /D _MBCS /Gm /EHsc /RTC1 /MDd /GS /fp:precise /Zc:wchar_t /Zc:forScope /Zc:inline /Fo"C:\USERS\CAMERON\DOCUMENTS\UNI\REASSESMENTS\HIGH LEVEL ARCHITECTURE\PROJECT\EXAMPLE\/OBJ\\" /Fd"C:\USERS\CAMERON\DOCUMENTS\UNI\REASSESMENTS\HIGH LEVEL ARCHITECTURE\PROJECT\EXAMPLE\/OBJ\VC140.PDB" /Gd /TP /wd4201 /wd4310 /wd4099 C:\USERS\CAMERON\DOCUMENTS\UNI\REASSESMENTS\HIGH LEVEL ARCHITECTURE\PROJECT\EXAMPLE\SRC\LOOPUNTILFAILURE.CPP
^C:\USERS\CAMERON\DOCUMENTS\UNI\REASSESMENTS\HIGH LEVEL ARCHITECTURE\PROJECT\EXAMPLE\SRC\MAIN.CPP
/c /I"C:\USERS\CAMERON\DOCUMENTS\UNI\REASSESMENTS\HIGH LEVEL ARCHITECTURE\PROJECT\EXAMPLE\INCLUDE" /I"C:\USERS\CAMERON\DOCUMENTS\UNI\REASSESMENTS\HIGH LEVEL ARCHITECTURE\PROJECT\FRAMEWORK/INCLUDE" /I"C:\USERS\CAMERON\DOCUMENTS\UNI\REASSESMENTS\HIGH LEVEL ARCHITECTURE\PROJECT\DEPS/TINYXML" /I"C:\USERS\CAMERON\DOCUMENTS\UNI\REASSESMENTS\HIGH LEVEL ARCHITECTURE\PROJECT\DEPS/GLFW/INCLUDE" /I"C:\USERS\CAMERON\DOCUMENTS\UNI\REASSESMENTS\HIGH LEVEL ARCHITECTURE\PROJECT\DEPS/GLEW-2.0.0/INCLUDE" /I"C:\USERS\CAMERON\DOCUMENTS\UNI\REASSESMENTS\HIGH LEVEL ARCHITECTURE\PROJECT\DEPS/GLM" /ZI /nologo /W4 /WX- /sdl /Od /D _CRT_SECURE_NO_WARNINGS /D GLM_FORCE_SWIZZLE /D GLM_FORCE_RADIANS /D GLM_FORCE_PURE /D GLM_ENABLE_EXPERIMENTAL /D GLEW_STATIC /D _MBCS /D _MBCS /Gm /EHsc /RTC1 /MDd /GS /fp:precise /Zc:wchar_t /Zc:forScope /Zc:inline /Fo"C:\USERS\CAMERON\DOCUMENTS\UNI\REASSESMENTS\HIGH LEVEL ARCHITECTURE\PROJECT\EXAMPLE\/OBJ\\" /Fd"C:\USERS\CAMERON\DOCUMENTS\UNI\REASSESMENTS\HIGH LEVEL ARCHITECTURE\PROJECT\EXAMPLE\/OBJ\VC140.PDB" /Gd /TP /wd4201 /wd4310 /wd4099 C:\USERS\CAMERON\DOCUMENTS\UNI\REASSESMENTS\HIGH LEVEL ARCHITECTURE\PROJECT\EXAMPLE\SRC\MAIN.CPP
^C:\USERS\CAMERON\DOCUMENTS\UNI\REASSESMENTS\HIGH LEVEL ARCHITECTURE\PROJECT\EXAMPLE\SRC\NAVMESH.CPP
/c /I"C:\USERS\CAMERON\DOCUMENTS\UNI\REASSESMENTS\HIGH LEVEL ARCHITECTURE\PROJECT\EXAMPLE\INCLUDE" /I"C:\USERS\CAMERON\DOCUMENTS\UNI\REASSESMENTS\HIGH LEVEL ARCHITECTURE\PROJECT\FRAMEWORK/INCLUDE" /I"C:\USERS\CAMERON\DOCUMENTS\UNI\REASSESMENTS\HIGH LEVEL ARCHITECTURE\PROJECT\DEPS/TINYXML" /I"C:\USERS\CAMERON\DOCUMENTS\UNI\REASSESMENTS\HIGH LEVEL ARCHITECTURE\PROJECT\DEPS/GLFW/INCLUDE" /I"C:\USERS\CAMERON\DOCUMENTS\UNI\REASSESMENTS\HIGH LEVEL ARCHITECTURE\PROJECT\DEPS/GLEW-2.0.0/INCLUDE" /I"C:\USERS\CAMERON\DOCUMENTS\UNI\REASSESMENTS\HIGH LEVEL ARCHITECTURE\PROJECT\DEPS/GLM" /ZI /nologo /W4 /WX- /sdl /Od /D _CRT_SECURE_NO_WARNINGS /D GLM_FORCE_SWIZZLE /D GLM_FORCE_RADIANS /D GLM_FORCE_PURE /D GLM_ENABLE_EXPERIMENTAL /D GLEW_STATIC /D _MBCS /D _MBCS /Gm /EHsc /RTC1 /MDd /GS /fp:precise /Zc:wchar_t /Zc:forScope /Zc:inline /Fo"C:\USERS\CAMERON\DOCUMENTS\UNI\REASSESMENTS\HIGH LEVEL ARCHITECTURE\PROJECT\EXAMPLE\/OBJ\\" /Fd"C:\USERS\CAMERON\DOCUMENTS\UNI\REASSESMENTS\HIGH LEVEL ARCHITECTURE\PROJECT\EXAMPLE\/OBJ\VC140.PDB" /Gd /TP /wd4201 /wd4310 /wd4099 C:\USERS\CAMERON\DOCUMENTS\UNI\REASSESMENTS\HIGH LEVEL ARCHITECTURE\PROJECT\EXAMPLE\SRC\NAVMESH.CPP
^C:\USERS\CAMERON\DOCUMENTS\UNI\REASSESMENTS\HIGH LEVEL ARCHITECTURE\PROJECT\EXAMPLE\SRC\PATROL.CPP
/c /I"C:\USERS\CAMERON\DOCUMENTS\UNI\REASSESMENTS\HIGH LEVEL ARCHITECTURE\PROJECT\EXAMPLE\INCLUDE" /I"C:\USERS\CAMERON\DOCUMENTS\UNI\REASSESMENTS\HIGH LEVEL ARCHITECTURE\PROJECT\FRAMEWORK/INCLUDE" /I"C:\USERS\CAMERON\DOCUMENTS\UNI\REASSESMENTS\HIGH LEVEL ARCHITECTURE\PROJECT\DEPS/TINYXML" /I"C:\USERS\CAMERON\DOCUMENTS\UNI\REASSESMENTS\HIGH LEVEL ARCHITECTURE\PROJECT\DEPS/GLFW/INCLUDE" /I"C:\USERS\CAMERON\DOCUMENTS\UNI\REASSESMENTS\HIGH LEVEL ARCHITECTURE\PROJECT\DEPS/GLEW-2.0.0/INCLUDE" /I"C:\USERS\CAMERON\DOCUMENTS\UNI\REASSESMENTS\HIGH LEVEL ARCHITECTURE\PROJECT\DEPS/GLM" /ZI /nologo /W4 /WX- /sdl /Od /D _CRT_SECURE_NO_WARNINGS /D GLM_FORCE_SWIZZLE /D GLM_FORCE_RADIANS /D GLM_FORCE_PURE /D GLM_ENABLE_EXPERIMENTAL /D GLEW_STATIC /D _MBCS /D _MBCS /Gm /EHsc /RTC1 /MDd /GS /fp:precise /Zc:wchar_t /Zc:forScope /Zc:inline /Fo"C:\USERS\CAMERON\DOCUMENTS\UNI\REASSESMENTS\HIGH LEVEL ARCHITECTURE\PROJECT\EXAMPLE\/OBJ\\" /Fd"C:\USERS\CAMERON\DOCUMENTS\UNI\REASSESMENTS\HIGH LEVEL ARCHITECTURE\PROJECT\EXAMPLE\/OBJ\VC140.PDB" /Gd /TP /wd4201 /wd4310 /wd4099 C:\USERS\CAMERON\DOCUMENTS\UNI\REASSESMENTS\HIGH LEVEL ARCHITECTURE\PROJECT\EXAMPLE\SRC\PATROL.CPP
^C:\USERS\CAMERON\DOCUMENTS\UNI\REASSESMENTS\HIGH LEVEL ARCHITECTURE\PROJECT\EXAMPLE\SRC\MYAPPLICATION.CPP
/c /I"C:\USERS\CAMERON\DOCUMENTS\UNI\REASSESMENTS\HIGH LEVEL ARCHITECTURE\PROJECT\EXAMPLE\INCLUDE" /I"C:\USERS\CAMERON\DOCUMENTS\UNI\REASSESMENTS\HIGH LEVEL ARCHITECTURE\PROJECT\FRAMEWORK/INCLUDE" /I"C:\USERS\CAMERON\DOCUMENTS\UNI\REASSESMENTS\HIGH LEVEL ARCHITECTURE\PROJECT\DEPS/TINYXML" /I"C:\USERS\CAMERON\DOCUMENTS\UNI\REASSESMENTS\HIGH LEVEL ARCHITECTURE\PROJECT\DEPS/GLFW/INCLUDE" /I"C:\USERS\CAMERON\DOCUMENTS\UNI\REASSESMENTS\HIGH LEVEL ARCHITECTURE\PROJECT\DEPS/GLEW-2.0.0/INCLUDE" /I"C:\USERS\CAMERON\DOCUMENTS\UNI\REASSESMENTS\HIGH LEVEL ARCHITECTURE\PROJECT\DEPS/GLM" /ZI /nologo /W4 /WX- /sdl /Od /D _CRT_SECURE_NO_WARNINGS /D GLM_FORCE_SWIZZLE /D GLM_FORCE_RADIANS /D GLM_FORCE_PURE /D GLM_ENABLE_EXPERIMENTAL /D GLEW_STATIC /D _MBCS /D _MBCS /Gm /EHsc /RTC1 /MDd /GS /fp:precise /Zc:wchar_t /Zc:forScope /Zc:inline /Fo"C:\USERS\CAMERON\DOCUMENTS\UNI\REASSESMENTS\HIGH LEVEL ARCHITECTURE\PROJECT\EXAMPLE\/OBJ\\" /Fd"C:\USERS\CAMERON\DOCUMENTS\UNI\REASSESMENTS\HIGH LEVEL ARCHITECTURE\PROJECT\EXAMPLE\/OBJ\VC140.PDB" /Gd /TP /wd4201 /wd4310 /wd4099 C:\USERS\CAMERON\DOCUMENTS\UNI\REASSESMENTS\HIGH LEVEL ARCHITECTURE\PROJECT\EXAMPLE\SRC\MYAPPLICATION.CPP
^C:\USERS\CAMERON\DOCUMENTS\UNI\REASSESMENTS\HIGH LEVEL ARCHITECTURE\PROJECT\EXAMPLE\SRC\PATROLANDCHARGEBT.CPP
/c /I"C:\USERS\CAMERON\DOCUMENTS\UNI\REASSESMENTS\HIGH LEVEL ARCHITECTURE\PROJECT\EXAMPLE\INCLUDE" /I"C:\USERS\CAMERON\DOCUMENTS\UNI\REASSESMENTS\HIGH LEVEL ARCHITECTURE\PROJECT\FRAMEWORK/INCLUDE" /I"C:\USERS\CAMERON\DOCUMENTS\UNI\REASSESMENTS\HIGH LEVEL ARCHITECTURE\PROJECT\DEPS/TINYXML" /I"C:\USERS\CAMERON\DOCUMENTS\UNI\REASSESMENTS\HIGH LEVEL ARCHITECTURE\PROJECT\DEPS/GLFW/INCLUDE" /I"C:\USERS\CAMERON\DOCUMENTS\UNI\REASSESMENTS\HIGH LEVEL ARCHITECTURE\PROJECT\DEPS/GLEW-2.0.0/INCLUDE" /I"C:\USERS\CAMERON\DOCUMENTS\UNI\REASSESMENTS\HIGH LEVEL ARCHITECTURE\PROJECT\DEPS/GLM" /ZI /nologo /W4 /WX- /sdl /Od /D _CRT_SECURE_NO_WARNINGS /D GLM_FORCE_SWIZZLE /D GLM_FORCE_RADIANS /D GLM_FORCE_PURE /D GLM_ENABLE_EXPERIMENTAL /D GLEW_STATIC /D _MBCS /D _MBCS /Gm /EHsc /RTC1 /MDd /GS /fp:precise /Zc:wchar_t /Zc:forScope /Zc:inline /Fo"C:\USERS\CAMERON\DOCUMENTS\UNI\REASSESMENTS\HIGH LEVEL ARCHITECTURE\PROJECT\EXAMPLE\/OBJ\\" /Fd"C:\USERS\CAMERON\DOCUMENTS\UNI\REASSESMENTS\HIGH LEVEL ARCHITECTURE\PROJECT\EXAMPLE\/OBJ\VC140.PDB" /Gd /TP /wd4201 /wd4310 /wd4099 C:\USERS\CAMERON\DOCUMENTS\UNI\REASSESMENTS\HIGH LEVEL ARCHITECTURE\PROJECT\EXAMPLE\SRC\PATROLANDCHARGEBT.CPP
^C:\USERS\CAMERON\DOCUMENTS\UNI\REASSESMENTS\HIGH LEVEL ARCHITECTURE\PROJECT\EXAMPLE\SRC\RECHARGE.CPP
/c /I"C:\USERS\CAMERON\DOCUMENTS\UNI\REASSESMENTS\HIGH LEVEL ARCHITECTURE\PROJECT\EXAMPLE\INCLUDE" /I"C:\USERS\CAMERON\DOCUMENTS\UNI\REASSESMENTS\HIGH LEVEL ARCHITECTURE\PROJECT\FRAMEWORK/INCLUDE" /I"C:\USERS\CAMERON\DOCUMENTS\UNI\REASSESMENTS\HIGH LEVEL ARCHITECTURE\PROJECT\DEPS/TINYXML" /I"C:\USERS\CAMERON\DOCUMENTS\UNI\REASSESMENTS\HIGH LEVEL ARCHITECTURE\PROJECT\DEPS/GLFW/INCLUDE" /I"C:\USERS\CAMERON\DOCUMENTS\UNI\REASSESMENTS\HIGH LEVEL ARCHITECTURE\PROJECT\DEPS/GLEW-2.0.0/INCLUDE" /I"C:\USERS\CAMERON\DOCUMENTS\UNI\REASSESMENTS\HIGH LEVEL ARCHITECTURE\PROJECT\DEPS/GLM" /ZI /nologo /W4 /WX- /sdl /Od /D _CRT_SECURE_NO_WARNINGS /D GLM_FORCE_SWIZZLE /D GLM_FORCE_RADIANS /D GLM_FORCE_PURE /D GLM_ENABLE_EXPERIMENTAL /D GLEW_STATIC /D _MBCS /D _MBCS /Gm /EHsc /RTC1 /MDd /GS /fp:precise /Zc:wchar_t /Zc:forScope /Zc:inline /Fo"C:\USERS\CAMERON\DOCUMENTS\UNI\REASSESMENTS\HIGH LEVEL ARCHITECTURE\PROJECT\EXAMPLE\/OBJ\\" /Fd"C:\USERS\CAMERON\DOCUMENTS\UNI\REASSESMENTS\HIGH LEVEL ARCHITECTURE\PROJECT\EXAMPLE\/OBJ\VC140.PDB" /Gd /TP /wd4201 /wd4310 /wd4099 C:\USERS\CAMERON\DOCUMENTS\UNI\REASSESMENTS\HIGH LEVEL ARCHITECTURE\PROJECT\EXAMPLE\SRC\RECHARGE.CPP
^C:\USERS\CAMERON\DOCUMENTS\UNI\REASSESMENTS\HIGH LEVEL ARCHITECTURE\PROJECT\EXAMPLE\SRC\RUNAWAY.CPP
/c /I"C:\USERS\CAMERON\DOCUMENTS\UNI\REASSESMENTS\HIGH LEVEL ARCHITECTURE\PROJECT\EXAMPLE\INCLUDE" /I"C:\USERS\CAMERON\DOCUMENTS\UNI\REASSESMENTS\HIGH LEVEL ARCHITECTURE\PROJECT\FRAMEWORK/INCLUDE" /I"C:\USERS\CAMERON\DOCUMENTS\UNI\REASSESMENTS\HIGH LEVEL ARCHITECTURE\PROJECT\DEPS/TINYXML" /I"C:\USERS\CAMERON\DOCUMENTS\UNI\REASSESMENTS\HIGH LEVEL ARCHITECTURE\PROJECT\DEPS/GLFW/INCLUDE" /I"C:\USERS\CAMERON\DOCUMENTS\UNI\REASSESMENTS\HIGH LEVEL ARCHITECTURE\PROJECT\DEPS/GLEW-2.0.0/INCLUDE" /I"C:\USERS\CAMERON\DOCUMENTS\UNI\REASSESMENTS\HIGH LEVEL ARCHITECTURE\PROJECT\DEPS/GLM" /ZI /nologo /W4 /WX- /sdl /Od /D _CRT_SECURE_NO_WARNINGS /D GLM_FORCE_SWIZZLE /D GLM_FORCE_RADIANS /D GLM_FORCE_PURE /D GLM_ENABLE_EXPERIMENTAL /D GLEW_STATIC /D _MBCS /D _MBCS /Gm /EHsc /RTC1 /MDd /GS /fp:precise /Zc:wchar_t /Zc:forScope /Zc:inline /Fo"C:\USERS\CAMERON\DOCUMENTS\UNI\REASSESMENTS\HIGH LEVEL ARCHITECTURE\PROJECT\EXAMPLE\/OBJ\\" /Fd"C:\USERS\CAMERON\DOCUMENTS\UNI\REASSESMENTS\HIGH LEVEL ARCHITECTURE\PROJECT\EXAMPLE\/OBJ\VC140.PDB" /Gd /TP /wd4201 /wd4310 /wd4099 C:\USERS\CAMERON\DOCUMENTS\UNI\REASSESMENTS\HIGH LEVEL ARCHITECTURE\PROJECT\EXAMPLE\SRC\RUNAWAY.CPP
^C:\USERS\CAMERON\DOCUMENTS\UNI\REASSESMENTS\HIGH LEVEL ARCHITECTURE\PROJECT\EXAMPLE\SRC\SEEK.CPP
/c /I"C:\USERS\CAMERON\DOCUMENTS\UNI\REASSESMENTS\HIGH LEVEL ARCHITECTURE\PROJECT\EXAMPLE\INCLUDE" /I"C:\USERS\CAMERON\DOCUMENTS\UNI\REASSESMENTS\HIGH LEVEL ARCHITECTURE\PROJECT\FRAMEWORK/INCLUDE" /I"C:\USERS\CAMERON\DOCUMENTS\UNI\REASSESMENTS\HIGH LEVEL ARCHITECTURE\PROJECT\DEPS/TINYXML" /I"C:\USERS\CAMERON\DOCUMENTS\UNI\REASSESMENTS\HIGH LEVEL ARCHITECTURE\PROJECT\DEPS/GLFW/INCLUDE" /I"C:\USERS\CAMERON\DOCUMENTS\UNI\REASSESMENTS\HIGH LEVEL ARCHITECTURE\PROJECT\DEPS/GLEW-2.0.0/INCLUDE" /I"C:\USERS\CAMERON\DOCUMENTS\UNI\REASSESMENTS\HIGH LEVEL ARCHITECTURE\PROJECT\DEPS/GLM" /ZI /nologo /W4 /WX- /sdl /Od /D _CRT_SECURE_NO_WARNINGS /D GLM_FORCE_SWIZZLE /D GLM_FORCE_RADIANS /D GLM_FORCE_PURE /D GLM_ENABLE_EXPERIMENTAL /D GLEW_STATIC /D _MBCS /D _MBCS /Gm /EHsc /RTC1 /MDd /GS /fp:precise /Zc:wchar_t /Zc:forScope /Zc:inline /Fo"C:\USERS\CAMERON\DOCUMENTS\UNI\REASSESMENTS\HIGH LEVEL ARCHITECTURE\PROJECT\EXAMPLE\/OBJ\\" /Fd"C:\USERS\CAMERON\DOCUMENTS\UNI\REASSESMENTS\HIGH LEVEL ARCHITECTURE\PROJECT\EXAMPLE\/OBJ\VC140.PDB" /Gd /TP /wd4201 /wd4310 /wd4099 C:\USERS\CAMERON\DOCUMENTS\UNI\REASSESMENTS\HIGH LEVEL ARCHITECTURE\PROJECT\EXAMPLE\SRC\SEEK.CPP
^C:\USERS\CAMERON\DOCUMENTS\UNI\REASSESMENTS\HIGH LEVEL ARCHITECTURE\PROJECT\EXAMPLE\SRC\SELECTOR.CPP
/c /I"C:\USERS\CAMERON\DOCUMENTS\UNI\REASSESMENTS\HIGH LEVEL ARCHITECTURE\PROJECT\EXAMPLE\INCLUDE" /I"C:\USERS\CAMERON\DOCUMENTS\UNI\REASSESMENTS\HIGH LEVEL ARCHITECTURE\PROJECT\FRAMEWORK/INCLUDE" /I"C:\USERS\CAMERON\DOCUMENTS\UNI\REASSESMENTS\HIGH LEVEL ARCHITECTURE\PROJECT\DEPS/TINYXML" /I"C:\USERS\CAMERON\DOCUMENTS\UNI\REASSESMENTS\HIGH LEVEL ARCHITECTURE\PROJECT\DEPS/GLFW/INCLUDE" /I"C:\USERS\CAMERON\DOCUMENTS\UNI\REASSESMENTS\HIGH LEVEL ARCHITECTURE\PROJECT\DEPS/GLEW-2.0.0/INCLUDE" /I"C:\USERS\CAMERON\DOCUMENTS\UNI\REASSESMENTS\HIGH LEVEL ARCHITECTURE\PROJECT\DEPS/GLM" /ZI /nologo /W4 /WX- /sdl /Od /D _CRT_SECURE_NO_WARNINGS /D GLM_FORCE_SWIZZLE /D GLM_FORCE_RADIANS /D GLM_FORCE_PURE /D GLM_ENABLE_EXPERIMENTAL /D GLEW_STATIC /D _MBCS /D _MBCS /Gm /EHsc /RTC1 /MDd /GS /fp:precise /Zc:wchar_t /Zc:forScope /Zc:inline /Fo"C:\USERS\CAMERON\DOCUMENTS\UNI\REASSESMENTS\HIGH LEVEL ARCHITECTURE\PROJECT\EXAMPLE\/OBJ\\" /Fd"C:\USERS\CAMERON\DOCUMENTS\UNI\REASSESMENTS\HIGH LEVEL ARCHITECTURE\PROJECT\EXAMPLE\/OBJ\VC140.PDB" /Gd /TP /wd4201 /wd4310 /wd4099 C:\USERS\CAMERON\DOCUMENTS\UNI\REASSESMENTS\HIGH LEVEL ARCHITECTURE\PROJECT\EXAMPLE\SRC\SELECTOR.CPP
^C:\USERS\CAMERON\DOCUMENTS\UNI\REASSESMENTS\HIGH LEVEL ARCHITECTURE\PROJECT\EXAMPLE\SRC\SEQUENCE.CPP
/c /I"C:\USERS\CAMERON\DOCUMENTS\UNI\REASSESMENTS\HIGH LEVEL ARCHITECTURE\PROJECT\EXAMPLE\INCLUDE" /I"C:\USERS\CAMERON\DOCUMENTS\UNI\REASSESMENTS\HIGH LEVEL ARCHITECTURE\PROJECT\FRAMEWORK/INCLUDE" /I"C:\USERS\CAMERON\DOCUMENTS\UNI\REASSESMENTS\HIGH LEVEL ARCHITECTURE\PROJECT\DEPS/TINYXML" /I"C:\USERS\CAMERON\DOCUMENTS\UNI\REASSESMENTS\HIGH LEVEL ARCHITECTURE\PROJECT\DEPS/GLFW/INCLUDE" /I"C:\USERS\CAMERON\DOCUMENTS\UNI\REASSESMENTS\HIGH LEVEL ARCHITECTURE\PROJECT\DEPS/GLEW-2.0.0/INCLUDE" /I"C:\USERS\CAMERON\DOCUMENTS\UNI\REASSESMENTS\HIGH LEVEL ARCHITECTURE\PROJECT\DEPS/GLM" /ZI /nologo /W4 /WX- /sdl /Od /D _CRT_SECURE_NO_WARNINGS /D GLM_FORCE_SWIZZLE /D GLM_FORCE_RADIANS /D GLM_FORCE_PURE /D GLM_ENABLE_EXPERIMENTAL /D GLEW_STATIC /D _MBCS /D _MBCS /Gm /EHsc /RTC1 /MDd /GS /fp:precise /Zc:wchar_t /Zc:forScope /Zc:inline /Fo"C:\USERS\CAMERON\DOCUMENTS\UNI\REASSESMENTS\HIGH LEVEL ARCHITECTURE\PROJECT\EXAMPLE\/OBJ\\" /Fd"C:\USERS\CAMERON\DOCUMENTS\UNI\REASSESMENTS\HIGH LEVEL ARCHITECTURE\PROJECT\EXAMPLE\/OBJ\VC140.PDB" /Gd /TP /wd4201 /wd4310 /wd4099 C:\USERS\CAMERON\DOCUMENTS\UNI\REASSESMENTS\HIGH LEVEL ARCHITECTURE\PROJECT\EXAMPLE\SRC\SEQUENCE.CPP
^C:\USERS\CAMERON\DOCUMENTS\UNI\REASSESMENTS\HIGH LEVEL ARCHITECTURE\PROJECT\EXAMPLE\SRC\LINECOMPARER.CPP
/c /I"C:\USERS\CAMERON\DOCUMENTS\UNI\REASSESMENTS\HIGH LEVEL ARCHITECTURE\PROJECT\EXAMPLE\INCLUDE" /I"C:\USERS\CAMERON\DOCUMENTS\UNI\REASSESMENTS\HIGH LEVEL ARCHITECTURE\PROJECT\FRAMEWORK/INCLUDE" /I"C:\USERS\CAMERON\DOCUMENTS\UNI\REASSESMENTS\HIGH LEVEL ARCHITECTURE\PROJECT\DEPS/TINYXML" /I"C:\USERS\CAMERON\DOCUMENTS\UNI\REASSESMENTS\HIGH LEVEL ARCHITECTURE\PROJECT\DEPS/GLFW/INCLUDE" /I"C:\USERS\CAMERON\DOCUMENTS\UNI\REASSESMENTS\HIGH LEVEL ARCHITECTURE\PROJECT\DEPS/GLEW-2.0.0/INCLUDE" /I"C:\USERS\CAMERON\DOCUMENTS\UNI\REASSESMENTS\HIGH LEVEL ARCHITECTURE\PROJECT\DEPS/GLM" /ZI /nologo /W4 /WX- /sdl /Od /D _CRT_SECURE_NO_WARNINGS /D GLM_FORCE_SWIZZLE /D GLM_FORCE_RADIANS /D GLM_FORCE_PURE /D GLM_ENABLE_EXPERIMENTAL /D GLEW_STATIC /D _MBCS /D _MBCS /Gm /EHsc /RTC1 /MDd /GS /fp:precise /Zc:wchar_t /Zc:forScope /Zc:inline /Fo"C:\USERS\CAMERON\DOCUMENTS\UNI\REASSESMENTS\HIGH LEVEL ARCHITECTURE\PROJECT\EXAMPLE\/OBJ\\" /Fd"C:\USERS\CAMERON\DOCUMENTS\UNI\REASSESMENTS\HIGH LEVEL ARCHITECTURE\PROJECT\EXAMPLE\/OBJ\VC140.PDB" /Gd /TP /wd4201 /wd4310 /wd4099 C:\USERS\CAMERON\DOCUMENTS\UNI\REASSESMENTS\HIGH LEVEL ARCHITECTURE\PROJECT\EXAMPLE\SRC\LINECOMPARER.CPP
^C:\USERS\CAMERON\DOCUMENTS\UNI\REASSESMENTS\HIGH LEVEL ARCHITECTURE\PROJECT\EXAMPLE\SRC\SLEEP.CPP
/c /I"C:\USERS\CAMERON\DOCUMENTS\UNI\REASSESMENTS\HIGH LEVEL ARCHITECTURE\PROJECT\EXAMPLE\INCLUDE" /I"C:\USERS\CAMERON\DOCUMENTS\UNI\REASSESMENTS\HIGH LEVEL ARCHITECTURE\PROJECT\FRAMEWORK/INCLUDE" /I"C:\USERS\CAMERON\DOCUMENTS\UNI\REASSESMENTS\HIGH LEVEL ARCHITECTURE\PROJECT\DEPS/TINYXML" /I"C:\USERS\CAMERON\DOCUMENTS\UNI\REASSESMENTS\HIGH LEVEL ARCHITECTURE\PROJECT\DEPS/GLFW/INCLUDE" /I"C:\USERS\CAMERON\DOCUMENTS\UNI\REASSESMENTS\HIGH LEVEL ARCHITECTURE\PROJECT\DEPS/GLEW-2.0.0/INCLUDE" /I"C:\USERS\CAMERON\DOCUMENTS\UNI\REASSESMENTS\HIGH LEVEL ARCHITECTURE\PROJECT\DEPS/GLM" /ZI /nologo /W4 /WX- /sdl /Od /D _CRT_SECURE_NO_WARNINGS /D GLM_FORCE_SWIZZLE /D GLM_FORCE_RADIANS /D GLM_FORCE_PURE /D GLM_ENABLE_EXPERIMENTAL /D GLEW_STATIC /D _MBCS /D _MBCS /Gm /EHsc /RTC1 /MDd /GS /fp:precise /Zc:wchar_t /Zc:forScope /Zc:inline /Fo"C:\USERS\CAMERON\DOCUMENTS\UNI\REASSESMENTS\HIGH LEVEL ARCHITECTURE\PROJECT\EXAMPLE\/OBJ\\" /Fd"C:\USERS\CAMERON\DOCUMENTS\UNI\REASSESMENTS\HIGH LEVEL ARCHITECTURE\PROJECT\EXAMPLE\/OBJ\VC140.PDB" /Gd /TP /wd4201 /wd4310 /wd4099 C:\USERS\CAMERON\DOCUMENTS\UNI\REASSESMENTS\HIGH LEVEL ARCHITECTURE\PROJECT\EXAMPLE\SRC\SLEEP.CPP
^C:\USERS\CAMERON\DOCUMENTS\UNI\REASSESMENTS\HIGH LEVEL ARCHITECTURE\PROJECT\EXAMPLE\SRC\STAGE.CPP
/c /I"C:\USERS\CAMERON\DOCUMENTS\UNI\REASSESMENTS\HIGH LEVEL ARCHITECTURE\PROJECT\EXAMPLE\INCLUDE" /I"C:\USERS\CAMERON\DOCUMENTS\UNI\REASSESMENTS\HIGH LEVEL ARCHITECTURE\PROJECT\FRAMEWORK/INCLUDE" /I"C:\USERS\CAMERON\DOCUMENTS\UNI\REASSESMENTS\HIGH LEVEL ARCHITECTURE\PROJECT\DEPS/TINYXML" /I"C:\USERS\CAMERON\DOCUMENTS\UNI\REASSESMENTS\HIGH LEVEL ARCHITECTURE\PROJECT\DEPS/GLFW/INCLUDE" /I"C:\USERS\CAMERON\DOCUMENTS\UNI\REASSESMENTS\HIGH LEVEL ARCHITECTURE\PROJECT\DEPS/GLEW-2.0.0/INCLUDE" /I"C:\USERS\CAMERON\DOCUMENTS\UNI\REASSESMENTS\HIGH LEVEL ARCHITECTURE\PROJECT\DEPS/GLM" /ZI /nologo /W4 /WX- /sdl /Od /D _CRT_SECURE_NO_WARNINGS /D GLM_FORCE_SWIZZLE /D GLM_FORCE_RADIANS /D GLM_FORCE_PURE /D GLM_ENABLE_EXPERIMENTAL /D GLEW_STATIC /D _MBCS /D _MBCS /Gm /EHsc /RTC1 /MDd /GS /fp:precise /Zc:wchar_t /Zc:forScope /Zc:inline /Fo"C:\USERS\CAMERON\DOCUMENTS\UNI\REASSESMENTS\HIGH LEVEL ARCHITECTURE\PROJECT\EXAMPLE\/OBJ\\" /Fd"C:\USERS\CAMERON\DOCUMENTS\UNI\REASSESMENTS\HIGH LEVEL ARCHITECTURE\PROJECT\EXAMPLE\/OBJ\VC140.PDB" /Gd /TP /wd4201 /wd4310 /wd4099 C:\USERS\CAMERON\DOCUMENTS\UNI\REASSESMENTS\HIGH LEVEL ARCHITECTURE\PROJECT\EXAMPLE\SRC\STAGE.CPP
^C:\USERS\CAMERON\DOCUMENTS\UNI\REASSESMENTS\HIGH LEVEL ARCHITECTURE\PROJECT\EXAMPLE\SRC\TAGBT.CPP
/c /I"C:\USERS\CAMERON\DOCUMENTS\UNI\REASSESMENTS\HIGH LEVEL ARCHITECTURE\PROJECT\EXAMPLE\INCLUDE" /I"C:\USERS\CAMERON\DOCUMENTS\UNI\REASSESMENTS\HIGH LEVEL ARCHITECTURE\PROJECT\FRAMEWORK/INCLUDE" /I"C:\USERS\CAMERON\DOCUMENTS\UNI\REASSESMENTS\HIGH LEVEL ARCHITECTURE\PROJECT\DEPS/TINYXML" /I"C:\USERS\CAMERON\DOCUMENTS\UNI\REASSESMENTS\HIGH LEVEL ARCHITECTURE\PROJECT\DEPS/GLFW/INCLUDE" /I"C:\USERS\CAMERON\DOCUMENTS\UNI\REASSESMENTS\HIGH LEVEL ARCHITECTURE\PROJECT\DEPS/GLEW-2.0.0/INCLUDE" /I"C:\USERS\CAMERON\DOCUMENTS\UNI\REASSESMENTS\HIGH LEVEL ARCHITECTURE\PROJECT\DEPS/GLM" /ZI /nologo /W4 /WX- /sdl /Od /D _CRT_SECURE_NO_WARNINGS /D GLM_FORCE_SWIZZLE /D GLM_FORCE_RADIANS /D GLM_FORCE_PURE /D GLM_ENABLE_EXPERIMENTAL /D GLEW_STATIC /D _MBCS /D _MBCS /Gm /EHsc /RTC1 /MDd /GS /fp:precise /Zc:wchar_t /Zc:forScope /Zc:inline /Fo"C:\USERS\CAMERON\DOCUMENTS\UNI\REASSESMENTS\HIGH LEVEL ARCHITECTURE\PROJECT\EXAMPLE\/OBJ\\" /Fd"C:\USERS\CAMERON\DOCUMENTS\UNI\REASSESMENTS\HIGH LEVEL ARCHITECTURE\PROJECT\EXAMPLE\/OBJ\VC140.PDB" /Gd /TP /wd4201 /wd4310 /wd4099 C:\USERS\CAMERON\DOCUMENTS\UNI\REASSESMENTS\HIGH LEVEL ARCHITECTURE\PROJECT\EXAMPLE\SRC\TAGBT.CPP
