^C:\USERS\CAMERON\DOCUMENTS\UNI\REASSESMENTS\HIGH LEVEL ARCHITECTURE\PROJECT\EXAMPLE\SRC\AIACTOR.CPP|C:\USERS\CAMERON\DOCUMENTS\UNI\REASSESMENTS\HIGH LEVEL ARCHITECTURE\PROJECT\EXAMPLE\SRC\AIBRAIN.CPP|C:\USERS\CAMERON\DOCUMENTS\UNI\REASSESMENTS\HIGH LEVEL ARCHITECTURE\PROJECT\EXAMPLE\SRC\CHARGEAREA.CPP|C:\USERS\CAMERON\DOCUMENTS\UNI\REASSESMENTS\HIGH LEVEL ARCHITECTURE\PROJECT\EXAMPLE\SRC\INVERTER.CPP|C:\USERS\CAMERON\DOCUMENTS\UNI\REASSESMENTS\HIGH LEVEL ARCHITECTURE\PROJECT\EXAMPLE\SRC\ISCHARGELOW.CPP|C:\USERS\CAMERON\DOCUMENTS\UNI\REASSESMENTS\HIGH LEVEL ARCHITECTURE\PROJECT\EXAMPLE\SRC\MAIN.CPP|C:\USERS\CAMERON\DOCUMENTS\UNI\REASSESMENTS\HIGH LEVEL ARCHITECTURE\PROJECT\EXAMPLE\SRC\MYAPPLICATION.CPP|C:\USERS\CAMERON\DOCUMENTS\UNI\REASSESMENTS\HIGH LEVEL ARCHITECTURE\PROJECT\EXAMPLE\SRC\PATROL.CPP|C:\USERS\CAMERON\DOCUMENTS\UNI\REASSESMENTS\HIGH LEVEL ARCHITECTURE\PROJECT\EXAMPLE\SRC\PATROLANDCHARGEBT.CPP|C:\USERS\CAMERON\DOCUMENTS\UNI\REASSESMENTS\HIGH LEVEL ARCHITECTURE\PROJECT\EXAMPLE\SRC\RECHARGE.CPP|C:\USERS\CAMERON\DOCUMENTS\UNI\REASSESMENTS\HIGH LEVEL ARCHITECTURE\PROJECT\EXAMPLE\SRC\SELECTOR.CPP|C:\USERS\CAMERON\DOCUMENTS\UNI\REASSESMENTS\HIGH LEVEL ARCHITECTURE\PROJECT\EXAMPLE\SRC\SEQUENCE.CPP
C:\USERS\CAMERON\DOCUMENTS\UNI\REASSESMENTS\HIGH LEVEL ARCHITECTURE\PROJECT\EXAMPLE\OBJ\VC140.PDB
C:\USERS\CAMERON\DOCUMENTS\UNI\REASSESMENTS\HIGH LEVEL ARCHITECTURE\PROJECT\EXAMPLE\OBJ\VC140.IDB
C:\USERS\CAMERON\DOCUMENTS\UNI\REASSESMENTS\HIGH LEVEL ARCHITECTURE\PROJECT\EXAMPLE\OBJ\AIACTOR.OBJ
C:\USERS\CAMERON\DOCUMENTS\UNI\REASSESMENTS\HIGH LEVEL ARCHITECTURE\PROJECT\EXAMPLE\OBJ\AIBRAIN.OBJ
C:\USERS\CAMERON\DOCUMENTS\UNI\REASSESMENTS\HIGH LEVEL ARCHITECTURE\PROJECT\EXAMPLE\OBJ\CHARGEAREA.OBJ
C:\USERS\CAMERON\DOCUMENTS\UNI\REASSESMENTS\HIGH LEVEL ARCHITECTURE\PROJECT\EXAMPLE\OBJ\INVERTER.OBJ
C:\USERS\CAMERON\DOCUMENTS\UNI\REASSESMENTS\HIGH LEVEL ARCHITECTURE\PROJECT\EXAMPLE\OBJ\ISCHARGELOW.OBJ
C:\USERS\CAMERON\DOCUMENTS\UNI\REASSESMENTS\HIGH LEVEL ARCHITECTURE\PROJECT\EXAMPLE\OBJ\MAIN.OBJ
C:\USERS\CAMERON\DOCUMENTS\UNI\REASSESMENTS\HIGH LEVEL ARCHITECTURE\PROJECT\EXAMPLE\OBJ\PATROL.OBJ
C:\USERS\CAMERON\DOCUMENTS\UNI\REASSESMENTS\HIGH LEVEL ARCHITECTURE\PROJECT\EXAMPLE\OBJ\MYAPPLICATION.OBJ
C:\USERS\CAMERON\DOCUMENTS\UNI\REASSESMENTS\HIGH LEVEL ARCHITECTURE\PROJECT\EXAMPLE\OBJ\PATROLANDCHARGEBT.OBJ
C:\USERS\CAMERON\DOCUMENTS\UNI\REASSESMENTS\HIGH LEVEL ARCHITECTURE\PROJECT\EXAMPLE\OBJ\RECHARGE.OBJ
C:\USERS\CAMERON\DOCUMENTS\UNI\REASSESMENTS\HIGH LEVEL ARCHITECTURE\PROJECT\EXAMPLE\OBJ\SELECTOR.OBJ
C:\USERS\CAMERON\DOCUMENTS\UNI\REASSESMENTS\HIGH LEVEL ARCHITECTURE\PROJECT\EXAMPLE\OBJ\SEQUENCE.OBJ
^C:\USERS\CAMERON\DOCUMENTS\UNI\REASSESMENTS\HIGH LEVEL ARCHITECTURE\PROJECT\EXAMPLE\SRC\AIACTOR.CPP|C:\USERS\CAMERON\DOCUMENTS\UNI\REASSESMENTS\HIGH LEVEL ARCHITECTURE\PROJECT\EXAMPLE\SRC\AIBRAIN.CPP|C:\USERS\CAMERON\DOCUMENTS\UNI\REASSESMENTS\HIGH LEVEL ARCHITECTURE\PROJECT\EXAMPLE\SRC\DECORATOR.CPP|C:\USERS\CAMERON\DOCUMENTS\UNI\REASSESMENTS\HIGH LEVEL ARCHITECTURE\PROJECT\EXAMPLE\SRC\INVERTER.CPP|C:\USERS\CAMERON\DOCUMENTS\UNI\REASSESMENTS\HIGH LEVEL ARCHITECTURE\PROJECT\EXAMPLE\SRC\MAIN.CPP|C:\USERS\CAMERON\DOCUMENTS\UNI\REASSESMENTS\HIGH LEVEL ARCHITECTURE\PROJECT\EXAMPLE\SRC\MYAPPLICATION.CPP|C:\USERS\CAMERON\DOCUMENTS\UNI\REASSESMENTS\HIGH LEVEL ARCHITECTURE\PROJECT\EXAMPLE\SRC\PATROL.CPP|C:\USERS\CAMERON\DOCUMENTS\UNI\REASSESMENTS\HIGH LEVEL ARCHITECTURE\PROJECT\EXAMPLE\SRC\RECHARGE.CPP
C:\USERS\CAMERON\DOCUMENTS\UNI\REASSESMENTS\HIGH LEVEL ARCHITECTURE\PROJECT\EXAMPLE\OBJ\VC140.PDB
C:\USERS\CAMERON\DOCUMENTS\UNI\REASSESMENTS\HIGH LEVEL ARCHITECTURE\PROJECT\EXAMPLE\OBJ\VC140.IDB
C:\USERS\CAMERON\DOCUMENTS\UNI\REASSESMENTS\HIGH LEVEL ARCHITECTURE\PROJECT\EXAMPLE\OBJ\AIACTOR.OBJ
C:\USERS\CAMERON\DOCUMENTS\UNI\REASSESMENTS\HIGH LEVEL ARCHITECTURE\PROJECT\EXAMPLE\OBJ\AIBRAIN.OBJ
C:\USERS\CAMERON\DOCUMENTS\UNI\REASSESMENTS\HIGH LEVEL ARCHITECTURE\PROJECT\EXAMPLE\OBJ\DECORATOR.OBJ
C:\USERS\CAMERON\DOCUMENTS\UNI\REASSESMENTS\HIGH LEVEL ARCHITECTURE\PROJECT\EXAMPLE\OBJ\INVERTER.OBJ
C:\USERS\CAMERON\DOCUMENTS\UNI\REASSESMENTS\HIGH LEVEL ARCHITECTURE\PROJECT\EXAMPLE\OBJ\MYAPPLICATION.OBJ
C:\USERS\CAMERON\DOCUMENTS\UNI\REASSESMENTS\HIGH LEVEL ARCHITECTURE\PROJECT\EXAMPLE\OBJ\PATROL.OBJ
C:\USERS\CAMERON\DOCUMENTS\UNI\REASSESMENTS\HIGH LEVEL ARCHITECTURE\PROJECT\EXAMPLE\OBJ\RECHARGE.OBJ
C:\USERS\CAMERON\DOCUMENTS\UNI\REASSESMENTS\HIGH LEVEL ARCHITECTURE\PROJECT\EXAMPLE\OBJ\MAIN.OBJ
^C:\USERS\CAMERON\DOCUMENTS\UNI\REASSESMENTS\HIGH LEVEL ARCHITECTURE\PROJECT\EXAMPLE\SRC\DECORATOR.CPP
C:\USERS\CAMERON\DOCUMENTS\UNI\REASSESMENTS\HIGH LEVEL ARCHITECTURE\PROJECT\EXAMPLE\OBJ\VC140.PDB
C:\USERS\CAMERON\DOCUMENTS\UNI\REASSESMENTS\HIGH LEVEL ARCHITECTURE\PROJECT\EXAMPLE\OBJ\VC140.IDB
C:\USERS\CAMERON\DOCUMENTS\UNI\REASSESMENTS\HIGH LEVEL ARCHITECTURE\PROJECT\EXAMPLE\OBJ\DECORATOR.OBJ
^C:\USERS\CAMERON\DOCUMENTS\UNI\REASSESMENTS\HIGH LEVEL ARCHITECTURE\PROJECT\EXAMPLE\SOURCE\NAVMESH.CPP|C:\USERS\CAMERON\DOCUMENTS\UNI\REASSESMENTS\HIGH LEVEL ARCHITECTURE\PROJECT\EXAMPLE\SRC\AIACTOR.CPP|C:\USERS\CAMERON\DOCUMENTS\UNI\REASSESMENTS\HIGH LEVEL ARCHITECTURE\PROJECT\EXAMPLE\SRC\AIBRAIN.CPP|C:\USERS\CAMERON\DOCUMENTS\UNI\REASSESMENTS\HIGH LEVEL ARCHITECTURE\PROJECT\EXAMPLE\SRC\CHARGEAREA.CPP|C:\USERS\CAMERON\DOCUMENTS\UNI\REASSESMENTS\HIGH LEVEL ARCHITECTURE\PROJECT\EXAMPLE\SRC\MAIN.CPP|C:\USERS\CAMERON\DOCUMENTS\UNI\REASSESMENTS\HIGH LEVEL ARCHITECTURE\PROJECT\EXAMPLE\SRC\MYAPPLICATION.CPP|C:\USERS\CAMERON\DOCUMENTS\UNI\REASSESMENTS\HIGH LEVEL ARCHITECTURE\PROJECT\EXAMPLE\SRC\PATROL.CPP|C:\USERS\CAMERON\DOCUMENTS\UNI\REASSESMENTS\HIGH LEVEL ARCHITECTURE\PROJECT\EXAMPLE\SRC\RECHARGE.CPP
C:\USERS\CAMERON\DOCUMENTS\UNI\REASSESMENTS\HIGH LEVEL ARCHITECTURE\PROJECT\EXAMPLE\OBJ\VC140.PDB
C:\USERS\CAMERON\DOCUMENTS\UNI\REASSESMENTS\HIGH LEVEL ARCHITECTURE\PROJECT\EXAMPLE\OBJ\VC140.IDB
C:\USERS\CAMERON\DOCUMENTS\UNI\REASSESMENTS\HIGH LEVEL ARCHITECTURE\PROJECT\EXAMPLE\OBJ\NAVMESH.OBJ
C:\USERS\CAMERON\DOCUMENTS\UNI\REASSESMENTS\HIGH LEVEL ARCHITECTURE\PROJECT\EXAMPLE\OBJ\AIACTOR.OBJ
C:\USERS\CAMERON\DOCUMENTS\UNI\REASSESMENTS\HIGH LEVEL ARCHITECTURE\PROJECT\EXAMPLE\OBJ\AIBRAIN.OBJ
C:\USERS\CAMERON\DOCUMENTS\UNI\REASSESMENTS\HIGH LEVEL ARCHITECTURE\PROJECT\EXAMPLE\OBJ\CHARGEAREA.OBJ
C:\USERS\CAMERON\DOCUMENTS\UNI\REASSESMENTS\HIGH LEVEL ARCHITECTURE\PROJECT\EXAMPLE\OBJ\MAIN.OBJ
C:\USERS\CAMERON\DOCUMENTS\UNI\REASSESMENTS\HIGH LEVEL ARCHITECTURE\PROJECT\EXAMPLE\OBJ\PATROL.OBJ
C:\USERS\CAMERON\DOCUMENTS\UNI\REASSESMENTS\HIGH LEVEL ARCHITECTURE\PROJECT\EXAMPLE\OBJ\MYAPPLICATION.OBJ
C:\USERS\CAMERON\DOCUMENTS\UNI\REASSESMENTS\HIGH LEVEL ARCHITECTURE\PROJECT\EXAMPLE\OBJ\RECHARGE.OBJ
^C:\USERS\CAMERON\DOCUMENTS\UNI\REASSESMENTS\HIGH LEVEL ARCHITECTURE\PROJECT\EXAMPLE\SOURCE\NAVMESH.CPP
C:\USERS\CAMERON\DOCUMENTS\UNI\REASSESMENTS\HIGH LEVEL ARCHITECTURE\PROJECT\EXAMPLE\OBJ\VC140.PDB
C:\USERS\CAMERON\DOCUMENTS\UNI\REASSESMENTS\HIGH LEVEL ARCHITECTURE\PROJECT\EXAMPLE\OBJ\VC140.IDB
C:\USERS\CAMERON\DOCUMENTS\UNI\REASSESMENTS\HIGH LEVEL ARCHITECTURE\PROJECT\EXAMPLE\OBJ\NAVMESH.OBJ
^C:\USERS\CAMERON\DOCUMENTS\UNI\REASSESMENTS\HIGH LEVEL ARCHITECTURE\PROJECT\EXAMPLE\SOURCE\NAVMESH.CPP|C:\USERS\CAMERON\DOCUMENTS\UNI\REASSESMENTS\HIGH LEVEL ARCHITECTURE\PROJECT\EXAMPLE\SRC\AIACTOR.CPP|C:\USERS\CAMERON\DOCUMENTS\UNI\REASSESMENTS\HIGH LEVEL ARCHITECTURE\PROJECT\EXAMPLE\SRC\MAIN.CPP|C:\USERS\CAMERON\DOCUMENTS\UNI\REASSESMENTS\HIGH LEVEL ARCHITECTURE\PROJECT\EXAMPLE\SRC\MYAPPLICATION.CPP|C:\USERS\CAMERON\DOCUMENTS\UNI\REASSESMENTS\HIGH LEVEL ARCHITECTURE\PROJECT\EXAMPLE\SRC\PATROL.CPP|C:\USERS\CAMERON\DOCUMENTS\UNI\REASSESMENTS\HIGH LEVEL ARCHITECTURE\PROJECT\EXAMPLE\SRC\RECHARGE.CPP
C:\USERS\CAMERON\DOCUMENTS\UNI\REASSESMENTS\HIGH LEVEL ARCHITECTURE\PROJECT\EXAMPLE\OBJ\VC140.PDB
C:\USERS\CAMERON\DOCUMENTS\UNI\REASSESMENTS\HIGH LEVEL ARCHITECTURE\PROJECT\EXAMPLE\OBJ\VC140.IDB
C:\USERS\CAMERON\DOCUMENTS\UNI\REASSESMENTS\HIGH LEVEL ARCHITECTURE\PROJECT\EXAMPLE\OBJ\AIACTOR.OBJ
C:\USERS\CAMERON\DOCUMENTS\UNI\REASSESMENTS\HIGH LEVEL ARCHITECTURE\PROJECT\EXAMPLE\OBJ\MYAPPLICATION.OBJ
C:\USERS\CAMERON\DOCUMENTS\UNI\REASSESMENTS\HIGH LEVEL ARCHITECTURE\PROJECT\EXAMPLE\OBJ\PATROL.OBJ
C:\USERS\CAMERON\DOCUMENTS\UNI\REASSESMENTS\HIGH LEVEL ARCHITECTURE\PROJECT\EXAMPLE\OBJ\RECHARGE.OBJ
C:\USERS\CAMERON\DOCUMENTS\UNI\REASSESMENTS\HIGH LEVEL ARCHITECTURE\PROJECT\EXAMPLE\OBJ\MAIN.OBJ
C:\USERS\CAMERON\DOCUMENTS\UNI\REASSESMENTS\HIGH LEVEL ARCHITECTURE\PROJECT\EXAMPLE\OBJ\NAVMESH.OBJ
^C:\USERS\CAMERON\DOCUMENTS\UNI\REASSESMENTS\HIGH LEVEL ARCHITECTURE\PROJECT\EXAMPLE\SOURCE\NAVMESH.CPP|C:\USERS\CAMERON\DOCUMENTS\UNI\REASSESMENTS\HIGH LEVEL ARCHITECTURE\PROJECT\EXAMPLE\SRC\MYAPPLICATION.CPP
C:\USERS\CAMERON\DOCUMENTS\UNI\REASSESMENTS\HIGH LEVEL ARCHITECTURE\PROJECT\EXAMPLE\OBJ\VC140.PDB
C:\USERS\CAMERON\DOCUMENTS\UNI\REASSESMENTS\HIGH LEVEL ARCHITECTURE\PROJECT\EXAMPLE\OBJ\VC140.IDB
C:\USERS\CAMERON\DOCUMENTS\UNI\REASSESMENTS\HIGH LEVEL ARCHITECTURE\PROJECT\EXAMPLE\OBJ\NAVMESH.OBJ
C:\USERS\CAMERON\DOCUMENTS\UNI\REASSESMENTS\HIGH LEVEL ARCHITECTURE\PROJECT\EXAMPLE\OBJ\MYAPPLICATION.OBJ
^C:\USERS\CAMERON\DOCUMENTS\UNI\REASSESMENTS\HIGH LEVEL ARCHITECTURE\PROJECT\EXAMPLE\SOURCE\NAVMESH.CPP|C:\USERS\CAMERON\DOCUMENTS\UNI\REASSESMENTS\HIGH LEVEL ARCHITECTURE\PROJECT\EXAMPLE\SRC\AIACTOR.CPP|C:\USERS\CAMERON\DOCUMENTS\UNI\REASSESMENTS\HIGH LEVEL ARCHITECTURE\PROJECT\EXAMPLE\SRC\LINECOMPARER.CPP|C:\USERS\CAMERON\DOCUMENTS\UNI\REASSESMENTS\HIGH LEVEL ARCHITECTURE\PROJECT\EXAMPLE\SRC\MAIN.CPP|C:\USERS\CAMERON\DOCUMENTS\UNI\REASSESMENTS\HIGH LEVEL ARCHITECTURE\PROJECT\EXAMPLE\SRC\MYAPPLICATION.CPP|C:\USERS\CAMERON\DOCUMENTS\UNI\REASSESMENTS\HIGH LEVEL ARCHITECTURE\PROJECT\EXAMPLE\SRC\PATROL.CPP|C:\USERS\CAMERON\DOCUMENTS\UNI\REASSESMENTS\HIGH LEVEL ARCHITECTURE\PROJECT\EXAMPLE\SRC\RECHARGE.CPP
C:\USERS\CAMERON\DOCUMENTS\UNI\REASSESMENTS\HIGH LEVEL ARCHITECTURE\PROJECT\EXAMPLE\OBJ\VC140.PDB
C:\USERS\CAMERON\DOCUMENTS\UNI\REASSESMENTS\HIGH LEVEL ARCHITECTURE\PROJECT\EXAMPLE\OBJ\VC140.IDB
C:\USERS\CAMERON\DOCUMENTS\UNI\REASSESMENTS\HIGH LEVEL ARCHITECTURE\PROJECT\EXAMPLE\OBJ\NAVMESH.OBJ
C:\USERS\CAMERON\DOCUMENTS\UNI\REASSESMENTS\HIGH LEVEL ARCHITECTURE\PROJECT\EXAMPLE\OBJ\AIACTOR.OBJ
C:\USERS\CAMERON\DOCUMENTS\UNI\REASSESMENTS\HIGH LEVEL ARCHITECTURE\PROJECT\EXAMPLE\OBJ\MAIN.OBJ
C:\USERS\CAMERON\DOCUMENTS\UNI\REASSESMENTS\HIGH LEVEL ARCHITECTURE\PROJECT\EXAMPLE\OBJ\PATROL.OBJ
C:\USERS\CAMERON\DOCUMENTS\UNI\REASSESMENTS\HIGH LEVEL ARCHITECTURE\PROJECT\EXAMPLE\OBJ\MYAPPLICATION.OBJ
C:\USERS\CAMERON\DOCUMENTS\UNI\REASSESMENTS\HIGH LEVEL ARCHITECTURE\PROJECT\EXAMPLE\OBJ\RECHARGE.OBJ
C:\USERS\CAMERON\DOCUMENTS\UNI\REASSESMENTS\HIGH LEVEL ARCHITECTURE\PROJECT\EXAMPLE\OBJ\LINECOMPARER.OBJ
^C:\USERS\CAMERON\DOCUMENTS\UNI\REASSESMENTS\HIGH LEVEL ARCHITECTURE\PROJECT\EXAMPLE\SOURCE\NAVMESH.CPP|C:\USERS\CAMERON\DOCUMENTS\UNI\REASSESMENTS\HIGH LEVEL ARCHITECTURE\PROJECT\EXAMPLE\SRC\AIACTOR.CPP|C:\USERS\CAMERON\DOCUMENTS\UNI\REASSESMENTS\HIGH LEVEL ARCHITECTURE\PROJECT\EXAMPLE\SRC\AIBRAIN.CPP|C:\USERS\CAMERON\DOCUMENTS\UNI\REASSESMENTS\HIGH LEVEL ARCHITECTURE\PROJECT\EXAMPLE\SRC\CHARGEAREA.CPP|C:\USERS\CAMERON\DOCUMENTS\UNI\REASSESMENTS\HIGH LEVEL ARCHITECTURE\PROJECT\EXAMPLE\SRC\LINECOMPARER.CPP|C:\USERS\CAMERON\DOCUMENTS\UNI\REASSESMENTS\HIGH LEVEL ARCHITECTURE\PROJECT\EXAMPLE\SRC\MAIN.CPP|C:\USERS\CAMERON\DOCUMENTS\UNI\REASSESMENTS\HIGH LEVEL ARCHITECTURE\PROJECT\EXAMPLE\SRC\MYAPPLICATION.CPP|C:\USERS\CAMERON\DOCUMENTS\UNI\REASSESMENTS\HIGH LEVEL ARCHITECTURE\PROJECT\EXAMPLE\SRC\PATROL.CPP|C:\USERS\CAMERON\DOCUMENTS\UNI\REASSESMENTS\HIGH LEVEL ARCHITECTURE\PROJECT\EXAMPLE\SRC\RECHARGE.CPP
C:\USERS\CAMERON\DOCUMENTS\UNI\REASSESMENTS\HIGH LEVEL ARCHITECTURE\PROJECT\EXAMPLE\OBJ\VC140.PDB
C:\USERS\CAMERON\DOCUMENTS\UNI\REASSESMENTS\HIGH LEVEL ARCHITECTURE\PROJECT\EXAMPLE\OBJ\VC140.IDB
C:\USERS\CAMERON\DOCUMENTS\UNI\REASSESMENTS\HIGH LEVEL ARCHITECTURE\PROJECT\EXAMPLE\OBJ\NAVMESH.OBJ
C:\USERS\CAMERON\DOCUMENTS\UNI\REASSESMENTS\HIGH LEVEL ARCHITECTURE\PROJECT\EXAMPLE\OBJ\AIACTOR.OBJ
C:\USERS\CAMERON\DOCUMENTS\UNI\REASSESMENTS\HIGH LEVEL ARCHITECTURE\PROJECT\EXAMPLE\OBJ\AIBRAIN.OBJ
C:\USERS\CAMERON\DOCUMENTS\UNI\REASSESMENTS\HIGH LEVEL ARCHITECTURE\PROJECT\EXAMPLE\OBJ\CHARGEAREA.OBJ
C:\USERS\CAMERON\DOCUMENTS\UNI\REASSESMENTS\HIGH LEVEL ARCHITECTURE\PROJECT\EXAMPLE\OBJ\LINECOMPARER.OBJ
C:\USERS\CAMERON\DOCUMENTS\UNI\REASSESMENTS\HIGH LEVEL ARCHITECTURE\PROJECT\EXAMPLE\OBJ\MYAPPLICATION.OBJ
C:\USERS\CAMERON\DOCUMENTS\UNI\REASSESMENTS\HIGH LEVEL ARCHITECTURE\PROJECT\EXAMPLE\OBJ\PATROL.OBJ
C:\USERS\CAMERON\DOCUMENTS\UNI\REASSESMENTS\HIGH LEVEL ARCHITECTURE\PROJECT\EXAMPLE\OBJ\RECHARGE.OBJ
C:\USERS\CAMERON\DOCUMENTS\UNI\REASSESMENTS\HIGH LEVEL ARCHITECTURE\PROJECT\EXAMPLE\OBJ\MAIN.OBJ
^C:\USERS\CAMERON\DOCUMENTS\UNI\REASSESMENTS\HIGH LEVEL ARCHITECTURE\PROJECT\EXAMPLE\SRC\AIACTOR.CPP|C:\USERS\CAMERON\DOCUMENTS\UNI\REASSESMENTS\HIGH LEVEL ARCHITECTURE\PROJECT\EXAMPLE\SRC\AIBRAIN.CPP|C:\USERS\CAMERON\DOCUMENTS\UNI\REASSESMENTS\HIGH LEVEL ARCHITECTURE\PROJECT\EXAMPLE\SRC\ISCHARGELOW.CPP|C:\USERS\CAMERON\DOCUMENTS\UNI\REASSESMENTS\HIGH LEVEL ARCHITECTURE\PROJECT\EXAMPLE\SRC\SEQUENCE.CPP
C:\USERS\CAMERON\DOCUMENTS\UNI\REASSESMENTS\HIGH LEVEL ARCHITECTURE\PROJECT\EXAMPLE\OBJ\VC140.PDB
C:\USERS\CAMERON\DOCUMENTS\UNI\REASSESMENTS\HIGH LEVEL ARCHITECTURE\PROJECT\EXAMPLE\OBJ\VC140.IDB
C:\USERS\CAMERON\DOCUMENTS\UNI\REASSESMENTS\HIGH LEVEL ARCHITECTURE\PROJECT\EXAMPLE\OBJ\AIACTOR.OBJ
C:\USERS\CAMERON\DOCUMENTS\UNI\REASSESMENTS\HIGH LEVEL ARCHITECTURE\PROJECT\EXAMPLE\OBJ\AIBRAIN.OBJ
C:\USERS\CAMERON\DOCUMENTS\UNI\REASSESMENTS\HIGH LEVEL ARCHITECTURE\PROJECT\EXAMPLE\OBJ\ISCHARGELOW.OBJ
^C:\USERS\CAMERON\DOCUMENTS\UNI\REASSESMENTS\HIGH LEVEL ARCHITECTURE\PROJECT\EXAMPLE\SOURCE\NAVMESH.CPP|C:\USERS\CAMERON\DOCUMENTS\UNI\REASSESMENTS\HIGH LEVEL ARCHITECTURE\PROJECT\EXAMPLE\SRC\AIACTOR.CPP|C:\USERS\CAMERON\DOCUMENTS\UNI\REASSESMENTS\HIGH LEVEL ARCHITECTURE\PROJECT\EXAMPLE\SRC\AIBRAIN.CPP|C:\USERS\CAMERON\DOCUMENTS\UNI\REASSESMENTS\HIGH LEVEL ARCHITECTURE\PROJECT\EXAMPLE\SRC\INVERTER.CPP|C:\USERS\CAMERON\DOCUMENTS\UNI\REASSESMENTS\HIGH LEVEL ARCHITECTURE\PROJECT\EXAMPLE\SRC\LINECOMPARER.CPP|C:\USERS\CAMERON\DOCUMENTS\UNI\REASSESMENTS\HIGH LEVEL ARCHITECTURE\PROJECT\EXAMPLE\SRC\MAIN.CPP|C:\USERS\CAMERON\DOCUMENTS\UNI\REASSESMENTS\HIGH LEVEL ARCHITECTURE\PROJECT\EXAMPLE\SRC\MYAPPLICATION.CPP|C:\USERS\CAMERON\DOCUMENTS\UNI\REASSESMENTS\HIGH LEVEL ARCHITECTURE\PROJECT\EXAMPLE\SRC\PATROL.CPP|C:\USERS\CAMERON\DOCUMENTS\UNI\REASSESMENTS\HIGH LEVEL ARCHITECTURE\PROJECT\EXAMPLE\SRC\RECHARGE.CPP|C:\USERS\CAMERON\DOCUMENTS\UNI\REASSESMENTS\HIGH LEVEL ARCHITECTURE\PROJECT\EXAMPLE\SRC\SELECTOR.CPP|C:\USERS\CAMERON\DOCUMENTS\UNI\REASSESMENTS\HIGH LEVEL ARCHITECTURE\PROJECT\EXAMPLE\SRC\SEQUENCE.CPP|C:\USERS\CAMERON\DOCUMENTS\UNI\REASSESMENTS\HIGH LEVEL ARCHITECTURE\PROJECT\EXAMPLE\SRC\STAGE.CPP
C:\USERS\CAMERON\DOCUMENTS\UNI\REASSESMENTS\HIGH LEVEL ARCHITECTURE\PROJECT\EXAMPLE\OBJ\VC140.PDB
C:\USERS\CAMERON\DOCUMENTS\UNI\REASSESMENTS\HIGH LEVEL ARCHITECTURE\PROJECT\EXAMPLE\OBJ\VC140.IDB
C:\USERS\CAMERON\DOCUMENTS\UNI\REASSESMENTS\HIGH LEVEL ARCHITECTURE\PROJECT\EXAMPLE\OBJ\NAVMESH.OBJ
C:\USERS\CAMERON\DOCUMENTS\UNI\REASSESMENTS\HIGH LEVEL ARCHITECTURE\PROJECT\EXAMPLE\OBJ\AIACTOR.OBJ
C:\USERS\CAMERON\DOCUMENTS\UNI\REASSESMENTS\HIGH LEVEL ARCHITECTURE\PROJECT\EXAMPLE\OBJ\AIBRAIN.OBJ
C:\USERS\CAMERON\DOCUMENTS\UNI\REASSESMENTS\HIGH LEVEL ARCHITECTURE\PROJECT\EXAMPLE\OBJ\INVERTER.OBJ
C:\USERS\CAMERON\DOCUMENTS\UNI\REASSESMENTS\HIGH LEVEL ARCHITECTURE\PROJECT\EXAMPLE\OBJ\MAIN.OBJ
C:\USERS\CAMERON\DOCUMENTS\UNI\REASSESMENTS\HIGH LEVEL ARCHITECTURE\PROJECT\EXAMPLE\OBJ\PATROL.OBJ
C:\USERS\CAMERON\DOCUMENTS\UNI\REASSESMENTS\HIGH LEVEL ARCHITECTURE\PROJECT\EXAMPLE\OBJ\MYAPPLICATION.OBJ
C:\USERS\CAMERON\DOCUMENTS\UNI\REASSESMENTS\HIGH LEVEL ARCHITECTURE\PROJECT\EXAMPLE\OBJ\RECHARGE.OBJ
C:\USERS\CAMERON\DOCUMENTS\UNI\REASSESMENTS\HIGH LEVEL ARCHITECTURE\PROJECT\EXAMPLE\OBJ\SELECTOR.OBJ
C:\USERS\CAMERON\DOCUMENTS\UNI\REASSESMENTS\HIGH LEVEL ARCHITECTURE\PROJECT\EXAMPLE\OBJ\SEQUENCE.OBJ
C:\USERS\CAMERON\DOCUMENTS\UNI\REASSESMENTS\HIGH LEVEL ARCHITECTURE\PROJECT\EXAMPLE\OBJ\LINECOMPARER.OBJ
C:\USERS\CAMERON\DOCUMENTS\UNI\REASSESMENTS\HIGH LEVEL ARCHITECTURE\PROJECT\EXAMPLE\OBJ\STAGE.OBJ
^C:\USERS\CAMERON\DOCUMENTS\UNI\REASSESMENTS\HIGH LEVEL ARCHITECTURE\PROJECT\EXAMPLE\SOURCE\NAVMESH.CPP|C:\USERS\CAMERON\DOCUMENTS\UNI\REASSESMENTS\HIGH LEVEL ARCHITECTURE\PROJECT\EXAMPLE\SRC\AIACTOR.CPP|C:\USERS\CAMERON\DOCUMENTS\UNI\REASSESMENTS\HIGH LEVEL ARCHITECTURE\PROJECT\EXAMPLE\SRC\AIBRAIN.CPP|C:\USERS\CAMERON\DOCUMENTS\UNI\REASSESMENTS\HIGH LEVEL ARCHITECTURE\PROJECT\EXAMPLE\SRC\CHARGEAREA.CPP|C:\USERS\CAMERON\DOCUMENTS\UNI\REASSESMENTS\HIGH LEVEL ARCHITECTURE\PROJECT\EXAMPLE\SRC\INVERTER.CPP|C:\USERS\CAMERON\DOCUMENTS\UNI\REASSESMENTS\HIGH LEVEL ARCHITECTURE\PROJECT\EXAMPLE\SRC\ISCHARGELOW.CPP|C:\USERS\CAMERON\DOCUMENTS\UNI\REASSESMENTS\HIGH LEVEL ARCHITECTURE\PROJECT\EXAMPLE\SRC\LINECOMPARER.CPP|C:\USERS\CAMERON\DOCUMENTS\UNI\REASSESMENTS\HIGH LEVEL ARCHITECTURE\PROJECT\EXAMPLE\SRC\MAIN.CPP|C:\USERS\CAMERON\DOCUMENTS\UNI\REASSESMENTS\HIGH LEVEL ARCHITECTURE\PROJECT\EXAMPLE\SRC\MYAPPLICATION.CPP|C:\USERS\CAMERON\DOCUMENTS\UNI\REASSESMENTS\HIGH LEVEL ARCHITECTURE\PROJECT\EXAMPLE\SRC\PATROL.CPP|C:\USERS\CAMERON\DOCUMENTS\UNI\REASSESMENTS\HIGH LEVEL ARCHITECTURE\PROJECT\EXAMPLE\SRC\PATROLANDCHARGEBT.CPP|C:\USERS\CAMERON\DOCUMENTS\UNI\REASSESMENTS\HIGH LEVEL ARCHITECTURE\PROJECT\EXAMPLE\SRC\RECHARGE.CPP
C:\USERS\CAMERON\DOCUMENTS\UNI\REASSESMENTS\HIGH LEVEL ARCHITECTURE\PROJECT\EXAMPLE\OBJ\VC140.PDB
C:\USERS\CAMERON\DOCUMENTS\UNI\REASSESMENTS\HIGH LEVEL ARCHITECTURE\PROJECT\EXAMPLE\OBJ\VC140.IDB
C:\USERS\CAMERON\DOCUMENTS\UNI\REASSESMENTS\HIGH LEVEL ARCHITECTURE\PROJECT\EXAMPLE\OBJ\NAVMESH.OBJ
C:\USERS\CAMERON\DOCUMENTS\UNI\REASSESMENTS\HIGH LEVEL ARCHITECTURE\PROJECT\EXAMPLE\OBJ\AIACTOR.OBJ
C:\USERS\CAMERON\DOCUMENTS\UNI\REASSESMENTS\HIGH LEVEL ARCHITECTURE\PROJECT\EXAMPLE\OBJ\AIBRAIN.OBJ
C:\USERS\CAMERON\DOCUMENTS\UNI\REASSESMENTS\HIGH LEVEL ARCHITECTURE\PROJECT\EXAMPLE\OBJ\CHARGEAREA.OBJ
C:\USERS\CAMERON\DOCUMENTS\UNI\REASSESMENTS\HIGH LEVEL ARCHITECTURE\PROJECT\EXAMPLE\OBJ\INVERTER.OBJ
C:\USERS\CAMERON\DOCUMENTS\UNI\REASSESMENTS\HIGH LEVEL ARCHITECTURE\PROJECT\EXAMPLE\OBJ\ISCHARGELOW.OBJ
C:\USERS\CAMERON\DOCUMENTS\UNI\REASSESMENTS\HIGH LEVEL ARCHITECTURE\PROJECT\EXAMPLE\OBJ\LINECOMPARER.OBJ
C:\USERS\CAMERON\DOCUMENTS\UNI\REASSESMENTS\HIGH LEVEL ARCHITECTURE\PROJECT\EXAMPLE\OBJ\MYAPPLICATION.OBJ
C:\USERS\CAMERON\DOCUMENTS\UNI\REASSESMENTS\HIGH LEVEL ARCHITECTURE\PROJECT\EXAMPLE\OBJ\PATROL.OBJ
C:\USERS\CAMERON\DOCUMENTS\UNI\REASSESMENTS\HIGH LEVEL ARCHITECTURE\PROJECT\EXAMPLE\OBJ\PATROLANDCHARGEBT.OBJ
C:\USERS\CAMERON\DOCUMENTS\UNI\REASSESMENTS\HIGH LEVEL ARCHITECTURE\PROJECT\EXAMPLE\OBJ\RECHARGE.OBJ
C:\USERS\CAMERON\DOCUMENTS\UNI\REASSESMENTS\HIGH LEVEL ARCHITECTURE\PROJECT\EXAMPLE\OBJ\MAIN.OBJ
^C:\USERS\CAMERON\DOCUMENTS\UNI\REASSESMENTS\HIGH LEVEL ARCHITECTURE\PROJECT\EXAMPLE\SRC\AIACTOR.CPP|C:\USERS\CAMERON\DOCUMENTS\UNI\REASSESMENTS\HIGH LEVEL ARCHITECTURE\PROJECT\EXAMPLE\SRC\AIBRAIN.CPP|C:\USERS\CAMERON\DOCUMENTS\UNI\REASSESMENTS\HIGH LEVEL ARCHITECTURE\PROJECT\EXAMPLE\SRC\ISCHARGELOW.CPP|C:\USERS\CAMERON\DOCUMENTS\UNI\REASSESMENTS\HIGH LEVEL ARCHITECTURE\PROJECT\EXAMPLE\SRC\LOOPUNTILFAILURE.CPP|C:\USERS\CAMERON\DOCUMENTS\UNI\REASSESMENTS\HIGH LEVEL ARCHITECTURE\PROJECT\EXAMPLE\SRC\PATROLANDCHARGEBT.CPP
C:\USERS\CAMERON\DOCUMENTS\UNI\REASSESMENTS\HIGH LEVEL ARCHITECTURE\PROJECT\EXAMPLE\OBJ\VC140.PDB
C:\USERS\CAMERON\DOCUMENTS\UNI\REASSESMENTS\HIGH LEVEL ARCHITECTURE\PROJECT\EXAMPLE\OBJ\VC140.IDB
C:\USERS\CAMERON\DOCUMENTS\UNI\REASSESMENTS\HIGH LEVEL ARCHITECTURE\PROJECT\EXAMPLE\OBJ\AIACTOR.OBJ
C:\USERS\CAMERON\DOCUMENTS\UNI\REASSESMENTS\HIGH LEVEL ARCHITECTURE\PROJECT\EXAMPLE\OBJ\AIBRAIN.OBJ
C:\USERS\CAMERON\DOCUMENTS\UNI\REASSESMENTS\HIGH LEVEL ARCHITECTURE\PROJECT\EXAMPLE\OBJ\ISCHARGELOW.OBJ
C:\USERS\CAMERON\DOCUMENTS\UNI\REASSESMENTS\HIGH LEVEL ARCHITECTURE\PROJECT\EXAMPLE\OBJ\LOOPUNTILFAILURE.OBJ
C:\USERS\CAMERON\DOCUMENTS\UNI\REASSESMENTS\HIGH LEVEL ARCHITECTURE\PROJECT\EXAMPLE\OBJ\PATROLANDCHARGEBT.OBJ
^C:\USERS\CAMERON\DOCUMENTS\UNI\REASSESMENTS\HIGH LEVEL ARCHITECTURE\PROJECT\EXAMPLE\SRC\AIACTOR.CPP|C:\USERS\CAMERON\DOCUMENTS\UNI\REASSESMENTS\HIGH LEVEL ARCHITECTURE\PROJECT\EXAMPLE\SRC\ISCHARGELOW.CPP
C:\USERS\CAMERON\DOCUMENTS\UNI\REASSESMENTS\HIGH LEVEL ARCHITECTURE\PROJECT\EXAMPLE\OBJ\VC140.PDB
C:\USERS\CAMERON\DOCUMENTS\UNI\REASSESMENTS\HIGH LEVEL ARCHITECTURE\PROJECT\EXAMPLE\OBJ\VC140.IDB
C:\USERS\CAMERON\DOCUMENTS\UNI\REASSESMENTS\HIGH LEVEL ARCHITECTURE\PROJECT\EXAMPLE\OBJ\AIACTOR.OBJ
C:\USERS\CAMERON\DOCUMENTS\UNI\REASSESMENTS\HIGH LEVEL ARCHITECTURE\PROJECT\EXAMPLE\OBJ\ISCHARGELOW.OBJ
^C:\USERS\CAMERON\DOCUMENTS\UNI\REASSESMENTS\HIGH LEVEL ARCHITECTURE\PROJECT\EXAMPLE\SOURCE\NAVMESH.CPP|C:\USERS\CAMERON\DOCUMENTS\UNI\REASSESMENTS\HIGH LEVEL ARCHITECTURE\PROJECT\EXAMPLE\SRC\AIACTOR.CPP|C:\USERS\CAMERON\DOCUMENTS\UNI\REASSESMENTS\HIGH LEVEL ARCHITECTURE\PROJECT\EXAMPLE\SRC\AIBRAIN.CPP|C:\USERS\CAMERON\DOCUMENTS\UNI\REASSESMENTS\HIGH LEVEL ARCHITECTURE\PROJECT\EXAMPLE\SRC\CHARGEAREA.CPP|C:\USERS\CAMERON\DOCUMENTS\UNI\REASSESMENTS\HIGH LEVEL ARCHITECTURE\PROJECT\EXAMPLE\SRC\ISCHARGELOW.CPP|C:\USERS\CAMERON\DOCUMENTS\UNI\REASSESMENTS\HIGH LEVEL ARCHITECTURE\PROJECT\EXAMPLE\SRC\ISENEMYINSIGHT.CPP|C:\USERS\CAMERON\DOCUMENTS\UNI\REASSESMENTS\HIGH LEVEL ARCHITECTURE\PROJECT\EXAMPLE\SRC\LINECOMPARER.CPP|C:\USERS\CAMERON\DOCUMENTS\UNI\REASSESMENTS\HIGH LEVEL ARCHITECTURE\PROJECT\EXAMPLE\SRC\MAIN.CPP|C:\USERS\CAMERON\DOCUMENTS\UNI\REASSESMENTS\HIGH LEVEL ARCHITECTURE\PROJECT\EXAMPLE\SRC\MYAPPLICATION.CPP|C:\USERS\CAMERON\DOCUMENTS\UNI\REASSESMENTS\HIGH LEVEL ARCHITECTURE\PROJECT\EXAMPLE\SRC\PATROL.CPP|C:\USERS\CAMERON\DOCUMENTS\UNI\REASSESMENTS\HIGH LEVEL ARCHITECTURE\PROJECT\EXAMPLE\SRC\RECHARGE.CPP|C:\USERS\CAMERON\DOCUMENTS\UNI\REASSESMENTS\HIGH LEVEL ARCHITECTURE\PROJECT\EXAMPLE\SRC\STAGE.CPP
C:\USERS\CAMERON\DOCUMENTS\UNI\REASSESMENTS\HIGH LEVEL ARCHITECTURE\PROJECT\EXAMPLE\OBJ\VC140.PDB
C:\USERS\CAMERON\DOCUMENTS\UNI\REASSESMENTS\HIGH LEVEL ARCHITECTURE\PROJECT\EXAMPLE\OBJ\VC140.IDB
C:\USERS\CAMERON\DOCUMENTS\UNI\REASSESMENTS\HIGH LEVEL ARCHITECTURE\PROJECT\EXAMPLE\OBJ\NAVMESH.OBJ
C:\USERS\CAMERON\DOCUMENTS\UNI\REASSESMENTS\HIGH LEVEL ARCHITECTURE\PROJECT\EXAMPLE\OBJ\AIACTOR.OBJ
C:\USERS\CAMERON\DOCUMENTS\UNI\REASSESMENTS\HIGH LEVEL ARCHITECTURE\PROJECT\EXAMPLE\OBJ\AIBRAIN.OBJ
C:\USERS\CAMERON\DOCUMENTS\UNI\REASSESMENTS\HIGH LEVEL ARCHITECTURE\PROJECT\EXAMPLE\OBJ\CHARGEAREA.OBJ
C:\USERS\CAMERON\DOCUMENTS\UNI\REASSESMENTS\HIGH LEVEL ARCHITECTURE\PROJECT\EXAMPLE\OBJ\ISCHARGELOW.OBJ
C:\USERS\CAMERON\DOCUMENTS\UNI\REASSESMENTS\HIGH LEVEL ARCHITECTURE\PROJECT\EXAMPLE\OBJ\MAIN.OBJ
C:\USERS\CAMERON\DOCUMENTS\UNI\REASSESMENTS\HIGH LEVEL ARCHITECTURE\PROJECT\EXAMPLE\OBJ\PATROL.OBJ
C:\USERS\CAMERON\DOCUMENTS\UNI\REASSESMENTS\HIGH LEVEL ARCHITECTURE\PROJECT\EXAMPLE\OBJ\MYAPPLICATION.OBJ
C:\USERS\CAMERON\DOCUMENTS\UNI\REASSESMENTS\HIGH LEVEL ARCHITECTURE\PROJECT\EXAMPLE\OBJ\RECHARGE.OBJ
C:\USERS\CAMERON\DOCUMENTS\UNI\REASSESMENTS\HIGH LEVEL ARCHITECTURE\PROJECT\EXAMPLE\OBJ\LINECOMPARER.OBJ
C:\USERS\CAMERON\DOCUMENTS\UNI\REASSESMENTS\HIGH LEVEL ARCHITECTURE\PROJECT\EXAMPLE\OBJ\STAGE.OBJ
^C:\USERS\CAMERON\DOCUMENTS\UNI\REASSESMENTS\HIGH LEVEL ARCHITECTURE\PROJECT\EXAMPLE\SOURCE\NAVMESH.CPP|C:\USERS\CAMERON\DOCUMENTS\UNI\REASSESMENTS\HIGH LEVEL ARCHITECTURE\PROJECT\EXAMPLE\SRC\AIACTOR.CPP|C:\USERS\CAMERON\DOCUMENTS\UNI\REASSESMENTS\HIGH LEVEL ARCHITECTURE\PROJECT\EXAMPLE\SRC\ISENEMYINSIGHT.CPP|C:\USERS\CAMERON\DOCUMENTS\UNI\REASSESMENTS\HIGH LEVEL ARCHITECTURE\PROJECT\EXAMPLE\SRC\LINECOMPARER.CPP|C:\USERS\CAMERON\DOCUMENTS\UNI\REASSESMENTS\HIGH LEVEL ARCHITECTURE\PROJECT\EXAMPLE\SRC\MAIN.CPP|C:\USERS\CAMERON\DOCUMENTS\UNI\REASSESMENTS\HIGH LEVEL ARCHITECTURE\PROJECT\EXAMPLE\SRC\MYAPPLICATION.CPP|C:\USERS\CAMERON\DOCUMENTS\UNI\REASSESMENTS\HIGH LEVEL ARCHITECTURE\PROJECT\EXAMPLE\SRC\PATROL.CPP|C:\USERS\CAMERON\DOCUMENTS\UNI\REASSESMENTS\HIGH LEVEL ARCHITECTURE\PROJECT\EXAMPLE\SRC\RECHARGE.CPP|C:\USERS\CAMERON\DOCUMENTS\UNI\REASSESMENTS\HIGH LEVEL ARCHITECTURE\PROJECT\EXAMPLE\SRC\STAGE.CPP
C:\USERS\CAMERON\DOCUMENTS\UNI\REASSESMENTS\HIGH LEVEL ARCHITECTURE\PROJECT\EXAMPLE\OBJ\VC140.PDB
C:\USERS\CAMERON\DOCUMENTS\UNI\REASSESMENTS\HIGH LEVEL ARCHITECTURE\PROJECT\EXAMPLE\OBJ\VC140.IDB
C:\USERS\CAMERON\DOCUMENTS\UNI\REASSESMENTS\HIGH LEVEL ARCHITECTURE\PROJECT\EXAMPLE\OBJ\NAVMESH.OBJ
C:\USERS\CAMERON\DOCUMENTS\UNI\REASSESMENTS\HIGH LEVEL ARCHITECTURE\PROJECT\EXAMPLE\OBJ\AIACTOR.OBJ
C:\USERS\CAMERON\DOCUMENTS\UNI\REASSESMENTS\HIGH LEVEL ARCHITECTURE\PROJECT\EXAMPLE\OBJ\LINECOMPARER.OBJ
C:\USERS\CAMERON\DOCUMENTS\UNI\REASSESMENTS\HIGH LEVEL ARCHITECTURE\PROJECT\EXAMPLE\OBJ\MYAPPLICATION.OBJ
C:\USERS\CAMERON\DOCUMENTS\UNI\REASSESMENTS\HIGH LEVEL ARCHITECTURE\PROJECT\EXAMPLE\OBJ\PATROL.OBJ
C:\USERS\CAMERON\DOCUMENTS\UNI\REASSESMENTS\HIGH LEVEL ARCHITECTURE\PROJECT\EXAMPLE\OBJ\RECHARGE.OBJ
C:\USERS\CAMERON\DOCUMENTS\UNI\REASSESMENTS\HIGH LEVEL ARCHITECTURE\PROJECT\EXAMPLE\OBJ\STAGE.OBJ
C:\USERS\CAMERON\DOCUMENTS\UNI\REASSESMENTS\HIGH LEVEL ARCHITECTURE\PROJECT\EXAMPLE\OBJ\MAIN.OBJ
^C:\USERS\CAMERON\DOCUMENTS\UNI\REASSESMENTS\HIGH LEVEL ARCHITECTURE\PROJECT\EXAMPLE\SOURCE\NAVMESH.CPP|C:\USERS\CAMERON\DOCUMENTS\UNI\REASSESMENTS\HIGH LEVEL ARCHITECTURE\PROJECT\EXAMPLE\SRC\AIACTOR.CPP|C:\USERS\CAMERON\DOCUMENTS\UNI\REASSESMENTS\HIGH LEVEL ARCHITECTURE\PROJECT\EXAMPLE\SRC\ISENEMYINSIGHT.CPP|C:\USERS\CAMERON\DOCUMENTS\UNI\REASSESMENTS\HIGH LEVEL ARCHITECTURE\PROJECT\EXAMPLE\SRC\LINECOMPARER.CPP|C:\USERS\CAMERON\DOCUMENTS\UNI\REASSESMENTS\HIGH LEVEL ARCHITECTURE\PROJECT\EXAMPLE\SRC\MAIN.CPP|C:\USERS\CAMERON\DOCUMENTS\UNI\REASSESMENTS\HIGH LEVEL ARCHITECTURE\PROJECT\EXAMPLE\SRC\MYAPPLICATION.CPP|C:\USERS\CAMERON\DOCUMENTS\UNI\REASSESMENTS\HIGH LEVEL ARCHITECTURE\PROJECT\EXAMPLE\SRC\PATROL.CPP|C:\USERS\CAMERON\DOCUMENTS\UNI\REASSESMENTS\HIGH LEVEL ARCHITECTURE\PROJECT\EXAMPLE\SRC\RECHARGE.CPP
C:\USERS\CAMERON\DOCUMENTS\UNI\REASSESMENTS\HIGH LEVEL ARCHITECTURE\PROJECT\EXAMPLE\OBJ\VC140.PDB
C:\USERS\CAMERON\DOCUMENTS\UNI\REASSESMENTS\HIGH LEVEL ARCHITECTURE\PROJECT\EXAMPLE\OBJ\VC140.IDB
C:\USERS\CAMERON\DOCUMENTS\UNI\REASSESMENTS\HIGH LEVEL ARCHITECTURE\PROJECT\EXAMPLE\OBJ\NAVMESH.OBJ
C:\USERS\CAMERON\DOCUMENTS\UNI\REASSESMENTS\HIGH LEVEL ARCHITECTURE\PROJECT\EXAMPLE\OBJ\AIACTOR.OBJ
C:\USERS\CAMERON\DOCUMENTS\UNI\REASSESMENTS\HIGH LEVEL ARCHITECTURE\PROJECT\EXAMPLE\OBJ\ISENEMYINSIGHT.OBJ
C:\USERS\CAMERON\DOCUMENTS\UNI\REASSESMENTS\HIGH LEVEL ARCHITECTURE\PROJECT\EXAMPLE\OBJ\LINECOMPARER.OBJ
C:\USERS\CAMERON\DOCUMENTS\UNI\REASSESMENTS\HIGH LEVEL ARCHITECTURE\PROJECT\EXAMPLE\OBJ\MYAPPLICATION.OBJ
C:\USERS\CAMERON\DOCUMENTS\UNI\REASSESMENTS\HIGH LEVEL ARCHITECTURE\PROJECT\EXAMPLE\OBJ\PATROL.OBJ
C:\USERS\CAMERON\DOCUMENTS\UNI\REASSESMENTS\HIGH LEVEL ARCHITECTURE\PROJECT\EXAMPLE\OBJ\RECHARGE.OBJ
C:\USERS\CAMERON\DOCUMENTS\UNI\REASSESMENTS\HIGH LEVEL ARCHITECTURE\PROJECT\EXAMPLE\OBJ\MAIN.OBJ
^C:\USERS\CAMERON\DOCUMENTS\UNI\REASSESMENTS\HIGH LEVEL ARCHITECTURE\PROJECT\EXAMPLE\SOURCE\NAVMESH.CPP|C:\USERS\CAMERON\DOCUMENTS\UNI\REASSESMENTS\HIGH LEVEL ARCHITECTURE\PROJECT\EXAMPLE\SRC\AIACTOR.CPP|C:\USERS\CAMERON\DOCUMENTS\UNI\REASSESMENTS\HIGH LEVEL ARCHITECTURE\PROJECT\EXAMPLE\SRC\AIBRAIN.CPP|C:\USERS\CAMERON\DOCUMENTS\UNI\REASSESMENTS\HIGH LEVEL ARCHITECTURE\PROJECT\EXAMPLE\SRC\CHARGEAREA.CPP|C:\USERS\CAMERON\DOCUMENTS\UNI\REASSESMENTS\HIGH LEVEL ARCHITECTURE\PROJECT\EXAMPLE\SRC\CHASE.CPP|C:\USERS\CAMERON\DOCUMENTS\UNI\REASSESMENTS\HIGH LEVEL ARCHITECTURE\PROJECT\EXAMPLE\SRC\ISCHARGELOW.CPP|C:\USERS\CAMERON\DOCUMENTS\UNI\REASSESMENTS\HIGH LEVEL ARCHITECTURE\PROJECT\EXAMPLE\SRC\ISENEMYINSIGHT.CPP|C:\USERS\CAMERON\DOCUMENTS\UNI\REASSESMENTS\HIGH LEVEL ARCHITECTURE\PROJECT\EXAMPLE\SRC\ISRIGHTSTATUS.CPP|C:\USERS\CAMERON\DOCUMENTS\UNI\REASSESMENTS\HIGH LEVEL ARCHITECTURE\PROJECT\EXAMPLE\SRC\LINECOMPARER.CPP|C:\USERS\CAMERON\DOCUMENTS\UNI\REASSESMENTS\HIGH LEVEL ARCHITECTURE\PROJECT\EXAMPLE\SRC\MAIN.CPP|C:\USERS\CAMERON\DOCUMENTS\UNI\REASSESMENTS\HIGH LEVEL ARCHITECTURE\PROJECT\EXAMPLE\SRC\MYAPPLICATION.CPP|C:\USERS\CAMERON\DOCUMENTS\UNI\REASSESMENTS\HIGH LEVEL ARCHITECTURE\PROJECT\EXAMPLE\SRC\PATROL.CPP|C:\USERS\CAMERON\DOCUMENTS\UNI\REASSESMENTS\HIGH LEVEL ARCHITECTURE\PROJECT\EXAMPLE\SRC\RECHARGE.CPP
C:\USERS\CAMERON\DOCUMENTS\UNI\REASSESMENTS\HIGH LEVEL ARCHITECTURE\PROJECT\EXAMPLE\OBJ\VC140.PDB
C:\USERS\CAMERON\DOCUMENTS\UNI\REASSESMENTS\HIGH LEVEL ARCHITECTURE\PROJECT\EXAMPLE\OBJ\VC140.IDB
C:\USERS\CAMERON\DOCUMENTS\UNI\REASSESMENTS\HIGH LEVEL ARCHITECTURE\PROJECT\EXAMPLE\OBJ\NAVMESH.OBJ
C:\USERS\CAMERON\DOCUMENTS\UNI\REASSESMENTS\HIGH LEVEL ARCHITECTURE\PROJECT\EXAMPLE\OBJ\AIACTOR.OBJ
C:\USERS\CAMERON\DOCUMENTS\UNI\REASSESMENTS\HIGH LEVEL ARCHITECTURE\PROJECT\EXAMPLE\OBJ\AIBRAIN.OBJ
C:\USERS\CAMERON\DOCUMENTS\UNI\REASSESMENTS\HIGH LEVEL ARCHITECTURE\PROJECT\EXAMPLE\OBJ\CHARGEAREA.OBJ
C:\USERS\CAMERON\DOCUMENTS\UNI\REASSESMENTS\HIGH LEVEL ARCHITECTURE\PROJECT\EXAMPLE\OBJ\CHASE.OBJ
C:\USERS\CAMERON\DOCUMENTS\UNI\REASSESMENTS\HIGH LEVEL ARCHITECTURE\PROJECT\EXAMPLE\OBJ\ISCHARGELOW.OBJ
C:\USERS\CAMERON\DOCUMENTS\UNI\REASSESMENTS\HIGH LEVEL ARCHITECTURE\PROJECT\EXAMPLE\OBJ\ISENEMYINSIGHT.OBJ
C:\USERS\CAMERON\DOCUMENTS\UNI\REASSESMENTS\HIGH LEVEL ARCHITECTURE\PROJECT\EXAMPLE\OBJ\ISRIGHTSTATUS.OBJ
C:\USERS\CAMERON\DOCUMENTS\UNI\REASSESMENTS\HIGH LEVEL ARCHITECTURE\PROJECT\EXAMPLE\OBJ\MAIN.OBJ
C:\USERS\CAMERON\DOCUMENTS\UNI\REASSESMENTS\HIGH LEVEL ARCHITECTURE\PROJECT\EXAMPLE\OBJ\PATROL.OBJ
C:\USERS\CAMERON\DOCUMENTS\UNI\REASSESMENTS\HIGH LEVEL ARCHITECTURE\PROJECT\EXAMPLE\OBJ\MYAPPLICATION.OBJ
C:\USERS\CAMERON\DOCUMENTS\UNI\REASSESMENTS\HIGH LEVEL ARCHITECTURE\PROJECT\EXAMPLE\OBJ\RECHARGE.OBJ
C:\USERS\CAMERON\DOCUMENTS\UNI\REASSESMENTS\HIGH LEVEL ARCHITECTURE\PROJECT\EXAMPLE\OBJ\LINECOMPARER.OBJ
^C:\USERS\CAMERON\DOCUMENTS\UNI\REASSESMENTS\HIGH LEVEL ARCHITECTURE\PROJECT\EXAMPLE\SRC\FLEE.CPP|C:\USERS\CAMERON\DOCUMENTS\UNI\REASSESMENTS\HIGH LEVEL ARCHITECTURE\PROJECT\EXAMPLE\SRC\RUNAWAY.CPP|C:\USERS\CAMERON\DOCUMENTS\UNI\REASSESMENTS\HIGH LEVEL ARCHITECTURE\PROJECT\EXAMPLE\SRC\SEEK.CPP|C:\USERS\CAMERON\DOCUMENTS\UNI\REASSESMENTS\HIGH LEVEL ARCHITECTURE\PROJECT\EXAMPLE\SRC\SLEEP.CPP|C:\USERS\CAMERON\DOCUMENTS\UNI\REASSESMENTS\HIGH LEVEL ARCHITECTURE\PROJECT\EXAMPLE\SRC\TAGBT.CPP
C:\USERS\CAMERON\DOCUMENTS\UNI\REASSESMENTS\HIGH LEVEL ARCHITECTURE\PROJECT\EXAMPLE\OBJ\VC140.PDB
C:\USERS\CAMERON\DOCUMENTS\UNI\REASSESMENTS\HIGH LEVEL ARCHITECTURE\PROJECT\EXAMPLE\OBJ\VC140.IDB
C:\USERS\CAMERON\DOCUMENTS\UNI\REASSESMENTS\HIGH LEVEL ARCHITECTURE\PROJECT\EXAMPLE\OBJ\FLEE.OBJ
C:\USERS\CAMERON\DOCUMENTS\UNI\REASSESMENTS\HIGH LEVEL ARCHITECTURE\PROJECT\EXAMPLE\OBJ\RUNAWAY.OBJ
C:\USERS\CAMERON\DOCUMENTS\UNI\REASSESMENTS\HIGH LEVEL ARCHITECTURE\PROJECT\EXAMPLE\OBJ\SEEK.OBJ
C:\USERS\CAMERON\DOCUMENTS\UNI\REASSESMENTS\HIGH LEVEL ARCHITECTURE\PROJECT\EXAMPLE\OBJ\SLEEP.OBJ
C:\USERS\CAMERON\DOCUMENTS\UNI\REASSESMENTS\HIGH LEVEL ARCHITECTURE\PROJECT\EXAMPLE\OBJ\TAGBT.OBJ
^C:\USERS\CAMERON\DOCUMENTS\UNI\REASSESMENTS\HIGH LEVEL ARCHITECTURE\PROJECT\EXAMPLE\SOURCE\NAVMESH.CPP|C:\USERS\CAMERON\DOCUMENTS\UNI\REASSESMENTS\HIGH LEVEL ARCHITECTURE\PROJECT\EXAMPLE\SRC\AIACTOR.CPP|C:\USERS\CAMERON\DOCUMENTS\UNI\REASSESMENTS\HIGH LEVEL ARCHITECTURE\PROJECT\EXAMPLE\SRC\AIBRAIN.CPP|C:\USERS\CAMERON\DOCUMENTS\UNI\REASSESMENTS\HIGH LEVEL ARCHITECTURE\PROJECT\EXAMPLE\SRC\CHARGEAREA.CPP|C:\USERS\CAMERON\DOCUMENTS\UNI\REASSESMENTS\HIGH LEVEL ARCHITECTURE\PROJECT\EXAMPLE\SRC\CHASE.CPP|C:\USERS\CAMERON\DOCUMENTS\UNI\REASSESMENTS\HIGH LEVEL ARCHITECTURE\PROJECT\EXAMPLE\SRC\FLEE.CPP|C:\USERS\CAMERON\DOCUMENTS\UNI\REASSESMENTS\HIGH LEVEL ARCHITECTURE\PROJECT\EXAMPLE\SRC\ISCHARGELOW.CPP|C:\USERS\CAMERON\DOCUMENTS\UNI\REASSESMENTS\HIGH LEVEL ARCHITECTURE\PROJECT\EXAMPLE\SRC\ISENEMYINSIGHT.CPP|C:\USERS\CAMERON\DOCUMENTS\UNI\REASSESMENTS\HIGH LEVEL ARCHITECTURE\PROJECT\EXAMPLE\SRC\ISRIGHTSTATUS.CPP|C:\USERS\CAMERON\DOCUMENTS\UNI\REASSESMENTS\HIGH LEVEL ARCHITECTURE\PROJECT\EXAMPLE\SRC\LINECOMPARER.CPP|C:\USERS\CAMERON\DOCUMENTS\UNI\REASSESMENTS\HIGH LEVEL ARCHITECTURE\PROJECT\EXAMPLE\SRC\MAIN.CPP|C:\USERS\CAMERON\DOCUMENTS\UNI\REASSESMENTS\HIGH LEVEL ARCHITECTURE\PROJECT\EXAMPLE\SRC\MYAPPLICATION.CPP|C:\USERS\CAMERON\DOCUMENTS\UNI\REASSESMENTS\HIGH LEVEL ARCHITECTURE\PROJECT\EXAMPLE\SRC\PATROL.CPP|C:\USERS\CAMERON\DOCUMENTS\UNI\REASSESMENTS\HIGH LEVEL ARCHITECTURE\PROJECT\EXAMPLE\SRC\PATROLANDCHARGEBT.CPP|C:\USERS\CAMERON\DOCUMENTS\UNI\REASSESMENTS\HIGH LEVEL ARCHITECTURE\PROJECT\EXAMPLE\SRC\RECHARGE.CPP|C:\USERS\CAMERON\DOCUMENTS\UNI\REASSESMENTS\HIGH LEVEL ARCHITECTURE\PROJECT\EXAMPLE\SRC\RUNAWAY.CPP|C:\USERS\CAMERON\DOCUMENTS\UNI\REASSESMENTS\HIGH LEVEL ARCHITECTURE\PROJECT\EXAMPLE\SRC\SEEK.CPP|C:\USERS\CAMERON\DOCUMENTS\UNI\REASSESMENTS\HIGH LEVEL ARCHITECTURE\PROJECT\EXAMPLE\SRC\SLEEP.CPP|C:\USERS\CAMERON\DOCUMENTS\UNI\REASSESMENTS\HIGH LEVEL ARCHITECTURE\PROJECT\EXAMPLE\SRC\TAGBT.CPP
C:\USERS\CAMERON\DOCUMENTS\UNI\REASSESMENTS\HIGH LEVEL ARCHITECTURE\PROJECT\EXAMPLE\OBJ\VC140.PDB
C:\USERS\CAMERON\DOCUMENTS\UNI\REASSESMENTS\HIGH LEVEL ARCHITECTURE\PROJECT\EXAMPLE\OBJ\VC140.IDB
C:\USERS\CAMERON\DOCUMENTS\UNI\REASSESMENTS\HIGH LEVEL ARCHITECTURE\PROJECT\EXAMPLE\OBJ\NAVMESH.OBJ
C:\USERS\CAMERON\DOCUMENTS\UNI\REASSESMENTS\HIGH LEVEL ARCHITECTURE\PROJECT\EXAMPLE\OBJ\AIACTOR.OBJ
C:\USERS\CAMERON\DOCUMENTS\UNI\REASSESMENTS\HIGH LEVEL ARCHITECTURE\PROJECT\EXAMPLE\OBJ\AIBRAIN.OBJ
C:\USERS\CAMERON\DOCUMENTS\UNI\REASSESMENTS\HIGH LEVEL ARCHITECTURE\PROJECT\EXAMPLE\OBJ\CHARGEAREA.OBJ
C:\USERS\CAMERON\DOCUMENTS\UNI\REASSESMENTS\HIGH LEVEL ARCHITECTURE\PROJECT\EXAMPLE\OBJ\CHASE.OBJ
C:\USERS\CAMERON\DOCUMENTS\UNI\REASSESMENTS\HIGH LEVEL ARCHITECTURE\PROJECT\EXAMPLE\OBJ\FLEE.OBJ
C:\USERS\CAMERON\DOCUMENTS\UNI\REASSESMENTS\HIGH LEVEL ARCHITECTURE\PROJECT\EXAMPLE\OBJ\ISCHARGELOW.OBJ
C:\USERS\CAMERON\DOCUMENTS\UNI\REASSESMENTS\HIGH LEVEL ARCHITECTURE\PROJECT\EXAMPLE\OBJ\ISENEMYINSIGHT.OBJ
C:\USERS\CAMERON\DOCUMENTS\UNI\REASSESMENTS\HIGH LEVEL ARCHITECTURE\PROJECT\EXAMPLE\OBJ\ISRIGHTSTATUS.OBJ
C:\USERS\CAMERON\DOCUMENTS\UNI\REASSESMENTS\HIGH LEVEL ARCHITECTURE\PROJECT\EXAMPLE\OBJ\LINECOMPARER.OBJ
C:\USERS\CAMERON\DOCUMENTS\UNI\REASSESMENTS\HIGH LEVEL ARCHITECTURE\PROJECT\EXAMPLE\OBJ\MYAPPLICATION.OBJ
C:\USERS\CAMERON\DOCUMENTS\UNI\REASSESMENTS\HIGH LEVEL ARCHITECTURE\PROJECT\EXAMPLE\OBJ\PATROL.OBJ
C:\USERS\CAMERON\DOCUMENTS\UNI\REASSESMENTS\HIGH LEVEL ARCHITECTURE\PROJECT\EXAMPLE\OBJ\PATROLANDCHARGEBT.OBJ
C:\USERS\CAMERON\DOCUMENTS\UNI\REASSESMENTS\HIGH LEVEL ARCHITECTURE\PROJECT\EXAMPLE\OBJ\RECHARGE.OBJ
C:\USERS\CAMERON\DOCUMENTS\UNI\REASSESMENTS\HIGH LEVEL ARCHITECTURE\PROJECT\EXAMPLE\OBJ\RUNAWAY.OBJ
C:\USERS\CAMERON\DOCUMENTS\UNI\REASSESMENTS\HIGH LEVEL ARCHITECTURE\PROJECT\EXAMPLE\OBJ\SEEK.OBJ
C:\USERS\CAMERON\DOCUMENTS\UNI\REASSESMENTS\HIGH LEVEL ARCHITECTURE\PROJECT\EXAMPLE\OBJ\SLEEP.OBJ
C:\USERS\CAMERON\DOCUMENTS\UNI\REASSESMENTS\HIGH LEVEL ARCHITECTURE\PROJECT\EXAMPLE\OBJ\TAGBT.OBJ
C:\USERS\CAMERON\DOCUMENTS\UNI\REASSESMENTS\HIGH LEVEL ARCHITECTURE\PROJECT\EXAMPLE\OBJ\MAIN.OBJ
^C:\USERS\CAMERON\DOCUMENTS\UNI\REASSESMENTS\HIGH LEVEL ARCHITECTURE\PROJECT\EXAMPLE\SRC\AIACTOR.CPP|C:\USERS\CAMERON\DOCUMENTS\UNI\REASSESMENTS\HIGH LEVEL ARCHITECTURE\PROJECT\EXAMPLE\SRC\AIBRAIN.CPP
C:\USERS\CAMERON\DOCUMENTS\UNI\REASSESMENTS\HIGH LEVEL ARCHITECTURE\PROJECT\EXAMPLE\OBJ\VC140.PDB
C:\USERS\CAMERON\DOCUMENTS\UNI\REASSESMENTS\HIGH LEVEL ARCHITECTURE\PROJECT\EXAMPLE\OBJ\VC140.IDB
C:\USERS\CAMERON\DOCUMENTS\UNI\REASSESMENTS\HIGH LEVEL ARCHITECTURE\PROJECT\EXAMPLE\OBJ\AIACTOR.OBJ
C:\USERS\CAMERON\DOCUMENTS\UNI\REASSESMENTS\HIGH LEVEL ARCHITECTURE\PROJECT\EXAMPLE\OBJ\AIBRAIN.OBJ
^C:\USERS\CAMERON\DOCUMENTS\UNI\REASSESMENTS\HIGH LEVEL ARCHITECTURE\PROJECT\EXAMPLE\SOURCE\NAVMESH.CPP|C:\USERS\CAMERON\DOCUMENTS\UNI\REASSESMENTS\HIGH LEVEL ARCHITECTURE\PROJECT\EXAMPLE\SRC\AIACTOR.CPP|C:\USERS\CAMERON\DOCUMENTS\UNI\REASSESMENTS\HIGH LEVEL ARCHITECTURE\PROJECT\EXAMPLE\SRC\AIBRAIN.CPP|C:\USERS\CAMERON\DOCUMENTS\UNI\REASSESMENTS\HIGH LEVEL ARCHITECTURE\PROJECT\EXAMPLE\SRC\CHARGEAREA.CPP|C:\USERS\CAMERON\DOCUMENTS\UNI\REASSESMENTS\HIGH LEVEL ARCHITECTURE\PROJECT\EXAMPLE\SRC\CHASE.CPP|C:\USERS\CAMERON\DOCUMENTS\UNI\REASSESMENTS\HIGH LEVEL ARCHITECTURE\PROJECT\EXAMPLE\SRC\FLEE.CPP|C:\USERS\CAMERON\DOCUMENTS\UNI\REASSESMENTS\HIGH LEVEL ARCHITECTURE\PROJECT\EXAMPLE\SRC\ISCHARGELOW.CPP|C:\USERS\CAMERON\DOCUMENTS\UNI\REASSESMENTS\HIGH LEVEL ARCHITECTURE\PROJECT\EXAMPLE\SRC\ISENEMYINSIGHT.CPP|C:\USERS\CAMERON\DOCUMENTS\UNI\REASSESMENTS\HIGH LEVEL ARCHITECTURE\PROJECT\EXAMPLE\SRC\ISRIGHTSTATUS.CPP|C:\USERS\CAMERON\DOCUMENTS\UNI\REASSESMENTS\HIGH LEVEL ARCHITECTURE\PROJECT\EXAMPLE\SRC\LINECOMPARER.CPP|C:\USERS\CAMERON\DOCUMENTS\UNI\REASSESMENTS\HIGH LEVEL ARCHITECTURE\PROJECT\EXAMPLE\SRC\MAIN.CPP|C:\USERS\CAMERON\DOCUMENTS\UNI\REASSESMENTS\HIGH LEVEL ARCHITECTURE\PROJECT\EXAMPLE\SRC\MYAPPLICATION.CPP|C:\USERS\CAMERON\DOCUMENTS\UNI\REASSESMENTS\HIGH LEVEL ARCHITECTURE\PROJECT\EXAMPLE\SRC\PATROL.CPP|C:\USERS\CAMERON\DOCUMENTS\UNI\REASSESMENTS\HIGH LEVEL ARCHITECTURE\PROJECT\EXAMPLE\SRC\RECHARGE.CPP|C:\USERS\CAMERON\DOCUMENTS\UNI\REASSESMENTS\HIGH LEVEL ARCHITECTURE\PROJECT\EXAMPLE\SRC\RUNAWAY.CPP|C:\USERS\CAMERON\DOCUMENTS\UNI\REASSESMENTS\HIGH LEVEL ARCHITECTURE\PROJECT\EXAMPLE\SRC\SEEK.CPP|C:\USERS\CAMERON\DOCUMENTS\UNI\REASSESMENTS\HIGH LEVEL ARCHITECTURE\PROJECT\EXAMPLE\SRC\SLEEP.CPP|C:\USERS\CAMERON\DOCUMENTS\UNI\REASSESMENTS\HIGH LEVEL ARCHITECTURE\PROJECT\EXAMPLE\SRC\TAGBT.CPP
C:\USERS\CAMERON\DOCUMENTS\UNI\REASSESMENTS\HIGH LEVEL ARCHITECTURE\PROJECT\EXAMPLE\OBJ\VC140.PDB
C:\USERS\CAMERON\DOCUMENTS\UNI\REASSESMENTS\HIGH LEVEL ARCHITECTURE\PROJECT\EXAMPLE\OBJ\VC140.IDB
C:\USERS\CAMERON\DOCUMENTS\UNI\REASSESMENTS\HIGH LEVEL ARCHITECTURE\PROJECT\EXAMPLE\OBJ\NAVMESH.OBJ
C:\USERS\CAMERON\DOCUMENTS\UNI\REASSESMENTS\HIGH LEVEL ARCHITECTURE\PROJECT\EXAMPLE\OBJ\AIACTOR.OBJ
C:\USERS\CAMERON\DOCUMENTS\UNI\REASSESMENTS\HIGH LEVEL ARCHITECTURE\PROJECT\EXAMPLE\OBJ\AIBRAIN.OBJ
C:\USERS\CAMERON\DOCUMENTS\UNI\REASSESMENTS\HIGH LEVEL ARCHITECTURE\PROJECT\EXAMPLE\OBJ\CHARGEAREA.OBJ
C:\USERS\CAMERON\DOCUMENTS\UNI\REASSESMENTS\HIGH LEVEL ARCHITECTURE\PROJECT\EXAMPLE\OBJ\FLEE.OBJ
C:\USERS\CAMERON\DOCUMENTS\UNI\REASSESMENTS\HIGH LEVEL ARCHITECTURE\PROJECT\EXAMPLE\OBJ\ISCHARGELOW.OBJ
C:\USERS\CAMERON\DOCUMENTS\UNI\REASSESMENTS\HIGH LEVEL ARCHITECTURE\PROJECT\EXAMPLE\OBJ\ISENEMYINSIGHT.OBJ
C:\USERS\CAMERON\DOCUMENTS\UNI\REASSESMENTS\HIGH LEVEL ARCHITECTURE\PROJECT\EXAMPLE\OBJ\ISRIGHTSTATUS.OBJ
C:\USERS\CAMERON\DOCUMENTS\UNI\REASSESMENTS\HIGH LEVEL ARCHITECTURE\PROJECT\EXAMPLE\OBJ\LINECOMPARER.OBJ
C:\USERS\CAMERON\DOCUMENTS\UNI\REASSESMENTS\HIGH LEVEL ARCHITECTURE\PROJECT\EXAMPLE\OBJ\MYAPPLICATION.OBJ
C:\USERS\CAMERON\DOCUMENTS\UNI\REASSESMENTS\HIGH LEVEL ARCHITECTURE\PROJECT\EXAMPLE\OBJ\PATROL.OBJ
C:\USERS\CAMERON\DOCUMENTS\UNI\REASSESMENTS\HIGH LEVEL ARCHITECTURE\PROJECT\EXAMPLE\OBJ\RECHARGE.OBJ
C:\USERS\CAMERON\DOCUMENTS\UNI\REASSESMENTS\HIGH LEVEL ARCHITECTURE\PROJECT\EXAMPLE\OBJ\RUNAWAY.OBJ
C:\USERS\CAMERON\DOCUMENTS\UNI\REASSESMENTS\HIGH LEVEL ARCHITECTURE\PROJECT\EXAMPLE\OBJ\SEEK.OBJ
C:\USERS\CAMERON\DOCUMENTS\UNI\REASSESMENTS\HIGH LEVEL ARCHITECTURE\PROJECT\EXAMPLE\OBJ\SLEEP.OBJ
C:\USERS\CAMERON\DOCUMENTS\UNI\REASSESMENTS\HIGH LEVEL ARCHITECTURE\PROJECT\EXAMPLE\OBJ\TAGBT.OBJ
C:\USERS\CAMERON\DOCUMENTS\UNI\REASSESMENTS\HIGH LEVEL ARCHITECTURE\PROJECT\EXAMPLE\OBJ\MAIN.OBJ
C:\USERS\CAMERON\DOCUMENTS\UNI\REASSESMENTS\HIGH LEVEL ARCHITECTURE\PROJECT\EXAMPLE\OBJ\CHASE.OBJ
^C:\USERS\CAMERON\DOCUMENTS\UNI\REASSESMENTS\HIGH LEVEL ARCHITECTURE\PROJECT\EXAMPLE\SRC\AIACTOR.CPP|C:\USERS\CAMERON\DOCUMENTS\UNI\REASSESMENTS\HIGH LEVEL ARCHITECTURE\PROJECT\EXAMPLE\SRC\ISENEMYINSIGHT.CPP
C:\USERS\CAMERON\DOCUMENTS\UNI\REASSESMENTS\HIGH LEVEL ARCHITECTURE\PROJECT\EXAMPLE\OBJ\VC140.PDB
C:\USERS\CAMERON\DOCUMENTS\UNI\REASSESMENTS\HIGH LEVEL ARCHITECTURE\PROJECT\EXAMPLE\OBJ\VC140.IDB
C:\USERS\CAMERON\DOCUMENTS\UNI\REASSESMENTS\HIGH LEVEL ARCHITECTURE\PROJECT\EXAMPLE\OBJ\AIACTOR.OBJ
C:\USERS\CAMERON\DOCUMENTS\UNI\REASSESMENTS\HIGH LEVEL ARCHITECTURE\PROJECT\EXAMPLE\OBJ\ISENEMYINSIGHT.OBJ
^C:\USERS\CAMERON\DOCUMENTS\UNI\REASSESMENTS\HIGH LEVEL ARCHITECTURE\PROJECT\EXAMPLE\SRC\RUNAWAY.CPP|C:\USERS\CAMERON\DOCUMENTS\UNI\REASSESMENTS\HIGH LEVEL ARCHITECTURE\PROJECT\EXAMPLE\SRC\TAGBT.CPP
C:\USERS\CAMERON\DOCUMENTS\UNI\REASSESMENTS\HIGH LEVEL ARCHITECTURE\PROJECT\EXAMPLE\OBJ\VC140.PDB
C:\USERS\CAMERON\DOCUMENTS\UNI\REASSESMENTS\HIGH LEVEL ARCHITECTURE\PROJECT\EXAMPLE\OBJ\VC140.IDB
C:\USERS\CAMERON\DOCUMENTS\UNI\REASSESMENTS\HIGH LEVEL ARCHITECTURE\PROJECT\EXAMPLE\OBJ\RUNAWAY.OBJ
C:\USERS\CAMERON\DOCUMENTS\UNI\REASSESMENTS\HIGH LEVEL ARCHITECTURE\PROJECT\EXAMPLE\OBJ\TAGBT.OBJ
^C:\USERS\CAMERON\DOCUMENTS\UNI\REASSESMENTS\HIGH LEVEL ARCHITECTURE\PROJECT\EXAMPLE\SRC\CHASE.CPP|C:\USERS\CAMERON\DOCUMENTS\UNI\REASSESMENTS\HIGH LEVEL ARCHITECTURE\PROJECT\EXAMPLE\SRC\RUNAWAY.CPP|C:\USERS\CAMERON\DOCUMENTS\UNI\REASSESMENTS\HIGH LEVEL ARCHITECTURE\PROJECT\EXAMPLE\SRC\TAGBT.CPP
C:\USERS\CAMERON\DOCUMENTS\UNI\REASSESMENTS\HIGH LEVEL ARCHITECTURE\PROJECT\EXAMPLE\OBJ\VC140.PDB
C:\USERS\CAMERON\DOCUMENTS\UNI\REASSESMENTS\HIGH LEVEL ARCHITECTURE\PROJECT\EXAMPLE\OBJ\VC140.IDB
C:\USERS\CAMERON\DOCUMENTS\UNI\REASSESMENTS\HIGH LEVEL ARCHITECTURE\PROJECT\EXAMPLE\OBJ\CHASE.OBJ
C:\USERS\CAMERON\DOCUMENTS\UNI\REASSESMENTS\HIGH LEVEL ARCHITECTURE\PROJECT\EXAMPLE\OBJ\RUNAWAY.OBJ
C:\USERS\CAMERON\DOCUMENTS\UNI\REASSESMENTS\HIGH LEVEL ARCHITECTURE\PROJECT\EXAMPLE\OBJ\TAGBT.OBJ
^C:\USERS\CAMERON\DOCUMENTS\UNI\REASSESMENTS\HIGH LEVEL ARCHITECTURE\PROJECT\EXAMPLE\SRC\CHASE.CPP|C:\USERS\CAMERON\DOCUMENTS\UNI\REASSESMENTS\HIGH LEVEL ARCHITECTURE\PROJECT\EXAMPLE\SRC\RUNAWAY.CPP
C:\USERS\CAMERON\DOCUMENTS\UNI\REASSESMENTS\HIGH LEVEL ARCHITECTURE\PROJECT\EXAMPLE\OBJ\VC140.PDB
C:\USERS\CAMERON\DOCUMENTS\UNI\REASSESMENTS\HIGH LEVEL ARCHITECTURE\PROJECT\EXAMPLE\OBJ\VC140.IDB
C:\USERS\CAMERON\DOCUMENTS\UNI\REASSESMENTS\HIGH LEVEL ARCHITECTURE\PROJECT\EXAMPLE\OBJ\CHASE.OBJ
C:\USERS\CAMERON\DOCUMENTS\UNI\REASSESMENTS\HIGH LEVEL ARCHITECTURE\PROJECT\EXAMPLE\OBJ\RUNAWAY.OBJ
^C:\USERS\CAMERON\DOCUMENTS\UNI\REASSESMENTS\HIGH LEVEL ARCHITECTURE\PROJECT\EXAMPLE\SRC\ISENEMYINSIGHT.CPP|C:\USERS\CAMERON\DOCUMENTS\UNI\REASSESMENTS\HIGH LEVEL ARCHITECTURE\PROJECT\EXAMPLE\SRC\RUNAWAY.CPP
C:\USERS\CAMERON\DOCUMENTS\UNI\REASSESMENTS\HIGH LEVEL ARCHITECTURE\PROJECT\EXAMPLE\OBJ\VC140.PDB
C:\USERS\CAMERON\DOCUMENTS\UNI\REASSESMENTS\HIGH LEVEL ARCHITECTURE\PROJECT\EXAMPLE\OBJ\VC140.IDB
C:\USERS\CAMERON\DOCUMENTS\UNI\REASSESMENTS\HIGH LEVEL ARCHITECTURE\PROJECT\EXAMPLE\OBJ\ISENEMYINSIGHT.OBJ
^C:\USERS\CAMERON\DOCUMENTS\UNI\REASSESMENTS\HIGH LEVEL ARCHITECTURE\PROJECT\EXAMPLE\SRC\CHASE.CPP|C:\USERS\CAMERON\DOCUMENTS\UNI\REASSESMENTS\HIGH LEVEL ARCHITECTURE\PROJECT\EXAMPLE\SRC\ISENEMYINSIGHT.CPP
C:\USERS\CAMERON\DOCUMENTS\UNI\REASSESMENTS\HIGH LEVEL ARCHITECTURE\PROJECT\EXAMPLE\OBJ\VC140.PDB
C:\USERS\CAMERON\DOCUMENTS\UNI\REASSESMENTS\HIGH LEVEL ARCHITECTURE\PROJECT\EXAMPLE\OBJ\VC140.IDB
C:\USERS\CAMERON\DOCUMENTS\UNI\REASSESMENTS\HIGH LEVEL ARCHITECTURE\PROJECT\EXAMPLE\OBJ\CHASE.OBJ
C:\USERS\CAMERON\DOCUMENTS\UNI\REASSESMENTS\HIGH LEVEL ARCHITECTURE\PROJECT\EXAMPLE\OBJ\ISENEMYINSIGHT.OBJ
^C:\USERS\CAMERON\DOCUMENTS\UNI\REASSESMENTS\HIGH LEVEL ARCHITECTURE\PROJECT\EXAMPLE\SRC\AIACTOR.CPP|C:\USERS\CAMERON\DOCUMENTS\UNI\REASSESMENTS\HIGH LEVEL ARCHITECTURE\PROJECT\EXAMPLE\SRC\RUNAWAY.CPP
C:\USERS\CAMERON\DOCUMENTS\UNI\REASSESMENTS\HIGH LEVEL ARCHITECTURE\PROJECT\EXAMPLE\OBJ\VC140.PDB
C:\USERS\CAMERON\DOCUMENTS\UNI\REASSESMENTS\HIGH LEVEL ARCHITECTURE\PROJECT\EXAMPLE\OBJ\VC140.IDB
C:\USERS\CAMERON\DOCUMENTS\UNI\REASSESMENTS\HIGH LEVEL ARCHITECTURE\PROJECT\EXAMPLE\OBJ\AIACTOR.OBJ
C:\USERS\CAMERON\DOCUMENTS\UNI\REASSESMENTS\HIGH LEVEL ARCHITECTURE\PROJECT\EXAMPLE\OBJ\RUNAWAY.OBJ
^C:\USERS\CAMERON\DOCUMENTS\UNI\REASSESMENTS\HIGH LEVEL ARCHITECTURE\PROJECT\EXAMPLE\SOURCE\NAVMESH.CPP|C:\USERS\CAMERON\DOCUMENTS\UNI\REASSESMENTS\HIGH LEVEL ARCHITECTURE\PROJECT\EXAMPLE\SRC\STAGE.CPP
C:\USERS\CAMERON\DOCUMENTS\UNI\REASSESMENTS\HIGH LEVEL ARCHITECTURE\PROJECT\EXAMPLE\OBJ\VC140.PDB
C:\USERS\CAMERON\DOCUMENTS\UNI\REASSESMENTS\HIGH LEVEL ARCHITECTURE\PROJECT\EXAMPLE\OBJ\VC140.IDB
C:\USERS\CAMERON\DOCUMENTS\UNI\REASSESMENTS\HIGH LEVEL ARCHITECTURE\PROJECT\EXAMPLE\OBJ\NAVMESH.OBJ
C:\USERS\CAMERON\DOCUMENTS\UNI\REASSESMENTS\HIGH LEVEL ARCHITECTURE\PROJECT\EXAMPLE\OBJ\STAGE.OBJ
^C:\USERS\CAMERON\DOCUMENTS\UNI\REASSESMENTS\HIGH LEVEL ARCHITECTURE\PROJECT\EXAMPLE\SOURCE\NAVMESH.CPP|C:\USERS\CAMERON\DOCUMENTS\UNI\REASSESMENTS\HIGH LEVEL ARCHITECTURE\PROJECT\EXAMPLE\SRC\AIACTOR.CPP|C:\USERS\CAMERON\DOCUMENTS\UNI\REASSESMENTS\HIGH LEVEL ARCHITECTURE\PROJECT\EXAMPLE\SRC\CHASE.CPP|C:\USERS\CAMERON\DOCUMENTS\UNI\REASSESMENTS\HIGH LEVEL ARCHITECTURE\PROJECT\EXAMPLE\SRC\FLEE.CPP|C:\USERS\CAMERON\DOCUMENTS\UNI\REASSESMENTS\HIGH LEVEL ARCHITECTURE\PROJECT\EXAMPLE\SRC\ISENEMYINSIGHT.CPP|C:\USERS\CAMERON\DOCUMENTS\UNI\REASSESMENTS\HIGH LEVEL ARCHITECTURE\PROJECT\EXAMPLE\SRC\ISRIGHTSTATUS.CPP|C:\USERS\CAMERON\DOCUMENTS\UNI\REASSESMENTS\HIGH LEVEL ARCHITECTURE\PROJECT\EXAMPLE\SRC\LINECOMPARER.CPP|C:\USERS\CAMERON\DOCUMENTS\UNI\REASSESMENTS\HIGH LEVEL ARCHITECTURE\PROJECT\EXAMPLE\SRC\MAIN.CPP|C:\USERS\CAMERON\DOCUMENTS\UNI\REASSESMENTS\HIGH LEVEL ARCHITECTURE\PROJECT\EXAMPLE\SRC\MYAPPLICATION.CPP|C:\USERS\CAMERON\DOCUMENTS\UNI\REASSESMENTS\HIGH LEVEL ARCHITECTURE\PROJECT\EXAMPLE\SRC\PATROL.CPP|C:\USERS\CAMERON\DOCUMENTS\UNI\REASSESMENTS\HIGH LEVEL ARCHITECTURE\PROJECT\EXAMPLE\SRC\RECHARGE.CPP|C:\USERS\CAMERON\DOCUMENTS\UNI\REASSESMENTS\HIGH LEVEL ARCHITECTURE\PROJECT\EXAMPLE\SRC\RUNAWAY.CPP|C:\USERS\CAMERON\DOCUMENTS\UNI\REASSESMENTS\HIGH LEVEL ARCHITECTURE\PROJECT\EXAMPLE\SRC\SEEK.CPP|C:\USERS\CAMERON\DOCUMENTS\UNI\REASSESMENTS\HIGH LEVEL ARCHITECTURE\PROJECT\EXAMPLE\SRC\SLEEP.CPP|C:\USERS\CAMERON\DOCUMENTS\UNI\REASSESMENTS\HIGH LEVEL ARCHITECTURE\PROJECT\EXAMPLE\SRC\STAGE.CPP|C:\USERS\CAMERON\DOCUMENTS\UNI\REASSESMENTS\HIGH LEVEL ARCHITECTURE\PROJECT\EXAMPLE\SRC\TAGBT.CPP
C:\USERS\CAMERON\DOCUMENTS\UNI\REASSESMENTS\HIGH LEVEL ARCHITECTURE\PROJECT\EXAMPLE\OBJ\VC140.PDB
C:\USERS\CAMERON\DOCUMENTS\UNI\REASSESMENTS\HIGH LEVEL ARCHITECTURE\PROJECT\EXAMPLE\OBJ\VC140.IDB
C:\USERS\CAMERON\DOCUMENTS\UNI\REASSESMENTS\HIGH LEVEL ARCHITECTURE\PROJECT\EXAMPLE\OBJ\NAVMESH.OBJ
C:\USERS\CAMERON\DOCUMENTS\UNI\REASSESMENTS\HIGH LEVEL ARCHITECTURE\PROJECT\EXAMPLE\OBJ\AIACTOR.OBJ
C:\USERS\CAMERON\DOCUMENTS\UNI\REASSESMENTS\HIGH LEVEL ARCHITECTURE\PROJECT\EXAMPLE\OBJ\CHASE.OBJ
C:\USERS\CAMERON\DOCUMENTS\UNI\REASSESMENTS\HIGH LEVEL ARCHITECTURE\PROJECT\EXAMPLE\OBJ\FLEE.OBJ
C:\USERS\CAMERON\DOCUMENTS\UNI\REASSESMENTS\HIGH LEVEL ARCHITECTURE\PROJECT\EXAMPLE\OBJ\ISENEMYINSIGHT.OBJ
C:\USERS\CAMERON\DOCUMENTS\UNI\REASSESMENTS\HIGH LEVEL ARCHITECTURE\PROJECT\EXAMPLE\OBJ\ISRIGHTSTATUS.OBJ
C:\USERS\CAMERON\DOCUMENTS\UNI\REASSESMENTS\HIGH LEVEL ARCHITECTURE\PROJECT\EXAMPLE\OBJ\LINECOMPARER.OBJ
C:\USERS\CAMERON\DOCUMENTS\UNI\REASSESMENTS\HIGH LEVEL ARCHITECTURE\PROJECT\EXAMPLE\OBJ\MYAPPLICATION.OBJ
C:\USERS\CAMERON\DOCUMENTS\UNI\REASSESMENTS\HIGH LEVEL ARCHITECTURE\PROJECT\EXAMPLE\OBJ\PATROL.OBJ
C:\USERS\CAMERON\DOCUMENTS\UNI\REASSESMENTS\HIGH LEVEL ARCHITECTURE\PROJECT\EXAMPLE\OBJ\RECHARGE.OBJ
C:\USERS\CAMERON\DOCUMENTS\UNI\REASSESMENTS\HIGH LEVEL ARCHITECTURE\PROJECT\EXAMPLE\OBJ\RUNAWAY.OBJ
C:\USERS\CAMERON\DOCUMENTS\UNI\REASSESMENTS\HIGH LEVEL ARCHITECTURE\PROJECT\EXAMPLE\OBJ\SEEK.OBJ
C:\USERS\CAMERON\DOCUMENTS\UNI\REASSESMENTS\HIGH LEVEL ARCHITECTURE\PROJECT\EXAMPLE\OBJ\SLEEP.OBJ
C:\USERS\CAMERON\DOCUMENTS\UNI\REASSESMENTS\HIGH LEVEL ARCHITECTURE\PROJECT\EXAMPLE\OBJ\STAGE.OBJ
C:\USERS\CAMERON\DOCUMENTS\UNI\REASSESMENTS\HIGH LEVEL ARCHITECTURE\PROJECT\EXAMPLE\OBJ\TAGBT.OBJ
C:\USERS\CAMERON\DOCUMENTS\UNI\REASSESMENTS\HIGH LEVEL ARCHITECTURE\PROJECT\EXAMPLE\OBJ\MAIN.OBJ
^C:\USERS\CAMERON\DOCUMENTS\UNI\REASSESMENTS\HIGH LEVEL ARCHITECTURE\PROJECT\EXAMPLE\SRC\MYAPPLICATION.CPP|C:\USERS\CAMERON\DOCUMENTS\UNI\REASSESMENTS\HIGH LEVEL ARCHITECTURE\PROJECT\EXAMPLE\SRC\RUNAWAY.CPP
C:\USERS\CAMERON\DOCUMENTS\UNI\REASSESMENTS\HIGH LEVEL ARCHITECTURE\PROJECT\EXAMPLE\OBJ\VC140.PDB
C:\USERS\CAMERON\DOCUMENTS\UNI\REASSESMENTS\HIGH LEVEL ARCHITECTURE\PROJECT\EXAMPLE\OBJ\VC140.IDB
C:\USERS\CAMERON\DOCUMENTS\UNI\REASSESMENTS\HIGH LEVEL ARCHITECTURE\PROJECT\EXAMPLE\OBJ\MYAPPLICATION.OBJ
C:\USERS\CAMERON\DOCUMENTS\UNI\REASSESMENTS\HIGH LEVEL ARCHITECTURE\PROJECT\EXAMPLE\OBJ\RUNAWAY.OBJ
^C:\USERS\CAMERON\DOCUMENTS\UNI\REASSESMENTS\HIGH LEVEL ARCHITECTURE\PROJECT\EXAMPLE\SRC\FLEE.CPP|C:\USERS\CAMERON\DOCUMENTS\UNI\REASSESMENTS\HIGH LEVEL ARCHITECTURE\PROJECT\EXAMPLE\SRC\RUNAWAY.CPP|C:\USERS\CAMERON\DOCUMENTS\UNI\REASSESMENTS\HIGH LEVEL ARCHITECTURE\PROJECT\EXAMPLE\SRC\SEEK.CPP|C:\USERS\CAMERON\DOCUMENTS\UNI\REASSESMENTS\HIGH LEVEL ARCHITECTURE\PROJECT\EXAMPLE\SRC\TAGBT.CPP
C:\USERS\CAMERON\DOCUMENTS\UNI\REASSESMENTS\HIGH LEVEL ARCHITECTURE\PROJECT\EXAMPLE\OBJ\VC140.PDB
C:\USERS\CAMERON\DOCUMENTS\UNI\REASSESMENTS\HIGH LEVEL ARCHITECTURE\PROJECT\EXAMPLE\OBJ\VC140.IDB
C:\USERS\CAMERON\DOCUMENTS\UNI\REASSESMENTS\HIGH LEVEL ARCHITECTURE\PROJECT\EXAMPLE\OBJ\FLEE.OBJ
C:\USERS\CAMERON\DOCUMENTS\UNI\REASSESMENTS\HIGH LEVEL ARCHITECTURE\PROJECT\EXAMPLE\OBJ\RUNAWAY.OBJ
C:\USERS\CAMERON\DOCUMENTS\UNI\REASSESMENTS\HIGH LEVEL ARCHITECTURE\PROJECT\EXAMPLE\OBJ\SEEK.OBJ
C:\USERS\CAMERON\DOCUMENTS\UNI\REASSESMENTS\HIGH LEVEL ARCHITECTURE\PROJECT\EXAMPLE\OBJ\TAGBT.OBJ
^C:\USERS\CAMERON\DOCUMENTS\UNI\REASSESMENTS\HIGH LEVEL ARCHITECTURE\PROJECT\EXAMPLE\SRC\MYAPPLICATION.CPP|C:\USERS\CAMERON\DOCUMENTS\UNI\REASSESMENTS\HIGH LEVEL ARCHITECTURE\PROJECT\EXAMPLE\SRC\STAGE.CPP
C:\USERS\CAMERON\DOCUMENTS\UNI\REASSESMENTS\HIGH LEVEL ARCHITECTURE\PROJECT\EXAMPLE\OBJ\VC140.PDB
C:\USERS\CAMERON\DOCUMENTS\UNI\REASSESMENTS\HIGH LEVEL ARCHITECTURE\PROJECT\EXAMPLE\OBJ\VC140.IDB
C:\USERS\CAMERON\DOCUMENTS\UNI\REASSESMENTS\HIGH LEVEL ARCHITECTURE\PROJECT\EXAMPLE\OBJ\MYAPPLICATION.OBJ
C:\USERS\CAMERON\DOCUMENTS\UNI\REASSESMENTS\HIGH LEVEL ARCHITECTURE\PROJECT\EXAMPLE\OBJ\STAGE.OBJ
^C:\USERS\CAMERON\DOCUMENTS\UNI\REASSESMENTS\HIGH LEVEL ARCHITECTURE\PROJECT\EXAMPLE\SRC\FLEE.CPP|C:\USERS\CAMERON\DOCUMENTS\UNI\REASSESMENTS\HIGH LEVEL ARCHITECTURE\PROJECT\EXAMPLE\SRC\TAGBT.CPP
C:\USERS\CAMERON\DOCUMENTS\UNI\REASSESMENTS\HIGH LEVEL ARCHITECTURE\PROJECT\EXAMPLE\OBJ\VC140.PDB
C:\USERS\CAMERON\DOCUMENTS\UNI\REASSESMENTS\HIGH LEVEL ARCHITECTURE\PROJECT\EXAMPLE\OBJ\VC140.IDB
C:\USERS\CAMERON\DOCUMENTS\UNI\REASSESMENTS\HIGH LEVEL ARCHITECTURE\PROJECT\EXAMPLE\OBJ\FLEE.OBJ
C:\USERS\CAMERON\DOCUMENTS\UNI\REASSESMENTS\HIGH LEVEL ARCHITECTURE\PROJECT\EXAMPLE\OBJ\TAGBT.OBJ
^C:\USERS\CAMERON\DOCUMENTS\UNI\REASSESMENTS\HIGH LEVEL ARCHITECTURE\PROJECT\EXAMPLE\SRC\RUNAWAY.CPP|C:\USERS\CAMERON\DOCUMENTS\UNI\REASSESMENTS\HIGH LEVEL ARCHITECTURE\PROJECT\EXAMPLE\SRC\SEEK.CPP|C:\USERS\CAMERON\DOCUMENTS\UNI\REASSESMENTS\HIGH LEVEL ARCHITECTURE\PROJECT\EXAMPLE\SRC\SLEEP.CPP|C:\USERS\CAMERON\DOCUMENTS\UNI\REASSESMENTS\HIGH LEVEL ARCHITECTURE\PROJECT\EXAMPLE\SRC\TAGBT.CPP
C:\USERS\CAMERON\DOCUMENTS\UNI\REASSESMENTS\HIGH LEVEL ARCHITECTURE\PROJECT\EXAMPLE\OBJ\VC140.PDB
C:\USERS\CAMERON\DOCUMENTS\UNI\REASSESMENTS\HIGH LEVEL ARCHITECTURE\PROJECT\EXAMPLE\OBJ\VC140.IDB
C:\USERS\CAMERON\DOCUMENTS\UNI\REASSESMENTS\HIGH LEVEL ARCHITECTURE\PROJECT\EXAMPLE\OBJ\RUNAWAY.OBJ
C:\USERS\CAMERON\DOCUMENTS\UNI\REASSESMENTS\HIGH LEVEL ARCHITECTURE\PROJECT\EXAMPLE\OBJ\SEEK.OBJ
C:\USERS\CAMERON\DOCUMENTS\UNI\REASSESMENTS\HIGH LEVEL ARCHITECTURE\PROJECT\EXAMPLE\OBJ\SLEEP.OBJ
C:\USERS\CAMERON\DOCUMENTS\UNI\REASSESMENTS\HIGH LEVEL ARCHITECTURE\PROJECT\EXAMPLE\OBJ\TAGBT.OBJ
^C:\USERS\CAMERON\DOCUMENTS\UNI\REASSESMENTS\HIGH LEVEL ARCHITECTURE\PROJECT\EXAMPLE\SRC\AIACTOR.CPP|C:\USERS\CAMERON\DOCUMENTS\UNI\REASSESMENTS\HIGH LEVEL ARCHITECTURE\PROJECT\EXAMPLE\SRC\RUNAWAY.CPP|C:\USERS\CAMERON\DOCUMENTS\UNI\REASSESMENTS\HIGH LEVEL ARCHITECTURE\PROJECT\EXAMPLE\SRC\SEEK.CPP
C:\USERS\CAMERON\DOCUMENTS\UNI\REASSESMENTS\HIGH LEVEL ARCHITECTURE\PROJECT\EXAMPLE\OBJ\VC140.PDB
C:\USERS\CAMERON\DOCUMENTS\UNI\REASSESMENTS\HIGH LEVEL ARCHITECTURE\PROJECT\EXAMPLE\OBJ\VC140.IDB
C:\USERS\CAMERON\DOCUMENTS\UNI\REASSESMENTS\HIGH LEVEL ARCHITECTURE\PROJECT\EXAMPLE\OBJ\AIACTOR.OBJ
C:\USERS\CAMERON\DOCUMENTS\UNI\REASSESMENTS\HIGH LEVEL ARCHITECTURE\PROJECT\EXAMPLE\OBJ\RUNAWAY.OBJ
C:\USERS\CAMERON\DOCUMENTS\UNI\REASSESMENTS\HIGH LEVEL ARCHITECTURE\PROJECT\EXAMPLE\OBJ\SEEK.OBJ
^C:\USERS\CAMERON\DOCUMENTS\UNI\REASSESMENTS\HIGH LEVEL ARCHITECTURE\PROJECT\EXAMPLE\SRC\AIACTOR.CPP|C:\USERS\CAMERON\DOCUMENTS\UNI\REASSESMENTS\HIGH LEVEL ARCHITECTURE\PROJECT\EXAMPLE\SRC\SEEK.CPP
C:\USERS\CAMERON\DOCUMENTS\UNI\REASSESMENTS\HIGH LEVEL ARCHITECTURE\PROJECT\EXAMPLE\OBJ\VC140.PDB
C:\USERS\CAMERON\DOCUMENTS\UNI\REASSESMENTS\HIGH LEVEL ARCHITECTURE\PROJECT\EXAMPLE\OBJ\VC140.IDB
C:\USERS\CAMERON\DOCUMENTS\UNI\REASSESMENTS\HIGH LEVEL ARCHITECTURE\PROJECT\EXAMPLE\OBJ\AIACTOR.OBJ
C:\USERS\CAMERON\DOCUMENTS\UNI\REASSESMENTS\HIGH LEVEL ARCHITECTURE\PROJECT\EXAMPLE\OBJ\SEEK.OBJ
^C:\USERS\CAMERON\DOCUMENTS\UNI\REASSESMENTS\HIGH LEVEL ARCHITECTURE\PROJECT\EXAMPLE\SRC\RUNAWAY.CPP|C:\USERS\CAMERON\DOCUMENTS\UNI\REASSESMENTS\HIGH LEVEL ARCHITECTURE\PROJECT\EXAMPLE\SRC\SEEK.CPP
C:\USERS\CAMERON\DOCUMENTS\UNI\REASSESMENTS\HIGH LEVEL ARCHITECTURE\PROJECT\EXAMPLE\OBJ\VC140.PDB
C:\USERS\CAMERON\DOCUMENTS\UNI\REASSESMENTS\HIGH LEVEL ARCHITECTURE\PROJECT\EXAMPLE\OBJ\VC140.IDB
C:\USERS\CAMERON\DOCUMENTS\UNI\REASSESMENTS\HIGH LEVEL ARCHITECTURE\PROJECT\EXAMPLE\OBJ\RUNAWAY.OBJ
C:\USERS\CAMERON\DOCUMENTS\UNI\REASSESMENTS\HIGH LEVEL ARCHITECTURE\PROJECT\EXAMPLE\OBJ\SEEK.OBJ
^C:\USERS\CAMERON\DOCUMENTS\UNI\REASSESMENTS\HIGH LEVEL ARCHITECTURE\PROJECT\EXAMPLE\SRC\FLEE.CPP|C:\USERS\CAMERON\DOCUMENTS\UNI\REASSESMENTS\HIGH LEVEL ARCHITECTURE\PROJECT\EXAMPLE\SRC\RUNAWAY.CPP|C:\USERS\CAMERON\DOCUMENTS\UNI\REASSESMENTS\HIGH LEVEL ARCHITECTURE\PROJECT\EXAMPLE\SRC\SEEK.CPP
C:\USERS\CAMERON\DOCUMENTS\UNI\REASSESMENTS\HIGH LEVEL ARCHITECTURE\PROJECT\EXAMPLE\OBJ\VC140.PDB
C:\USERS\CAMERON\DOCUMENTS\UNI\REASSESMENTS\HIGH LEVEL ARCHITECTURE\PROJECT\EXAMPLE\OBJ\VC140.IDB
C:\USERS\CAMERON\DOCUMENTS\UNI\REASSESMENTS\HIGH LEVEL ARCHITECTURE\PROJECT\EXAMPLE\OBJ\FLEE.OBJ
C:\USERS\CAMERON\DOCUMENTS\UNI\REASSESMENTS\HIGH LEVEL ARCHITECTURE\PROJECT\EXAMPLE\OBJ\RUNAWAY.OBJ
C:\USERS\CAMERON\DOCUMENTS\UNI\REASSESMENTS\HIGH LEVEL ARCHITECTURE\PROJECT\EXAMPLE\OBJ\SEEK.OBJ
^C:\USERS\CAMERON\DOCUMENTS\UNI\REASSESMENTS\HIGH LEVEL ARCHITECTURE\PROJECT\EXAMPLE\SRC\AIACTOR.CPP|C:\USERS\CAMERON\DOCUMENTS\UNI\REASSESMENTS\HIGH LEVEL ARCHITECTURE\PROJECT\EXAMPLE\SRC\AIBRAIN.CPP|C:\USERS\CAMERON\DOCUMENTS\UNI\REASSESMENTS\HIGH LEVEL ARCHITECTURE\PROJECT\EXAMPLE\SRC\CHARGEAREA.CPP|C:\USERS\CAMERON\DOCUMENTS\UNI\REASSESMENTS\HIGH LEVEL ARCHITECTURE\PROJECT\EXAMPLE\SRC\CHASE.CPP|C:\USERS\CAMERON\DOCUMENTS\UNI\REASSESMENTS\HIGH LEVEL ARCHITECTURE\PROJECT\EXAMPLE\SRC\FLEE.CPP|C:\USERS\CAMERON\DOCUMENTS\UNI\REASSESMENTS\HIGH LEVEL ARCHITECTURE\PROJECT\EXAMPLE\SRC\ISCHARGELOW.CPP|C:\USERS\CAMERON\DOCUMENTS\UNI\REASSESMENTS\HIGH LEVEL ARCHITECTURE\PROJECT\EXAMPLE\SRC\ISENEMYINSIGHT.CPP|C:\USERS\CAMERON\DOCUMENTS\UNI\REASSESMENTS\HIGH LEVEL ARCHITECTURE\PROJECT\EXAMPLE\SRC\ISRIGHTSTATUS.CPP|C:\USERS\CAMERON\DOCUMENTS\UNI\REASSESMENTS\HIGH LEVEL ARCHITECTURE\PROJECT\EXAMPLE\SRC\LINECOMPARER.CPP|C:\USERS\CAMERON\DOCUMENTS\UNI\REASSESMENTS\HIGH LEVEL ARCHITECTURE\PROJECT\EXAMPLE\SRC\MAIN.CPP|C:\USERS\CAMERON\DOCUMENTS\UNI\REASSESMENTS\HIGH LEVEL ARCHITECTURE\PROJECT\EXAMPLE\SRC\MYAPPLICATION.CPP|C:\USERS\CAMERON\DOCUMENTS\UNI\REASSESMENTS\HIGH LEVEL ARCHITECTURE\PROJECT\EXAMPLE\SRC\NAVMESH.CPP|C:\USERS\CAMERON\DOCUMENTS\UNI\REASSESMENTS\HIGH LEVEL ARCHITECTURE\PROJECT\EXAMPLE\SRC\PATROL.CPP|C:\USERS\CAMERON\DOCUMENTS\UNI\REASSESMENTS\HIGH LEVEL ARCHITECTURE\PROJECT\EXAMPLE\SRC\RECHARGE.CPP|C:\USERS\CAMERON\DOCUMENTS\UNI\REASSESMENTS\HIGH LEVEL ARCHITECTURE\PROJECT\EXAMPLE\SRC\RUNAWAY.CPP|C:\USERS\CAMERON\DOCUMENTS\UNI\REASSESMENTS\HIGH LEVEL ARCHITECTURE\PROJECT\EXAMPLE\SRC\SEEK.CPP|C:\USERS\CAMERON\DOCUMENTS\UNI\REASSESMENTS\HIGH LEVEL ARCHITECTURE\PROJECT\EXAMPLE\SRC\SLEEP.CPP|C:\USERS\CAMERON\DOCUMENTS\UNI\REASSESMENTS\HIGH LEVEL ARCHITECTURE\PROJECT\EXAMPLE\SRC\STAGE.CPP|C:\USERS\CAMERON\DOCUMENTS\UNI\REASSESMENTS\HIGH LEVEL ARCHITECTURE\PROJECT\EXAMPLE\SRC\TAGBT.CPP
C:\USERS\CAMERON\DOCUMENTS\UNI\REASSESMENTS\HIGH LEVEL ARCHITECTURE\PROJECT\EXAMPLE\OBJ\VC140.PDB
C:\USERS\CAMERON\DOCUMENTS\UNI\REASSESMENTS\HIGH LEVEL ARCHITECTURE\PROJECT\EXAMPLE\OBJ\VC140.IDB
C:\USERS\CAMERON\DOCUMENTS\UNI\REASSESMENTS\HIGH LEVEL ARCHITECTURE\PROJECT\EXAMPLE\OBJ\AIACTOR.OBJ
C:\USERS\CAMERON\DOCUMENTS\UNI\REASSESMENTS\HIGH LEVEL ARCHITECTURE\PROJECT\EXAMPLE\OBJ\AIBRAIN.OBJ
C:\USERS\CAMERON\DOCUMENTS\UNI\REASSESMENTS\HIGH LEVEL ARCHITECTURE\PROJECT\EXAMPLE\OBJ\CHARGEAREA.OBJ
C:\USERS\CAMERON\DOCUMENTS\UNI\REASSESMENTS\HIGH LEVEL ARCHITECTURE\PROJECT\EXAMPLE\OBJ\CHASE.OBJ
C:\USERS\CAMERON\DOCUMENTS\UNI\REASSESMENTS\HIGH LEVEL ARCHITECTURE\PROJECT\EXAMPLE\OBJ\FLEE.OBJ
C:\USERS\CAMERON\DOCUMENTS\UNI\REASSESMENTS\HIGH LEVEL ARCHITECTURE\PROJECT\EXAMPLE\OBJ\ISCHARGELOW.OBJ
C:\USERS\CAMERON\DOCUMENTS\UNI\REASSESMENTS\HIGH LEVEL ARCHITECTURE\PROJECT\EXAMPLE\OBJ\ISENEMYINSIGHT.OBJ
C:\USERS\CAMERON\DOCUMENTS\UNI\REASSESMENTS\HIGH LEVEL ARCHITECTURE\PROJECT\EXAMPLE\OBJ\ISRIGHTSTATUS.OBJ
C:\USERS\CAMERON\DOCUMENTS\UNI\REASSESMENTS\HIGH LEVEL ARCHITECTURE\PROJECT\EXAMPLE\OBJ\LINECOMPARER.OBJ
C:\USERS\CAMERON\DOCUMENTS\UNI\REASSESMENTS\HIGH LEVEL ARCHITECTURE\PROJECT\EXAMPLE\OBJ\MYAPPLICATION.OBJ
C:\USERS\CAMERON\DOCUMENTS\UNI\REASSESMENTS\HIGH LEVEL ARCHITECTURE\PROJECT\EXAMPLE\OBJ\NAVMESH.OBJ
C:\USERS\CAMERON\DOCUMENTS\UNI\REASSESMENTS\HIGH LEVEL ARCHITECTURE\PROJECT\EXAMPLE\OBJ\PATROL.OBJ
C:\USERS\CAMERON\DOCUMENTS\UNI\REASSESMENTS\HIGH LEVEL ARCHITECTURE\PROJECT\EXAMPLE\OBJ\RECHARGE.OBJ
C:\USERS\CAMERON\DOCUMENTS\UNI\REASSESMENTS\HIGH LEVEL ARCHITECTURE\PROJECT\EXAMPLE\OBJ\RUNAWAY.OBJ
C:\USERS\CAMERON\DOCUMENTS\UNI\REASSESMENTS\HIGH LEVEL ARCHITECTURE\PROJECT\EXAMPLE\OBJ\SEEK.OBJ
C:\USERS\CAMERON\DOCUMENTS\UNI\REASSESMENTS\HIGH LEVEL ARCHITECTURE\PROJECT\EXAMPLE\OBJ\SLEEP.OBJ
C:\USERS\CAMERON\DOCUMENTS\UNI\REASSESMENTS\HIGH LEVEL ARCHITECTURE\PROJECT\EXAMPLE\OBJ\STAGE.OBJ
C:\USERS\CAMERON\DOCUMENTS\UNI\REASSESMENTS\HIGH LEVEL ARCHITECTURE\PROJECT\EXAMPLE\OBJ\TAGBT.OBJ
C:\USERS\CAMERON\DOCUMENTS\UNI\REASSESMENTS\HIGH LEVEL ARCHITECTURE\PROJECT\EXAMPLE\OBJ\MAIN.OBJ
^C:\USERS\CAMERON\DOCUMENTS\UNI\REASSESMENTS\HIGH LEVEL ARCHITECTURE\PROJECT\EXAMPLE\SRC\LINECOMPARER.CPP|C:\USERS\CAMERON\DOCUMENTS\UNI\REASSESMENTS\HIGH LEVEL ARCHITECTURE\PROJECT\EXAMPLE\SRC\MYAPPLICATION.CPP|C:\USERS\CAMERON\DOCUMENTS\UNI\REASSESMENTS\HIGH LEVEL ARCHITECTURE\PROJECT\EXAMPLE\SRC\NAVMESH.CPP
C:\USERS\CAMERON\DOCUMENTS\UNI\REASSESMENTS\HIGH LEVEL ARCHITECTURE\PROJECT\EXAMPLE\OBJ\VC140.PDB
C:\USERS\CAMERON\DOCUMENTS\UNI\REASSESMENTS\HIGH LEVEL ARCHITECTURE\PROJECT\EXAMPLE\OBJ\VC140.IDB
C:\USERS\CAMERON\DOCUMENTS\UNI\REASSESMENTS\HIGH LEVEL ARCHITECTURE\PROJECT\EXAMPLE\OBJ\LINECOMPARER.OBJ
C:\USERS\CAMERON\DOCUMENTS\UNI\REASSESMENTS\HIGH LEVEL ARCHITECTURE\PROJECT\EXAMPLE\OBJ\MYAPPLICATION.OBJ
C:\USERS\CAMERON\DOCUMENTS\UNI\REASSESMENTS\HIGH LEVEL ARCHITECTURE\PROJECT\EXAMPLE\OBJ\NAVMESH.OBJ
^C:\USERS\CAMERON\DOCUMENTS\UNI\REASSESMENTS\HIGH LEVEL ARCHITECTURE\PROJECT\EXAMPLE\SRC\AIACTOR.CPP|C:\USERS\CAMERON\DOCUMENTS\UNI\REASSESMENTS\HIGH LEVEL ARCHITECTURE\PROJECT\EXAMPLE\SRC\AIBRAIN.CPP|C:\USERS\CAMERON\DOCUMENTS\UNI\REASSESMENTS\HIGH LEVEL ARCHITECTURE\PROJECT\EXAMPLE\SRC\CHARGEAREA.CPP|C:\USERS\CAMERON\DOCUMENTS\UNI\REASSESMENTS\HIGH LEVEL ARCHITECTURE\PROJECT\EXAMPLE\SRC\CHASE.CPP|C:\USERS\CAMERON\DOCUMENTS\UNI\REASSESMENTS\HIGH LEVEL ARCHITECTURE\PROJECT\EXAMPLE\SRC\FLEE.CPP|C:\USERS\CAMERON\DOCUMENTS\UNI\REASSESMENTS\HIGH LEVEL ARCHITECTURE\PROJECT\EXAMPLE\SRC\INVERTER.CPP|C:\USERS\CAMERON\DOCUMENTS\UNI\REASSESMENTS\HIGH LEVEL ARCHITECTURE\PROJECT\EXAMPLE\SRC\ISCHARGELOW.CPP|C:\USERS\CAMERON\DOCUMENTS\UNI\REASSESMENTS\HIGH LEVEL ARCHITECTURE\PROJECT\EXAMPLE\SRC\ISENEMYINSIGHT.CPP|C:\USERS\CAMERON\DOCUMENTS\UNI\REASSESMENTS\HIGH LEVEL ARCHITECTURE\PROJECT\EXAMPLE\SRC\ISRIGHTSTATUS.CPP|C:\USERS\CAMERON\DOCUMENTS\UNI\REASSESMENTS\HIGH LEVEL ARCHITECTURE\PROJECT\EXAMPLE\SRC\LINECOMPARER.CPP|C:\USERS\CAMERON\DOCUMENTS\UNI\REASSESMENTS\HIGH LEVEL ARCHITECTURE\PROJECT\EXAMPLE\SRC\LOOPUNTILFAILURE.CPP|C:\USERS\CAMERON\DOCUMENTS\UNI\REASSESMENTS\HIGH LEVEL ARCHITECTURE\PROJECT\EXAMPLE\SRC\MAIN.CPP|C:\USERS\CAMERON\DOCUMENTS\UNI\REASSESMENTS\HIGH LEVEL ARCHITECTURE\PROJECT\EXAMPLE\SRC\MYAPPLICATION.CPP|C:\USERS\CAMERON\DOCUMENTS\UNI\REASSESMENTS\HIGH LEVEL ARCHITECTURE\PROJECT\EXAMPLE\SRC\NAVMESH.CPP|C:\USERS\CAMERON\DOCUMENTS\UNI\REASSESMENTS\HIGH LEVEL ARCHITECTURE\PROJECT\EXAMPLE\SRC\PATROL.CPP|C:\USERS\CAMERON\DOCUMENTS\UNI\REASSESMENTS\HIGH LEVEL ARCHITECTURE\PROJECT\EXAMPLE\SRC\PATROLANDCHARGEBT.CPP|C:\USERS\CAMERON\DOCUMENTS\UNI\REASSESMENTS\HIGH LEVEL ARCHITECTURE\PROJECT\EXAMPLE\SRC\RECHARGE.CPP|C:\USERS\CAMERON\DOCUMENTS\UNI\REASSESMENTS\HIGH LEVEL ARCHITECTURE\PROJECT\EXAMPLE\SRC\RUNAWAY.CPP|C:\USERS\CAMERON\DOCUMENTS\UNI\REASSESMENTS\HIGH LEVEL ARCHITECTURE\PROJECT\EXAMPLE\SRC\SEEK.CPP|C:\USERS\CAMERON\DOCUMENTS\UNI\REASSESMENTS\HIGH LEVEL ARCHITECTURE\PROJECT\EXAMPLE\SRC\SELECTOR.CPP|C:\USERS\CAMERON\DOCUMENTS\UNI\REASSESMENTS\HIGH LEVEL ARCHITECTURE\PROJECT\EXAMPLE\SRC\SEQUENCE.CPP|C:\USERS\CAMERON\DOCUMENTS\UNI\REASSESMENTS\HIGH LEVEL ARCHITECTURE\PROJECT\EXAMPLE\SRC\SLEEP.CPP|C:\USERS\CAMERON\DOCUMENTS\UNI\REASSESMENTS\HIGH LEVEL ARCHITECTURE\PROJECT\EXAMPLE\SRC\STAGE.CPP|C:\USERS\CAMERON\DOCUMENTS\UNI\REASSESMENTS\HIGH LEVEL ARCHITECTURE\PROJECT\EXAMPLE\SRC\TAGBT.CPP
C:\USERS\CAMERON\DOCUMENTS\UNI\REASSESMENTS\HIGH LEVEL ARCHITECTURE\PROJECT\EXAMPLE\OBJ\VC140.PDB
C:\USERS\CAMERON\DOCUMENTS\UNI\REASSESMENTS\HIGH LEVEL ARCHITECTURE\PROJECT\EXAMPLE\OBJ\SEQUENCE.OBJ
C:\USERS\CAMERON\DOCUMENTS\UNI\REASSESMENTS\HIGH LEVEL ARCHITECTURE\PROJECT\EXAMPLE\OBJ\SELECTOR.OBJ
C:\USERS\CAMERON\DOCUMENTS\UNI\REASSESMENTS\HIGH LEVEL ARCHITECTURE\PROJECT\EXAMPLE\OBJ\SEEK.OBJ
C:\USERS\CAMERON\DOCUMENTS\UNI\REASSESMENTS\HIGH LEVEL ARCHITECTURE\PROJECT\EXAMPLE\OBJ\RUNAWAY.OBJ
C:\USERS\CAMERON\DOCUMENTS\UNI\REASSESMENTS\HIGH LEVEL ARCHITECTURE\PROJECT\EXAMPLE\OBJ\RECHARGE.OBJ
C:\USERS\CAMERON\DOCUMENTS\UNI\REASSESMENTS\HIGH LEVEL ARCHITECTURE\PROJECT\EXAMPLE\OBJ\PATROLANDCHARGEBT.OBJ
C:\USERS\CAMERON\DOCUMENTS\UNI\REASSESMENTS\HIGH LEVEL ARCHITECTURE\PROJECT\EXAMPLE\OBJ\MYAPPLICATION.OBJ
C:\USERS\CAMERON\DOCUMENTS\UNI\REASSESMENTS\HIGH LEVEL ARCHITECTURE\PROJECT\EXAMPLE\OBJ\PATROL.OBJ
C:\USERS\CAMERON\DOCUMENTS\UNI\REASSESMENTS\HIGH LEVEL ARCHITECTURE\PROJECT\EXAMPLE\OBJ\NAVMESH.OBJ
C:\USERS\CAMERON\DOCUMENTS\UNI\REASSESMENTS\HIGH LEVEL ARCHITECTURE\PROJECT\EXAMPLE\OBJ\MAIN.OBJ
C:\USERS\CAMERON\DOCUMENTS\UNI\REASSESMENTS\HIGH LEVEL ARCHITECTURE\PROJECT\EXAMPLE\OBJ\LOOPUNTILFAILURE.OBJ
C:\USERS\CAMERON\DOCUMENTS\UNI\REASSESMENTS\HIGH LEVEL ARCHITECTURE\PROJECT\EXAMPLE\OBJ\ISRIGHTSTATUS.OBJ
C:\USERS\CAMERON\DOCUMENTS\UNI\REASSESMENTS\HIGH LEVEL ARCHITECTURE\PROJECT\EXAMPLE\OBJ\ISENEMYINSIGHT.OBJ
C:\USERS\CAMERON\DOCUMENTS\UNI\REASSESMENTS\HIGH LEVEL ARCHITECTURE\PROJECT\EXAMPLE\OBJ\ISCHARGELOW.OBJ
C:\USERS\CAMERON\DOCUMENTS\UNI\REASSESMENTS\HIGH LEVEL ARCHITECTURE\PROJECT\EXAMPLE\OBJ\INVERTER.OBJ
C:\USERS\CAMERON\DOCUMENTS\UNI\REASSESMENTS\HIGH LEVEL ARCHITECTURE\PROJECT\EXAMPLE\OBJ\FLEE.OBJ
C:\USERS\CAMERON\DOCUMENTS\UNI\REASSESMENTS\HIGH LEVEL ARCHITECTURE\PROJECT\EXAMPLE\OBJ\CHASE.OBJ
C:\USERS\CAMERON\DOCUMENTS\UNI\REASSESMENTS\HIGH LEVEL ARCHITECTURE\PROJECT\EXAMPLE\OBJ\CHARGEAREA.OBJ
C:\USERS\CAMERON\DOCUMENTS\UNI\REASSESMENTS\HIGH LEVEL ARCHITECTURE\PROJECT\EXAMPLE\OBJ\AIBRAIN.OBJ
C:\USERS\CAMERON\DOCUMENTS\UNI\REASSESMENTS\HIGH LEVEL ARCHITECTURE\PROJECT\EXAMPLE\OBJ\AIACTOR.OBJ
C:\USERS\CAMERON\DOCUMENTS\UNI\REASSESMENTS\HIGH LEVEL ARCHITECTURE\PROJECT\EXAMPLE\OBJ\TAGBT.OBJ
C:\USERS\CAMERON\DOCUMENTS\UNI\REASSESMENTS\HIGH LEVEL ARCHITECTURE\PROJECT\EXAMPLE\OBJ\STAGE.OBJ
C:\USERS\CAMERON\DOCUMENTS\UNI\REASSESMENTS\HIGH LEVEL ARCHITECTURE\PROJECT\EXAMPLE\OBJ\SLEEP.OBJ
C:\USERS\CAMERON\DOCUMENTS\UNI\REASSESMENTS\HIGH LEVEL ARCHITECTURE\PROJECT\EXAMPLE\OBJ\LINECOMPARER.OBJ
C:\USERS\CAMERON\DOCUMENTS\UNI\REASSESMENTS\HIGH LEVEL ARCHITECTURE\PROJECT\EXAMPLE\OBJ\VC140.IDB
^C:\USERS\CAMERON\DOCUMENTS\UNI\REASSESMENTS\HIGH LEVEL ARCHITECTURE\PROJECT\EXAMPLE\SRC\AIACTOR.CPP
C:\USERS\CAMERON\DOCUMENTS\UNI\REASSESMENTS\HIGH LEVEL ARCHITECTURE\PROJECT\EXAMPLE\OBJ\VC140.PDB
^C:\USERS\CAMERON\DOCUMENTS\UNI\REASSESMENTS\HIGH LEVEL ARCHITECTURE\PROJECT\EXAMPLE\SRC\AIBRAIN.CPP
C:\USERS\CAMERON\DOCUMENTS\UNI\REASSESMENTS\HIGH LEVEL ARCHITECTURE\PROJECT\EXAMPLE\OBJ\VC140.PDB
^C:\USERS\CAMERON\DOCUMENTS\UNI\REASSESMENTS\HIGH LEVEL ARCHITECTURE\PROJECT\EXAMPLE\SRC\CHARGEAREA.CPP
C:\USERS\CAMERON\DOCUMENTS\UNI\REASSESMENTS\HIGH LEVEL ARCHITECTURE\PROJECT\EXAMPLE\OBJ\VC140.PDB
^C:\USERS\CAMERON\DOCUMENTS\UNI\REASSESMENTS\HIGH LEVEL ARCHITECTURE\PROJECT\EXAMPLE\SRC\CHASE.CPP
C:\USERS\CAMERON\DOCUMENTS\UNI\REASSESMENTS\HIGH LEVEL ARCHITECTURE\PROJECT\EXAMPLE\OBJ\VC140.PDB
^C:\USERS\CAMERON\DOCUMENTS\UNI\REASSESMENTS\HIGH LEVEL ARCHITECTURE\PROJECT\EXAMPLE\SRC\FLEE.CPP
C:\USERS\CAMERON\DOCUMENTS\UNI\REASSESMENTS\HIGH LEVEL ARCHITECTURE\PROJECT\EXAMPLE\OBJ\VC140.PDB
^C:\USERS\CAMERON\DOCUMENTS\UNI\REASSESMENTS\HIGH LEVEL ARCHITECTURE\PROJECT\EXAMPLE\SRC\INVERTER.CPP
C:\USERS\CAMERON\DOCUMENTS\UNI\REASSESMENTS\HIGH LEVEL ARCHITECTURE\PROJECT\EXAMPLE\OBJ\VC140.PDB
^C:\USERS\CAMERON\DOCUMENTS\UNI\REASSESMENTS\HIGH LEVEL ARCHITECTURE\PROJECT\EXAMPLE\SRC\ISCHARGELOW.CPP
C:\USERS\CAMERON\DOCUMENTS\UNI\REASSESMENTS\HIGH LEVEL ARCHITECTURE\PROJECT\EXAMPLE\OBJ\VC140.PDB
^C:\USERS\CAMERON\DOCUMENTS\UNI\REASSESMENTS\HIGH LEVEL ARCHITECTURE\PROJECT\EXAMPLE\SRC\ISENEMYINSIGHT.CPP
C:\USERS\CAMERON\DOCUMENTS\UNI\REASSESMENTS\HIGH LEVEL ARCHITECTURE\PROJECT\EXAMPLE\OBJ\VC140.PDB
^C:\USERS\CAMERON\DOCUMENTS\UNI\REASSESMENTS\HIGH LEVEL ARCHITECTURE\PROJECT\EXAMPLE\SRC\ISRIGHTSTATUS.CPP
C:\USERS\CAMERON\DOCUMENTS\UNI\REASSESMENTS\HIGH LEVEL ARCHITECTURE\PROJECT\EXAMPLE\OBJ\VC140.PDB
^C:\USERS\CAMERON\DOCUMENTS\UNI\REASSESMENTS\HIGH LEVEL ARCHITECTURE\PROJECT\EXAMPLE\SRC\LOOPUNTILFAILURE.CPP
C:\USERS\CAMERON\DOCUMENTS\UNI\REASSESMENTS\HIGH LEVEL ARCHITECTURE\PROJECT\EXAMPLE\OBJ\VC140.PDB
^C:\USERS\CAMERON\DOCUMENTS\UNI\REASSESMENTS\HIGH LEVEL ARCHITECTURE\PROJECT\EXAMPLE\SRC\MAIN.CPP
C:\USERS\CAMERON\DOCUMENTS\UNI\REASSESMENTS\HIGH LEVEL ARCHITECTURE\PROJECT\EXAMPLE\OBJ\VC140.PDB
^C:\USERS\CAMERON\DOCUMENTS\UNI\REASSESMENTS\HIGH LEVEL ARCHITECTURE\PROJECT\EXAMPLE\SRC\NAVMESH.CPP
C:\USERS\CAMERON\DOCUMENTS\UNI\REASSESMENTS\HIGH LEVEL ARCHITECTURE\PROJECT\EXAMPLE\OBJ\VC140.PDB
^C:\USERS\CAMERON\DOCUMENTS\UNI\REASSESMENTS\HIGH LEVEL ARCHITECTURE\PROJECT\EXAMPLE\SRC\PATROL.CPP
C:\USERS\CAMERON\DOCUMENTS\UNI\REASSESMENTS\HIGH LEVEL ARCHITECTURE\PROJECT\EXAMPLE\OBJ\VC140.PDB
^C:\USERS\CAMERON\DOCUMENTS\UNI\REASSESMENTS\HIGH LEVEL ARCHITECTURE\PROJECT\EXAMPLE\SRC\MYAPPLICATION.CPP
C:\USERS\CAMERON\DOCUMENTS\UNI\REASSESMENTS\HIGH LEVEL ARCHITECTURE\PROJECT\EXAMPLE\OBJ\VC140.PDB
^C:\USERS\CAMERON\DOCUMENTS\UNI\REASSESMENTS\HIGH LEVEL ARCHITECTURE\PROJECT\EXAMPLE\SRC\PATROLANDCHARGEBT.CPP
C:\USERS\CAMERON\DOCUMENTS\UNI\REASSESMENTS\HIGH LEVEL ARCHITECTURE\PROJECT\EXAMPLE\OBJ\VC140.PDB
^C:\USERS\CAMERON\DOCUMENTS\UNI\REASSESMENTS\HIGH LEVEL ARCHITECTURE\PROJECT\EXAMPLE\SRC\RECHARGE.CPP
C:\USERS\CAMERON\DOCUMENTS\UNI\REASSESMENTS\HIGH LEVEL ARCHITECTURE\PROJECT\EXAMPLE\OBJ\VC140.PDB
^C:\USERS\CAMERON\DOCUMENTS\UNI\REASSESMENTS\HIGH LEVEL ARCHITECTURE\PROJECT\EXAMPLE\SRC\RUNAWAY.CPP
C:\USERS\CAMERON\DOCUMENTS\UNI\REASSESMENTS\HIGH LEVEL ARCHITECTURE\PROJECT\EXAMPLE\OBJ\VC140.PDB
^C:\USERS\CAMERON\DOCUMENTS\UNI\REASSESMENTS\HIGH LEVEL ARCHITECTURE\PROJECT\EXAMPLE\SRC\SEEK.CPP
C:\USERS\CAMERON\DOCUMENTS\UNI\REASSESMENTS\HIGH LEVEL ARCHITECTURE\PROJECT\EXAMPLE\OBJ\VC140.PDB
^C:\USERS\CAMERON\DOCUMENTS\UNI\REASSESMENTS\HIGH LEVEL ARCHITECTURE\PROJECT\EXAMPLE\SRC\SELECTOR.CPP
C:\USERS\CAMERON\DOCUMENTS\UNI\REASSESMENTS\HIGH LEVEL ARCHITECTURE\PROJECT\EXAMPLE\OBJ\VC140.PDB
^C:\USERS\CAMERON\DOCUMENTS\UNI\REASSESMENTS\HIGH LEVEL ARCHITECTURE\PROJECT\EXAMPLE\SRC\SEQUENCE.CPP
C:\USERS\CAMERON\DOCUMENTS\UNI\REASSESMENTS\HIGH LEVEL ARCHITECTURE\PROJECT\EXAMPLE\OBJ\VC140.PDB
^C:\USERS\CAMERON\DOCUMENTS\UNI\REASSESMENTS\HIGH LEVEL ARCHITECTURE\PROJECT\EXAMPLE\SRC\LINECOMPARER.CPP
C:\USERS\CAMERON\DOCUMENTS\UNI\REASSESMENTS\HIGH LEVEL ARCHITECTURE\PROJECT\EXAMPLE\OBJ\VC140.PDB
^C:\USERS\CAMERON\DOCUMENTS\UNI\REASSESMENTS\HIGH LEVEL ARCHITECTURE\PROJECT\EXAMPLE\SRC\SLEEP.CPP
C:\USERS\CAMERON\DOCUMENTS\UNI\REASSESMENTS\HIGH LEVEL ARCHITECTURE\PROJECT\EXAMPLE\OBJ\VC140.PDB
^C:\USERS\CAMERON\DOCUMENTS\UNI\REASSESMENTS\HIGH LEVEL ARCHITECTURE\PROJECT\EXAMPLE\SRC\STAGE.CPP
C:\USERS\CAMERON\DOCUMENTS\UNI\REASSESMENTS\HIGH LEVEL ARCHITECTURE\PROJECT\EXAMPLE\OBJ\VC140.PDB
^C:\USERS\CAMERON\DOCUMENTS\UNI\REASSESMENTS\HIGH LEVEL ARCHITECTURE\PROJECT\EXAMPLE\SRC\TAGBT.CPP
C:\USERS\CAMERON\DOCUMENTS\UNI\REASSESMENTS\HIGH LEVEL ARCHITECTURE\PROJECT\EXAMPLE\OBJ\VC140.PDB
